﻿[
  {
    "id": 2999,
    "text": "Trạm 2999",
    "diachi": "Số 10 đường Huỳnh Phan Hộ, Khu vực 1, Phường III, Thành phố Vị Thanh, Tỉnh Hậu Giang, Việt Nam",
    "lat": "9.7713306",
    "lng": "105.4758436",
    "network": "VNPT",
    "networktype": "GSM/WCDMA",
    "provinceid": "56"
  },
  {
    "id": 2998,
    "text": "Trạm 2998",
    "diachi": "Số 12 đường Huỳnh Phan Hộ, Khu vực 1, Phường III, Thành phố Vị Thanh, Tỉnh Hậu Giang, Việt Nam",
    "lat": "9.7713306",
    "lng": "105.4758436",
    "network": "MobiFone",
    "networktype": "GSM",
    "provinceid": "56"
  },
  {
    "id": 2997,
    "text": "Trạm 2997",
    "diachi": "D1-1, đường số 6, ấp Phú Nhơn, Xã Đông Phú, Huyện Châu Thành, Tỉnh Hậu Giang, Việt Nam",
    "lat": "9.96226719",
    "lng": "105.84770242",
    "network": "Viettel",
    "networktype": "GSM",
    "provinceid": "56"
  },
  {
    "id": 2996,
    "text": "Trạm 2996",
    "diachi": "Ấp Tân Hiệp, Xã Tân Bình, Huyện Phụng Hiệp, Tỉnh Hậu Giang, Việt Nam",
    "lat": "9.86501044",
    "lng": "105.6494699",
    "network": "MobiFone",
    "networktype": "GSM",
    "provinceid": "56"
  },
  {
    "id": 2995,
    "text": "Trạm 2995",
    "diachi": "Số 53, Long Hòa A1, Xã Long Thạnh, Huyện Phụng Hiệp, Tỉnh Hậu Giang, Việt Nam",
    "lat": "9.88749553620353",
    "lng": "105.762974959185",
    "network": "VNPT",
    "networktype": "GSM",
    "provinceid": "56"
  },
  {
    "id": 2994,
    "text": "Trạm 2994",
    "diachi": "Số 11, Trần Hưng Đạo, Khu vực 4, Phường V, Thành phố Vị Thanh, Tỉnh Hậu Giang, Việt Nam",
    "lat": "9.78180487",
    "lng": "105.46677087",
    "network": "FPT",
    "networktype": "GSM/WCDMA",
    "provinceid": "56"
  },
  {
    "id": 2993,
    "text": "Trạm 2993",
    "diachi": "Ấp Phú Lợi, Xã Tân Phú Thạnh, Huyện Châu Thành A, Tỉnh Hậu Giang, Việt Nam",
    "lat": "9.94877811469693",
    "lng": "105.720219678411",
    "network": "Viettel",
    "networktype": "WCDMA",
    "provinceid": "56"
  },
  {
    "id": 2992,
    "text": "Trạm 2992",
    "diachi": "Số 341, Quốc lộ 1A, Ấp Phú Lợi, Xã Tân Phú Thạnh, Huyện Châu Thành A, Tỉnh Hậu Giang, Việt Nam",
    "lat": "9.94877811469693",
    "lng": "105.720219678411",
    "network": "FPT",
    "networktype": "GSM/WCDMA",
    "provinceid": "56"
  },
  {
    "id": 2991,
    "text": "Trạm 2991",
    "diachi": "số 23 đường Đông Khởi, Khu vực 3, Phường VII, Thành phố Vị Thanh, Tỉnh Hậu Giang, Việt Nam",
    "lat": "9.75284643168588",
    "lng": "105.416652411533",
    "network": "FPT",
    "networktype": "WCDMA",
    "provinceid": "56"
  },
  {
    "id": 2990,
    "text": "Trạm 2990",
    "diachi": "Ấp Phú Nhơn, Xã Đông Phú, Huyện Châu Thành, Tỉnh Hậu Giang, Việt Nam",
    "lat": "9.96226719",
    "lng": "105.84770242",
    "network": "FPT",
    "networktype": "WCDMA",
    "provinceid": "56"
  },
  {
    "id": 2989,
    "text": "Trạm 2989",
    "diachi": "ấp Tân Hiệp, Xã Tân Bình, Huyện Phụng Hiệp, Tỉnh Hậu Giang, Việt Nam",
    "lat": "9.86501044",
    "lng": "105.6494699",
    "network": "Viettel",
    "networktype": "GSM",
    "provinceid": "56"
  },
  {
    "id": 2988,
    "text": "Trạm 2988",
    "diachi": "Ấp Tân Hiệp, Xã Tân Bình, Huyện Phụng Hiệp, Tỉnh Hậu Giang, Việt Nam",
    "lat": "9.86501044",
    "lng": "105.6494699",
    "network": "Viettel",
    "networktype": "GSM/WCDMA",
    "provinceid": "56"
  },
  {
    "id": 2987,
    "text": "Trạm 2987",
    "diachi": "Ấp Tân Hiệp, Xã Tân Bình, Huyện Phụng Hiệp, Tỉnh Hậu Giang, Việt Nam",
    "lat": "9.86501044",
    "lng": "105.6494699",
    "network": "MobiFone",
    "networktype": "GSM",
    "provinceid": "56"
  },
  {
    "id": 2986,
    "text": "Trạm 2986",
    "diachi": "Tỉnh lộ 927, ấp 8, Xã Hoà An, Huyện Phụng Hiệp, Tỉnh Hậu Giang, Việt Nam",
    "lat": "9.78426754820691",
    "lng": "105.624568110319",
    "network": "Viettel",
    "networktype": "GSM",
    "provinceid": "56"
  },
  {
    "id": 2985,
    "text": "Trạm 2985",
    "diachi": "Ấp Tân Hiệp, Xã Tân Bình, Huyện Phụng Hiệp, Tỉnh Hậu Giang, Việt Nam",
    "lat": "9.86501044",
    "lng": "105.6494699",
    "network": "VNPT",
    "networktype": "GSM/WCDMA",
    "provinceid": "56"
  },
  {
    "id": 2984,
    "text": "Trạm 2984",
    "diachi": "Ấp Tân Hiệp, Xã Tân Bình, Huyện Phụng Hiệp, Tỉnh Hậu Giang, Việt Nam",
    "lat": "9.86501044",
    "lng": "105.6494699",
    "network": "VNPT",
    "networktype": "GSM",
    "provinceid": "56"
  },
  {
    "id": 2983,
    "text": "Trạm 2983",
    "diachi": "Ấp Tân Hiệp, Xã Tân Bình, Huyện Phụng Hiệp, Tỉnh Hậu Giang, Việt Nam",
    "lat": "9.86501044",
    "lng": "105.6494699",
    "network": "VNPT",
    "networktype": "WCDMA",
    "provinceid": "56"
  },
  {
    "id": 2982,
    "text": "Trạm 2982",
    "diachi": "Số Lô A1-A2 đường số 01, Khu vực 4, Cụm Công nghiệp - Tiểu thủ công nghiệp, Phường VII, Thành phố Vị Thanh, Tỉnh Hậu Giang, Việt Nam",
    "lat": "9.75284643168588",
    "lng": "105.416652411533",
    "network": "MobiFone",
    "networktype": "GSM",
    "provinceid": "56"
  },
  {
    "id": 2981,
    "text": "Trạm 2981",
    "diachi": "Đường Nguyễn Thị Định, Xã Tân Phước Hưng, Huyện Phụng Hiệp, Tỉnh Hậu Giang, Việt Nam",
    "lat": "9.75300341168374",
    "lng": "105.804128077245",
    "network": "FPT",
    "networktype": "WCDMA",
    "provinceid": "56"
  },
  {
    "id": 2980,
    "text": "Trạm 2980",
    "diachi": "ấp Tân Hiệp, Xã Tân Bình, Huyện Phụng Hiệp, Tỉnh Hậu Giang, Việt Nam",
    "lat": "9.86501044",
    "lng": "105.6494699",
    "network": "Viettel",
    "networktype": "WCDMA",
    "provinceid": "56"
  },
  {
    "id": 2979,
    "text": "Trạm 2979",
    "diachi": "Số 459, Quốc lộ 1A, Ấp Tân Phú A, Thị Trấn Cái Tắc, Huyện Châu Thành A, Tỉnh Hậu Giang, Việt Nam",
    "lat": "9.92543051661828",
    "lng": "105.739023034734",
    "network": "VNPT",
    "networktype": "GSM/WCDMA",
    "provinceid": "56"
  },
  {
    "id": 2978,
    "text": "Trạm 2978",
    "diachi": "ấp 6, Xã Thuận Hưng, Huyện Long Mỹ, Tỉnh Hậu Giang, Việt Nam",
    "lat": "9.66303796212833",
    "lng": "105.522236133056",
    "network": "VNPT",
    "networktype": "GSM",
    "provinceid": "56"
  },
  {
    "id": 2977,
    "text": "Trạm 2977",
    "diachi": "ấp 6, Xã Thuận Hưng, Huyện Long Mỹ, Tỉnh Hậu Giang, Việt Nam",
    "lat": "9.66303796212833",
    "lng": "105.522236133056",
    "network": "FPT",
    "networktype": "GSM",
    "provinceid": "56"
  },
  {
    "id": 2976,
    "text": "Trạm 2976",
    "diachi": "số 09 ấp Láng Hầm, Xã Thạnh Xuân, Huyện Châu Thành A, Tỉnh Hậu Giang, Việt Nam",
    "lat": "9.92954070560163",
    "lng": "105.68833614565",
    "network": "Viettel",
    "networktype": "GSM/WCDMA",
    "provinceid": "56"
  },
  {
    "id": 2975,
    "text": "Trạm 2975",
    "diachi": "Ấp 1, Xã Vị Tân, Thành phố Vị Thanh, Tỉnh Hậu Giang, Việt Nam",
    "lat": "9.79035605",
    "lng": "105.44555375",
    "network": "VNPT",
    "networktype": "WCDMA",
    "provinceid": "56"
  },
  {
    "id": 2974,
    "text": "Trạm 2974",
    "diachi": "Số 06, ấp 5, Xã Xà Phiên, Huyện Long Mỹ, Tỉnh Hậu Giang, Việt Nam",
    "lat": "9.61883623112294",
    "lng": "105.506068713636",
    "network": "FPT",
    "networktype": "WCDMA",
    "provinceid": "56"
  },
  {
    "id": 2973,
    "text": "Trạm 2973",
    "diachi": "Ấp Tân Long, Xã Tân Bình, Huyện Phụng Hiệp, Tỉnh Hậu Giang, Việt Nam",
    "lat": "9.86501044",
    "lng": "105.6494699",
    "network": "Viettel",
    "networktype": "WCDMA",
    "provinceid": "56"
  },
  {
    "id": 2972,
    "text": "Trạm 2972",
    "diachi": "Ấp Tân Long, Xã Tân Bình, Huyện Phụng Hiệp, Tỉnh Hậu Giang, Việt Nam",
    "lat": "9.86501044",
    "lng": "105.6494699",
    "network": "VNPT",
    "networktype": "WCDMA",
    "provinceid": "56"
  },
  {
    "id": 2971,
    "text": "Trạm 2971",
    "diachi": "Đường Trần Khánh Dư, khu vực 4, Phường V, Thành phố Vị Thanh, Tỉnh Hậu Giang, Việt Nam",
    "lat": "9.78180487",
    "lng": "105.46677087",
    "network": "FPT",
    "networktype": "GSM/WCDMA",
    "provinceid": "56"
  },
  {
    "id": 2970,
    "text": "Trạm 2970",
    "diachi": "Quốc lộ 61 ấp Hòa Đức, Xã Hoà An, Huyện Phụng Hiệp, Tỉnh Hậu Giang, Việt Nam",
    "lat": "9.78426754820691",
    "lng": "105.624568110319",
    "network": "VNPT",
    "networktype": "WCDMA",
    "provinceid": "56"
  },
  {
    "id": 2969,
    "text": "Trạm 2969",
    "diachi": "Thửa đất số 1560, tờ bản đồ số 03, Ấp Phước Long, Xã Đông Phước A, Huyện Châu Thành, Tỉnh Hậu Giang, Việt Nam",
    "lat": "9.931471",
    "lng": "105.774554",
    "network": "VNPT",
    "networktype": "WCDMA",
    "provinceid": "56"
  },
  {
    "id": 2968,
    "text": "Trạm 2968",
    "diachi": "Số 143 Lê Quý Đôn, Phường III, Thành phố Vị Thanh, Tỉnh Hậu Giang, Việt Nam",
    "lat": "9.7713306",
    "lng": "105.4758436",
    "network": "Viettel",
    "networktype": "GSM/WCDMA",
    "provinceid": "56"
  },
  {
    "id": 2967,
    "text": "Trạm 2967",
    "diachi": "số 335 ấp Tầm Vu 1, Xã Thạnh Hoà, Huyện Phụng Hiệp, Tỉnh Hậu Giang, Việt Nam",
    "lat": "9.897208",
    "lng": "105.668311",
    "network": "VNPT",
    "networktype": "WCDMA",
    "provinceid": "56"
  },
  {
    "id": 2966,
    "text": "Trạm 2966",
    "diachi": "ấp Đông Lợi, Xã Đông Phước, Huyện Châu Thành, Tỉnh Hậu Giang, Việt Nam",
    "lat": "9.88721905666916",
    "lng": "105.796343188599",
    "network": "FPT",
    "networktype": "GSM/WCDMA",
    "provinceid": "56"
  },
  {
    "id": 2965,
    "text": "Trạm 2965",
    "diachi": "số 106 Nguyễn Huệ, Khu vực 5, Phường IV, Thành phố Vị Thanh, Tỉnh Hậu Giang, Việt Nam",
    "lat": "9.78459161",
    "lng": "105.46528634",
    "network": "VNPT",
    "networktype": "GSM/WCDMA",
    "provinceid": "56"
  },
  {
    "id": 2964,
    "text": "Trạm 2964",
    "diachi": "Khu Công Nghiệp Tân Phú Thạnh - giai đoạn 1, Xã Tân Phú Thạnh, Huyện Châu Thành A, Tỉnh Hậu Giang, Việt Nam",
    "lat": "9.94877811469693",
    "lng": "105.720219678411",
    "network": "FPT",
    "networktype": "WCDMA",
    "provinceid": "56"
  },
  {
    "id": 2963,
    "text": "Trạm 2963",
    "diachi": "Ấp 4 , Xã Hoà An, Huyện Phụng Hiệp, Tỉnh Hậu Giang, Việt Nam",
    "lat": "9.78426754820691",
    "lng": "105.624568110319",
    "network": "FPT",
    "networktype": "GSM/WCDMA",
    "provinceid": "56"
  },
  {
    "id": 2962,
    "text": "Trạm 2962",
    "diachi": "Ấp 1B, Xã Tân Hòa, Huyện Châu Thành A, Tỉnh Hậu Giang, Việt Nam",
    "lat": "9.91911418",
    "lng": "105.62473304",
    "network": "Viettel",
    "networktype": "WCDMA",
    "provinceid": "56"
  },
  {
    "id": 2961,
    "text": "Trạm 2961",
    "diachi": "Số 05, đường 01 khu dân cư Đông Phú, Xã Đông Phú, Huyện Châu Thành, Tỉnh Hậu Giang, Việt Nam",
    "lat": "9.96226719",
    "lng": "105.84770242",
    "network": "FPT",
    "networktype": "WCDMA",
    "provinceid": "56"
  },
  {
    "id": 2960,
    "text": "Trạm 2960",
    "diachi": "Số 83, ấp Nhất, Xã Thạnh Hoà, Huyện Phụng Hiệp, Tỉnh Hậu Giang, Việt Nam",
    "lat": "9.897208",
    "lng": "105.668311",
    "network": "MobiFone",
    "networktype": "GSM/WCDMA",
    "provinceid": "56"
  },
  {
    "id": 2959,
    "text": "Trạm 2959",
    "diachi": "đường Hùng Vương, Khu vực 4, Phường V, Thành phố Vị Thanh, Tỉnh Hậu Giang, Việt Nam",
    "lat": "9.78180487",
    "lng": "105.46677087",
    "network": "Viettel",
    "networktype": "GSM/WCDMA",
    "provinceid": "56"
  },
  {
    "id": 2958,
    "text": "Trạm 2958",
    "diachi": "Đường Nguyễn Trung Trực, ấp Nhơn Thuận 1A, Thị Trấn Một Ngàn, Huyện Châu Thành A, Tỉnh Hậu Giang, Việt Nam",
    "lat": "9.92837676278537",
    "lng": "105.629179980098",
    "network": "FPT",
    "networktype": "GSM/WCDMA",
    "provinceid": "56"
  },
  {
    "id": 2957,
    "text": "Trạm 2957",
    "diachi": "Số 705A Trần Hưng Đạo, Phường VII, Thành phố Vị Thanh, Tỉnh Hậu Giang, Việt Nam",
    "lat": "9.75284643168588",
    "lng": "105.416652411533",
    "network": "Viettel",
    "networktype": "WCDMA",
    "provinceid": "56"
  },
  {
    "id": 2956,
    "text": "Trạm 2956",
    "diachi": "Ấp Thị Tứ, Thị Trấn Một Ngàn, Huyện Châu Thành A, Tỉnh Hậu Giang, Việt Nam",
    "lat": "9.92837676278537",
    "lng": "105.629179980098",
    "network": "Viettel",
    "networktype": "WCDMA",
    "provinceid": "56"
  },
  {
    "id": 2955,
    "text": "Trạm 2955",
    "diachi": "Ấp Phương Qưới C, Xã Phương Bình, Huyện Phụng Hiệp, Tỉnh Hậu Giang, Việt Nam",
    "lat": "9.741598",
    "lng": "105.647489",
    "network": "FPT",
    "networktype": "GSM/WCDMA",
    "provinceid": "56"
  },
  {
    "id": 2954,
    "text": "Trạm 2954",
    "diachi": "Ấp Phương Qưới C, Xã Phương Bình, Huyện Phụng Hiệp, Tỉnh Hậu Giang, Việt Nam",
    "lat": "9.741598",
    "lng": "105.647489",
    "network": "VNPT",
    "networktype": "WCDMA",
    "provinceid": "56"
  },
  {
    "id": 2953,
    "text": "Trạm 2953",
    "diachi": "Thửa đất 1230, tờ bản đồ số 05, ấp Phương Qưới C, Xã Phương Bình, Huyện Phụng Hiệp, Tỉnh Hậu Giang, Việt Nam",
    "lat": "9.741598",
    "lng": "105.647489",
    "network": "MobiFone",
    "networktype": "WCDMA",
    "provinceid": "56"
  },
  {
    "id": 2952,
    "text": "Trạm 2952",
    "diachi": "Ấp 8, Xã Hoà An, Huyện Phụng Hiệp, Tỉnh Hậu Giang, Việt Nam",
    "lat": "9.78426754820691",
    "lng": "105.624568110319",
    "network": "FPT",
    "networktype": "WCDMA",
    "provinceid": "56"
  },
  {
    "id": 2951,
    "text": "Trạm 2951",
    "diachi": "Đường Trần Hưng Đạo, khu vực 1, Phường VII, Thành phố Vị Thanh, Tỉnh Hậu Giang, Việt Nam",
    "lat": "9.75284643168588",
    "lng": "105.416652411533",
    "network": "Viettel",
    "networktype": "GSM",
    "provinceid": "56"
  },
  {
    "id": 2950,
    "text": "Trạm 2950",
    "diachi": "Số 217, ấp Đông Phú, Xã Đông Phước, Huyện Châu Thành, Tỉnh Hậu Giang, Việt Nam",
    "lat": "9.88721905666916",
    "lng": "105.796343188599",
    "network": "FPT",
    "networktype": "WCDMA",
    "provinceid": "56"
  },
  {
    "id": 2949,
    "text": "Trạm 2949",
    "diachi": "Đường Nguyễn Trung Trực, ấp Nhơn Thuận 1A, Thị Trấn Một Ngàn, Huyện Châu Thành A, Tỉnh Hậu Giang, Việt Nam",
    "lat": "9.92837676278537",
    "lng": "105.629179980098",
    "network": "Viettel",
    "networktype": "GSM/WCDMA",
    "provinceid": "56"
  },
  {
    "id": 2948,
    "text": "Trạm 2948",
    "diachi": "B3-17, KDC Thiên Lộc, Ấp Phú Thạnh, Xã Tân Phú Thạnh, Huyện Châu Thành A, Tỉnh Hậu Giang, Việt Nam",
    "lat": "9.94877811469693",
    "lng": "105.720219678411",
    "network": "VNPT",
    "networktype": "WCDMA",
    "provinceid": "56"
  },
  {
    "id": 2947,
    "text": "Trạm 2947",
    "diachi": "Đường 19/8, Khu vực 7, Phường IV, Thành phố Vị Thanh, Tỉnh Hậu Giang, Việt Nam",
    "lat": "9.78459161",
    "lng": "105.46528634",
    "network": "MobiFone",
    "networktype": "GSM",
    "provinceid": "56"
  },
  {
    "id": 2946,
    "text": "Trạm 2946",
    "diachi": "số 68 tỉnh lộ 925, Hùng Vương, Thị Trấn Ngã Sáu, Huyện Châu Thành, Tỉnh Hậu Giang, Việt Nam",
    "lat": "9.91964099687914",
    "lng": "105.805687746643",
    "network": "VNPT",
    "networktype": "GSM/WCDMA",
    "provinceid": "56"
  },
  {
    "id": 2945,
    "text": "Trạm 2945",
    "diachi": "số 81 Đường Nguyễn Công Trứ, Phường I, Thành phố Vị Thanh, Tỉnh Hậu Giang, Việt Nam",
    "lat": "9.78459161",
    "lng": "105.46528634",
    "network": "VNPT",
    "networktype": "WCDMA",
    "provinceid": "56"
  },
  {
    "id": 2944,
    "text": "Trạm 2944",
    "diachi": "Đường Trương Định, khu vực 1, Phường I, Thành phố Vị Thanh, Tỉnh Hậu Giang, Việt Nam",
    "lat": "9.78459161",
    "lng": "105.46528634",
    "network": "MobiFone",
    "networktype": "GSM/WCDMA",
    "provinceid": "56"
  },
  {
    "id": 2943,
    "text": "Trạm 2943",
    "diachi": "Số 306, ấp Thạnh Lợi A1, Xã Tân Long, Huyện Phụng Hiệp, Tỉnh Hậu Giang, Việt Nam",
    "lat": "9.876654",
    "lng": "105.769342",
    "network": "MobiFone",
    "networktype": "WCDMA",
    "provinceid": "56"
  },
  {
    "id": 2942,
    "text": "Trạm 2942",
    "diachi": "Khu dân cư Chợ Hỏa Lựu, Xã Hoả Lựu, Thành phố Vị Thanh, Tỉnh Hậu Giang, Việt Nam",
    "lat": "9.70990836832172",
    "lng": "105.428554135351",
    "network": "VNPT",
    "networktype": "WCDMA",
    "provinceid": "56"
  },
  {
    "id": 2941,
    "text": "Trạm 2941",
    "diachi": "Khu vực 6, Phường III, Thành phố Vị Thanh, Tỉnh Hậu Giang, Việt Nam",
    "lat": "9.7713306",
    "lng": "105.4758436",
    "network": "MobiFone",
    "networktype": "WCDMA",
    "provinceid": "56"
  },
  {
    "id": 2940,
    "text": "Trạm 2940",
    "diachi": "Ấp Phú Xuân, Thị Trấn Mái Dầm, Huyện Châu Thành, Tỉnh Hậu Giang, Việt Nam",
    "lat": "9.94237316146885",
    "lng": "105.866743050384",
    "network": "Viettel",
    "networktype": "GSM",
    "provinceid": "56"
  },
  {
    "id": 2939,
    "text": "Trạm 2939",
    "diachi": "Số 175/4 ấp Trường Thọ, Xã Trường Long Tây, Huyện Châu Thành A, Tỉnh Hậu Giang, Việt Nam",
    "lat": "9.9320322",
    "lng": "105.5705472",
    "network": "Viettel",
    "networktype": "GSM/WCDMA",
    "provinceid": "56"
  },
  {
    "id": 2938,
    "text": "Trạm 2938",
    "diachi": "đường Nguyên Hồng, Phường IV, Thành phố Vị Thanh, Tỉnh Hậu Giang, Việt Nam",
    "lat": "9.78459161",
    "lng": "105.46528634",
    "network": "FPT",
    "networktype": "GSM/WCDMA",
    "provinceid": "56"
  },
  {
    "id": 2937,
    "text": "Trạm 2937",
    "diachi": "Khu Công nghiệp Tân Phú Thạnh giai đoạn 1, Xã Tân Phú Thạnh, Huyện Châu Thành A, Tỉnh Hậu Giang, Việt Nam",
    "lat": "9.94877811469693",
    "lng": "105.720219678411",
    "network": "Viettel",
    "networktype": "GSM/WCDMA",
    "provinceid": "56"
  },
  {
    "id": 2936,
    "text": "Trạm 2936",
    "diachi": "Nhơn Thuận 1B, Xã Nhơn Nghĩa A, Huyện Châu Thành A, Tỉnh Hậu Giang, Việt Nam",
    "lat": "9.939767",
    "lng": "105.666212",
    "network": "FPT",
    "networktype": "WCDMA",
    "provinceid": "56"
  },
  {
    "id": 2935,
    "text": "Trạm 2935",
    "diachi": "số 503 Quốc lộ 1A, Xã Long Thạnh, Huyện Phụng Hiệp, Tỉnh Hậu Giang, Việt Nam",
    "lat": "9.88749553620353",
    "lng": "105.762974959185",
    "network": "Viettel",
    "networktype": "GSM",
    "provinceid": "56"
  },
  {
    "id": 2934,
    "text": "Trạm 2934",
    "diachi": "Quốc lộ 61, ấp Phú Khởi, Xã Thạnh Hoà, Huyện Phụng Hiệp, Tỉnh Hậu Giang, Việt Nam",
    "lat": "9.897208",
    "lng": "105.668311",
    "network": "FPT",
    "networktype": "WCDMA",
    "provinceid": "56"
  },
  {
    "id": 2933,
    "text": "Trạm 2933",
    "diachi": "Số 106 đường Châu Văn Liêm, khu vực 1, Phường I, Thành phố Vị Thanh, Tỉnh Hậu Giang, Việt Nam",
    "lat": "9.7821169",
    "lng": "105.467712",
    "network": "Viettel",
    "networktype": "GSM/WCDMA",
    "provinceid": "56"
  },
  {
    "id": 2932,
    "text": "Trạm 2932",
    "diachi": "đường Nguyên Hồng, Phường IV, Thành phố Vị Thanh, Tỉnh Hậu Giang, Việt Nam",
    "lat": "9.78459161",
    "lng": "105.46528634",
    "network": "Viettel",
    "networktype": "WCDMA",
    "provinceid": "56"
  },
  {
    "id": 2931,
    "text": "Trạm 2931",
    "diachi": "Ấp 1, Xã Vị Tân, Thành phố Vị Thanh, Tỉnh Hậu Giang, Việt Nam",
    "lat": "9.79035605",
    "lng": "105.44555375",
    "network": "MobiFone",
    "networktype": "GSM",
    "provinceid": "56"
  },
  {
    "id": 2930,
    "text": "Trạm 2930",
    "diachi": "Số 5 đường Nguyễn Công Trứ, khu vực 4, Phường I, Thành phố Vị Thanh, Tỉnh Hậu Giang, Việt Nam",
    "lat": "9.78459161",
    "lng": "105.46528634",
    "network": "VNPT",
    "networktype": "GSM/WCDMA",
    "provinceid": "56"
  },
  {
    "id": 2929,
    "text": "Trạm 2929",
    "diachi": "Thửa đất số 3639, Tờ bản đồ số 2, Ấp 1A, Thị Trấn Một Ngàn, Huyện Châu Thành A, Tỉnh Hậu Giang, Việt Nam",
    "lat": "9.92837676278537",
    "lng": "105.629179980098",
    "network": "FPT",
    "networktype": "WCDMA",
    "provinceid": "56"
  },
  {
    "id": 2928,
    "text": "Trạm 2928",
    "diachi": "Thửa đất số 3744, Tờ bản đồ số 2, Ấp 1A, Thị Trấn Một Ngàn, Huyện Châu Thành A, Tỉnh Hậu Giang, Việt Nam",
    "lat": "9.92837676278537",
    "lng": "105.629179980098",
    "network": "VNPT",
    "networktype": "GSM/WCDMA",
    "provinceid": "56"
  },
  {
    "id": 2927,
    "text": "Trạm 2927",
    "diachi": "Ấp Trường Bình A, Xã Trường Long A, Huyện Châu Thành A, Tỉnh Hậu Giang, Việt Nam",
    "lat": "9.947124",
    "lng": "105.615617",
    "network": "FPT",
    "networktype": "GSM/WCDMA",
    "provinceid": "56"
  },
  {
    "id": 2926,
    "text": "Trạm 2926",
    "diachi": "Số nhà 28, đường Quốc lộ Nam Sông Hậu, ấp Phú Xuân, Thị Trấn Mái Dầm, Huyện Châu Thành, Tỉnh Hậu Giang, Việt Nam",
    "lat": "9.94237316146885",
    "lng": "105.866743050384",
    "network": "FPT",
    "networktype": "GSM/WCDMA",
    "provinceid": "56"
  },
  {
    "id": 2925,
    "text": "Trạm 2925",
    "diachi": "Ấp Phú Lễ A, Xã Phú Tân, Huyện Châu Thành, Tỉnh Hậu Giang, Việt Nam",
    "lat": "9.89686209714572",
    "lng": "105.858571199961",
    "network": "Viettel",
    "networktype": "GSM/WCDMA",
    "provinceid": "56"
  },
  {
    "id": 2924,
    "text": "Trạm 2924",
    "diachi": "đường Võ Văn Kiệt, khu vực 2, Phường V, Thành phố Vị Thanh, Tỉnh Hậu Giang, Việt Nam",
    "lat": "9.78180487",
    "lng": "105.46677087",
    "network": "VNPT",
    "networktype": "GSM",
    "provinceid": "56"
  },
  {
    "id": 2923,
    "text": "Trạm 2923",
    "diachi": "Khu vực 5, Phường Thuận An, Thị Xã Long Mỹ, Tỉnh Hậu Giang, Việt Nam",
    "lat": "9.610686",
    "lng": "105.596053",
    "network": "Viettel",
    "networktype": "GSM/WCDMA",
    "provinceid": "56"
  },
  {
    "id": 2922,
    "text": "Trạm 2922",
    "diachi": "C4-8 KDC Thiên Lộc - HG, ấp Phú Thạnh, Xã Tân Phú Thạnh, Huyện Châu Thành A, Tỉnh Hậu Giang, Việt Nam",
    "lat": "9.94877811469693",
    "lng": "105.720219678411",
    "network": "FPT",
    "networktype": "GSM/WCDMA",
    "provinceid": "56"
  },
  {
    "id": 2921,
    "text": "Trạm 2921",
    "diachi": "Số 56, khu vực Bình Thạnh B, Phường Bình Thạnh, Thị Xã Long Mỹ, Tỉnh Hậu Giang, Việt Nam",
    "lat": "9.610686",
    "lng": "105.596053",
    "network": "MobiFone",
    "networktype": "GSM/WCDMA",
    "provinceid": "56"
  },
  {
    "id": 2920,
    "text": "Trạm 2920",
    "diachi": "C1-65, Đường số 22, KDC Thiên Lộc Hậu Giang, Ấp Phú Thạnh, Xã Tân Phú Thạnh, Huyện Châu Thành A, Tỉnh Hậu Giang, Việt Nam",
    "lat": "9.94877811469693",
    "lng": "105.720219678411",
    "network": "Viettel",
    "networktype": "GSM",
    "provinceid": "56"
  },
  {
    "id": 2919,
    "text": "Trạm 2919",
    "diachi": "Số 68, tỉnh lộ 925, ấp Tân Thuận, Xã Đông Phước A, Huyện Châu Thành, Tỉnh Hậu Giang, Việt Nam",
    "lat": "9.931471",
    "lng": "105.774554",
    "network": "Viettel",
    "networktype": "GSM",
    "provinceid": "56"
  },
  {
    "id": 2918,
    "text": "Trạm 2918",
    "diachi": "Ấp Tân Long, Xã Tân Bình, Huyện Phụng Hiệp, Tỉnh Hậu Giang, Việt Nam",
    "lat": "9.86501044",
    "lng": "105.6494699",
    "network": "MobiFone",
    "networktype": "GSM/WCDMA",
    "provinceid": "56"
  },
  {
    "id": 2917,
    "text": "Trạm 2917",
    "diachi": "Số 132, ấp Phú Thành, Xã Phú Hữu, Huyện Châu Thành, Tỉnh Hậu Giang, Việt Nam",
    "lat": "9.92207022220285",
    "lng": "105.816683257183",
    "network": "Viettel",
    "networktype": "GSM/WCDMA",
    "provinceid": "56"
  },
  {
    "id": 2916,
    "text": "Trạm 2916",
    "diachi": "Số 571B, Trần Hưng Đạo, Phường III, Thành phố Vị Thanh, Tỉnh Hậu Giang, Việt Nam",
    "lat": "9.7713306",
    "lng": "105.4758436",
    "network": "Viettel",
    "networktype": "GSM/WCDMA",
    "provinceid": "56"
  },
  {
    "id": 2915,
    "text": "Trạm 2915",
    "diachi": "KDC vượt lũ Cây Dương, Mỹ Lợi, Thị Trấn Cây Dương, Huyện Phụng Hiệp, Tỉnh Hậu Giang, Việt Nam",
    "lat": "9.78443290298373",
    "lng": "105.733307749641",
    "network": "FPT",
    "networktype": "GSM",
    "provinceid": "56"
  },
  {
    "id": 2914,
    "text": "Trạm 2914",
    "diachi": "Số 05, Ấp Long Trường 3, Xã Long Thạnh, Huyện Phụng Hiệp, Tỉnh Hậu Giang, Việt Nam",
    "lat": "9.88749553620353",
    "lng": "105.762974959185",
    "network": "MobiFone",
    "networktype": "WCDMA",
    "provinceid": "56"
  },
  {
    "id": 2913,
    "text": "Trạm 2913",
    "diachi": "ấp 1, Xã Vị Thanh, Huyện Vị Thủy, Tỉnh Hậu Giang, Việt Nam",
    "lat": "9.84890066754876",
    "lng": "105.561494284281",
    "network": "FPT",
    "networktype": "WCDMA",
    "provinceid": "56"
  },
  {
    "id": 2912,
    "text": "Trạm 2912",
    "diachi": "ấp 3, Thị Trấn Nàng Mau, Huyện Vị Thủy, Tỉnh Hậu Giang, Việt Nam",
    "lat": "9.75289696332149",
    "lng": "105.531013872001",
    "network": "Viettel",
    "networktype": "GSM/WCDMA",
    "provinceid": "56"
  },
  {
    "id": 2911,
    "text": "Trạm 2911",
    "diachi": "ấp 4, Xã Vĩnh Thuận Tây, Huyện Vị Thủy, Tỉnh Hậu Giang, Việt Nam",
    "lat": "9.71880346",
    "lng": "105.4585849",
    "network": "MobiFone",
    "networktype": "WCDMA",
    "provinceid": "56"
  },
  {
    "id": 2910,
    "text": "Trạm 2910",
    "diachi": "số 693 Hùng Vương, Phường Ngã Bảy, Thành phố Ngã Bảy, Tỉnh Hậu Giang, Việt Nam",
    "lat": "9.81238",
    "lng": "105.821016",
    "network": "FPT",
    "networktype": "GSM",
    "provinceid": "56"
  },
  {
    "id": 2909,
    "text": "Trạm 2909",
    "diachi": "ấp 5, Thị Trấn Nàng Mau, Huyện Vị Thủy, Tỉnh Hậu Giang, Việt Nam",
    "lat": "9.75289696332149",
    "lng": "105.531013872001",
    "network": "FPT",
    "networktype": "WCDMA",
    "provinceid": "56"
  },
  {
    "id": 2908,
    "text": "Trạm 2908",
    "diachi": "ấp 8, Xã Vị Trung, Huyện Vị Thủy, Tỉnh Hậu Giang, Việt Nam",
    "lat": "9.78075251741463",
    "lng": "105.532354389024",
    "network": "FPT",
    "networktype": "WCDMA",
    "provinceid": "56"
  },
  {
    "id": 2907,
    "text": "Trạm 2907",
    "diachi": "371 Khu Vực 1, Phường Lái Hiếu, Thành phố Ngã Bảy, Tỉnh Hậu Giang, Việt Nam",
    "lat": "9.81674759578225",
    "lng": "105.791473409249",
    "network": "MobiFone",
    "networktype": "GSM",
    "provinceid": "56"
  },
  {
    "id": 2906,
    "text": "Trạm 2906",
    "diachi": "Ấp 5, Thị Trấn Nàng Mau, Huyện Vị Thủy, Tỉnh Hậu Giang, Việt Nam",
    "lat": "9.75289696332149",
    "lng": "105.531013872001",
    "network": "VNPT",
    "networktype": "GSM",
    "provinceid": "56"
  },
  {
    "id": 2905,
    "text": "Trạm 2905",
    "diachi": "Ấp 11, Xã Vị Trung, Huyện Vị Thủy, Tỉnh Hậu Giang, Việt Nam",
    "lat": "9.78075251741463",
    "lng": "105.532354389024",
    "network": "Viettel",
    "networktype": "WCDMA",
    "provinceid": "56"
  },
  {
    "id": 2904,
    "text": "Trạm 2904",
    "diachi": "ấp 3, Xã Vĩnh Trung, Huyện Vị Thủy, Tỉnh Hậu Giang, Việt Nam",
    "lat": "9.7898174",
    "lng": "105.5612893",
    "network": "FPT",
    "networktype": "GSM",
    "provinceid": "56"
  },
  {
    "id": 2903,
    "text": "Trạm 2903",
    "diachi": "Ấp 6, Xã Vị Thắng, Huyện Vị Thủy, Tỉnh Hậu Giang, Việt Nam",
    "lat": "9.74708471",
    "lng": "105.54557751",
    "network": "FPT",
    "networktype": "GSM",
    "provinceid": "56"
  },
  {
    "id": 2902,
    "text": "Trạm 2902",
    "diachi": "Ấp 3, Xã Vĩnh Thuận Tây, Huyện Vị Thủy, Tỉnh Hậu Giang, Việt Nam",
    "lat": "9.71880346",
    "lng": "105.4585849",
    "network": "MobiFone",
    "networktype": "WCDMA",
    "provinceid": "56"
  },
  {
    "id": 2901,
    "text": "Trạm 2901",
    "diachi": "Thửa đất 1525, Tờ bản đồ số 13, Quốc lộ 61C, ấp 4, Xã Vị Bình, Huyện Vị Thủy, Tỉnh Hậu Giang, Việt Nam",
    "lat": "9.7572174",
    "lng": "105.4659227",
    "network": "FPT",
    "networktype": "GSM",
    "provinceid": "56"
  },
  {
    "id": 2900,
    "text": "Trạm 2900",
    "diachi": "Khu Dân cư Cái Côn, Xã Đại Thành, Thành phố Ngã Bảy, Tỉnh Hậu Giang, Việt Nam",
    "lat": "9.83110347688112",
    "lng": "105.821335705071",
    "network": "Viettel",
    "networktype": "GSM/WCDMA",
    "provinceid": "56"
  },
  {
    "id": 2899,
    "text": "Trạm 2899",
    "diachi": "187/1 Ấp Đông An, Xã Đại Thành, Thành phố Ngã Bảy, Tỉnh Hậu Giang, Việt Nam",
    "lat": "9.83110347688112",
    "lng": "105.821335705071",
    "network": "FPT",
    "networktype": "GSM/WCDMA",
    "provinceid": "56"
  },
  {
    "id": 2898,
    "text": "Trạm 2898",
    "diachi": "Số 1482 đường Hùng Vương, khu vực 4, Phường Hiệp Thành, Thành phố Ngã Bảy, Tỉnh Hậu Giang, Việt Nam",
    "lat": "9.79307290000001",
    "lng": "105.8346654",
    "network": "VNPT",
    "networktype": "WCDMA",
    "provinceid": "56"
  },
  {
    "id": 2897,
    "text": "Trạm 2897",
    "diachi": "Đường Nguyễn Văn Nết, khu vực 3, Phường Ngã Bảy, Thành phố Ngã Bảy, Tỉnh Hậu Giang, Việt Nam",
    "lat": "9.81238",
    "lng": "105.821016",
    "network": "MobiFone",
    "networktype": "WCDMA",
    "provinceid": "56"
  },
  {
    "id": 2896,
    "text": "Trạm 2896",
    "diachi": "Tỉnh lộ 932, số 16, ấp 1, Xã Vị Thanh, Huyện Vị Thủy, Tỉnh Hậu Giang, Việt Nam",
    "lat": "9.84890066754876",
    "lng": "105.561494284281",
    "network": "Viettel",
    "networktype": "GSM/WCDMA",
    "provinceid": "56"
  },
  {
    "id": 2895,
    "text": "Trạm 2895",
    "diachi": "Số 179, Nguyễn Tri Phương, ấp 3, Thị Trấn Nàng Mau, Huyện Vị Thủy, Tỉnh Hậu Giang, Việt Nam",
    "lat": "9.75289696332149",
    "lng": "105.531013872001",
    "network": "FPT",
    "networktype": "GSM",
    "provinceid": "56"
  },
  {
    "id": 2894,
    "text": "Trạm 2894",
    "diachi": "Ấp 1, Xã Vị Đông, Huyện Vị Thủy, Tỉnh Hậu Giang, Việt Nam",
    "lat": "9.82660639034749",
    "lng": "105.503659601317",
    "network": "MobiFone",
    "networktype": "WCDMA",
    "provinceid": "56"
  },
  {
    "id": 2893,
    "text": "Trạm 2893",
    "diachi": "Ấp 7, Xã Vị Trung, Huyện Vị Thủy, Tỉnh Hậu Giang, Việt Nam",
    "lat": "9.78075251741463",
    "lng": "105.532354389024",
    "network": "VNPT",
    "networktype": "GSM/WCDMA",
    "provinceid": "56"
  },
  {
    "id": 2892,
    "text": "Trạm 2892",
    "diachi": "số 91, đường Ngô Quyền, khu vực 2, Phường Lái Hiếu, Thành phố Ngã Bảy, Tỉnh Hậu Giang, Việt Nam",
    "lat": "9.8100631",
    "lng": "105.810229",
    "network": "Viettel",
    "networktype": "GSM/WCDMA",
    "provinceid": "56"
  },
  {
    "id": 2891,
    "text": "Trạm 2891",
    "diachi": "Số 17, đường Trần Ngọc Quế, ấp 4, Thị Trấn Nàng Mau, Huyện Vị Thủy, Tỉnh Hậu Giang, Việt Nam",
    "lat": "9.75289696332149",
    "lng": "105.531013872001",
    "network": "VNPT",
    "networktype": "GSM",
    "provinceid": "56"
  },
  {
    "id": 2890,
    "text": "Trạm 2890",
    "diachi": "Số 546 đường 30/4 ấp 1, Thị Trấn Nàng Mau, Huyện Vị Thủy, Tỉnh Hậu Giang, Việt Nam",
    "lat": "9.75289696332149",
    "lng": "105.531013872001",
    "network": "MobiFone",
    "networktype": "WCDMA",
    "provinceid": "56"
  },
  {
    "id": 2889,
    "text": "Trạm 2889",
    "diachi": "Số 209, khu vực 6, Phường Lái Hiếu, Thành phố Ngã Bảy, Tỉnh Hậu Giang, Việt Nam",
    "lat": "9.81674759578225",
    "lng": "105.791473409249",
    "network": "VNPT",
    "networktype": "GSM/WCDMA",
    "provinceid": "56"
  },
  {
    "id": 2888,
    "text": "Trạm 2888",
    "diachi": "Đường tỉnh 931B, ấp 1A, Xã Vị Đông, Huyện Vị Thủy, Tỉnh Hậu Giang, Việt Nam",
    "lat": "9.82660639034749",
    "lng": "105.503659601317",
    "network": "Viettel",
    "networktype": "GSM",
    "provinceid": "56"
  },
  {
    "id": 2887,
    "text": "Trạm 2887",
    "diachi": "Số 68, đường Ngô Quyền, khu vực 2, Phường Lái Hiếu, Thành phố Ngã Bảy, Tỉnh Hậu Giang, Việt Nam",
    "lat": "9.81674759578225",
    "lng": "105.791473409249",
    "network": "FPT",
    "networktype": "WCDMA",
    "provinceid": "56"
  },
  {
    "id": 2886,
    "text": "Trạm 2886",
    "diachi": "số 116 ấp 8, Xã Vị Trung, Huyện Vị Thủy, Tỉnh Hậu Giang, Việt Nam",
    "lat": "9.78075251741463",
    "lng": "105.532354389024",
    "network": "MobiFone",
    "networktype": "WCDMA",
    "provinceid": "56"
  },
  {
    "id": 2885,
    "text": "Trạm 2885",
    "diachi": "Số 1284, đường Hùng Vương, Phường Hiệp Thành, Thành phố Ngã Bảy, Tỉnh Hậu Giang, Việt Nam",
    "lat": "9.79307290000001",
    "lng": "105.8346654",
    "network": "Viettel",
    "networktype": "WCDMA",
    "provinceid": "56"
  },
  {
    "id": 2884,
    "text": "Trạm 2884",
    "diachi": "Tỉnh lộ 931B, Xã Vị Thanh, Huyện Vị Thủy, Tỉnh Hậu Giang, Việt Nam",
    "lat": "9.84890066754876",
    "lng": "105.561494284281",
    "network": "VNPT",
    "networktype": "GSM",
    "provinceid": "56"
  },
  {
    "id": 2883,
    "text": "Trạm 2883",
    "diachi": "Ấp 12, Xã Vị Trung, Huyện Vị Thủy, Tỉnh Hậu Giang, Việt Nam",
    "lat": "9.78075251741463",
    "lng": "105.532354389024",
    "network": "VNPT",
    "networktype": "GSM/WCDMA",
    "provinceid": "56"
  },
  {
    "id": 2882,
    "text": "Trạm 2882",
    "diachi": "Ấp 3, Xã Vị Đông, Huyện Vị Thủy, Tỉnh Hậu Giang, Việt Nam",
    "lat": "9.82660639034749",
    "lng": "105.503659601317",
    "network": "VNPT",
    "networktype": "GSM/WCDMA",
    "provinceid": "56"
  },
  {
    "id": 2881,
    "text": "Trạm 2881",
    "diachi": "Số 82, ấp 1A, Xã Vị Đông, Huyện Vị Thủy, Tỉnh Hậu Giang, Việt Nam",
    "lat": "9.82660639034749",
    "lng": "105.503659601317",
    "network": "Viettel",
    "networktype": "GSM/WCDMA",
    "provinceid": "56"
  },
  {
    "id": 2880,
    "text": "Trạm 2880",
    "diachi": "Ấp 02, Xã Vị Bình, Huyện Vị Thủy, Tỉnh Hậu Giang, Việt Nam",
    "lat": "9.87797831387107",
    "lng": "105.558145467347",
    "network": "MobiFone",
    "networktype": "GSM",
    "provinceid": "56"
  },
  {
    "id": 2879,
    "text": "Trạm 2879",
    "diachi": "Số 258, khu vực VII, Phường Hiệp Thành, Thành phố Ngã Bảy, Tỉnh Hậu Giang, Việt Nam",
    "lat": "9.79307290000001",
    "lng": "105.8346654",
    "network": "Viettel",
    "networktype": "GSM/WCDMA",
    "provinceid": "56"
  },
  {
    "id": 2878,
    "text": "Trạm 2878",
    "diachi": "Số 1005 Hùng Vương, khu vực 3, Phường Ngã Bảy, Thành phố Ngã Bảy, Tỉnh Hậu Giang, Việt Nam",
    "lat": "9.81238",
    "lng": "105.821016",
    "network": "FPT",
    "networktype": "GSM",
    "provinceid": "56"
  },
  {
    "id": 2877,
    "text": "Trạm 2877",
    "diachi": "Số 116, Ấp 12, Xã Vị Trung, Huyện Vị Thủy, Tỉnh Hậu Giang, Việt Nam",
    "lat": "9.78075251741463",
    "lng": "105.532354389024",
    "network": "Viettel",
    "networktype": "WCDMA",
    "provinceid": "56"
  },
  {
    "id": 2876,
    "text": "Trạm 2876",
    "diachi": "Số 188, đường 30/4 khu vực II, Phường Lái Hiếu, Thành phố Ngã Bảy, Tỉnh Hậu Giang, Việt Nam",
    "lat": "9.81674759578225",
    "lng": "105.791473409249",
    "network": "MobiFone",
    "networktype": "WCDMA",
    "provinceid": "56"
  },
  {
    "id": 2875,
    "text": "Trạm 2875",
    "diachi": "2/75 Khu vực 5, Phường Hiệp Thành, Thành phố Ngã Bảy, Tỉnh Hậu Giang, Việt Nam",
    "lat": "9.79307290000001",
    "lng": "105.8346654",
    "network": "Viettel",
    "networktype": "GSM",
    "provinceid": "56"
  },
  {
    "id": 2874,
    "text": "Trạm 2874",
    "diachi": "Tỉnh lộ 931, ấp 01, Xã Vị Thanh, Huyện Vị Thủy, Tỉnh Hậu Giang, Việt Nam",
    "lat": "9.8545154",
    "lng": "105.5415755",
    "network": "Viettel",
    "networktype": "GSM/WCDMA",
    "provinceid": "56"
  },
  {
    "id": 2873,
    "text": "Trạm 2873",
    "diachi": "số 93, Khu vực 1, Phường Lái Hiếu, Thành phố Ngã Bảy, Tỉnh Hậu Giang, Việt Nam",
    "lat": "9.81674759578225",
    "lng": "105.791473409249",
    "network": "MobiFone",
    "networktype": "GSM/WCDMA",
    "provinceid": "56"
  },
  {
    "id": 2872,
    "text": "Trạm 2872",
    "diachi": "Số 79, đường Nguyễn Chí Thanh, ấp 3, Thị Trấn Nàng Mau, Huyện Vị Thủy, Tỉnh Hậu Giang, Việt Nam",
    "lat": "9.75289696332149",
    "lng": "105.531013872001",
    "network": "MobiFone",
    "networktype": "WCDMA",
    "provinceid": "56"
  },
  {
    "id": 2871,
    "text": "Trạm 2871",
    "diachi": "Số 27, ấp Vĩnh Thuận, Xã Vĩnh Tường, Huyện Vị Thủy, Tỉnh Hậu Giang, Việt Nam",
    "lat": "9.80497187244493",
    "lng": "105.588919982221",
    "network": "MobiFone",
    "networktype": "WCDMA",
    "provinceid": "56"
  },
  {
    "id": 2870,
    "text": "Trạm 2870",
    "diachi": "Số 239, ấp 3, Xã Vĩnh Trung, Huyện Vị Thủy, Tỉnh Hậu Giang, Việt Nam",
    "lat": "9.7898174",
    "lng": "105.5612893",
    "network": "VNPT",
    "networktype": "GSM/WCDMA",
    "provinceid": "56"
  },
  {
    "id": 2869,
    "text": "Trạm 2869",
    "diachi": "Số 132, ấp 5, Thị Trấn Nàng Mau, Huyện Vị Thủy, Tỉnh Hậu Giang, Việt Nam",
    "lat": "9.75289696332149",
    "lng": "105.531013872001",
    "network": "MobiFone",
    "networktype": "WCDMA",
    "provinceid": "56"
  },
  {
    "id": 2868,
    "text": "Trạm 2868",
    "diachi": "Số 79, ấp 5, Xã Vĩnh Thuận Tây, Huyện Vị Thủy, Tỉnh Hậu Giang, Việt Nam",
    "lat": "9.71880346",
    "lng": "105.4585849",
    "network": "VNPT",
    "networktype": "GSM/WCDMA",
    "provinceid": "56"
  },
  {
    "id": 2867,
    "text": "Trạm 2867",
    "diachi": "ấp 1, Thị Trấn Nàng Mau, Huyện Vị Thủy, Tỉnh Hậu Giang, Việt Nam",
    "lat": "9.75289696332149",
    "lng": "105.531013872001",
    "network": "MobiFone",
    "networktype": "GSM",
    "provinceid": "56"
  },
  {
    "id": 2866,
    "text": "Trạm 2866",
    "diachi": "ấp 1, Xã Vị Thanh, Huyện Vị Thủy, Tỉnh Hậu Giang, Việt Nam",
    "lat": "9.84890066754876",
    "lng": "105.561494284281",
    "network": "MobiFone",
    "networktype": "GSM",
    "provinceid": "56"
  },
  {
    "id": 2865,
    "text": "Trạm 2865",
    "diachi": "ấp 9, Xã Vị Thắng, Huyện Vị Thủy, Tỉnh Hậu Giang, Việt Nam",
    "lat": "9.74708471",
    "lng": "105.54557751",
    "network": "VNPT",
    "networktype": "WCDMA",
    "provinceid": "56"
  },
  {
    "id": 2864,
    "text": "Trạm 2864",
    "diachi": "Quốc lộ 61, ấp 9, Xã Vị Thắng, Huyện Vị Thủy, Tỉnh Hậu Giang, Việt Nam",
    "lat": "9.74708471",
    "lng": "105.54557751",
    "network": "Viettel",
    "networktype": "GSM",
    "provinceid": "56"
  },
  {
    "id": 2863,
    "text": "Trạm 2863",
    "diachi": "Số 405 Hùng Vương, khu vực Xẻo Vông B, Phường Hiệp Lợi, Thành phố Ngã Bảy, Tỉnh Hậu Giang, Việt Nam",
    "lat": "9.83834984425867",
    "lng": "105.789417007205",
    "network": "VNPT",
    "networktype": "GSM/WCDMA",
    "provinceid": "56"
  },
  {
    "id": 2862,
    "text": "Trạm 2862",
    "diachi": "số 405 đường Hùng Vương, Khu vực Xẻo Vông B, Phường Hiệp Lợi, Thành phố Ngã Bảy, Tỉnh Hậu Giang, Việt Nam",
    "lat": "9.83834984425867",
    "lng": "105.789417007205",
    "network": "MobiFone",
    "networktype": "WCDMA",
    "provinceid": "56"
  },
  {
    "id": 2861,
    "text": "Trạm 2861",
    "diachi": "Số 4 đường Nguyễn Tri Phương, ấp4, Thị Trấn Nàng Mau, Huyện Vị Thủy, Tỉnh Hậu Giang, Việt Nam",
    "lat": "9.75289696332149",
    "lng": "105.531013872001",
    "network": "VNPT",
    "networktype": "GSM",
    "provinceid": "56"
  },
  {
    "id": 2860,
    "text": "Trạm 2860",
    "diachi": "Ấp 01, Thị Trấn Nàng Mau, Huyện Vị Thủy, Tỉnh Hậu Giang, Việt Nam",
    "lat": "9.75289696332149",
    "lng": "105.531013872001",
    "network": "Viettel",
    "networktype": "GSM",
    "provinceid": "56"
  },
  {
    "id": 2859,
    "text": "Trạm 2859",
    "diachi": "số 101 Khu tái định cư CD, Thị Trấn Nàng Mau, Huyện Vị Thủy, Tỉnh Hậu Giang, Việt Nam",
    "lat": "9.75289696332149",
    "lng": "105.531013872001",
    "network": "Viettel",
    "networktype": "WCDMA",
    "provinceid": "56"
  },
  {
    "id": 2858,
    "text": "Trạm 2858",
    "diachi": "Số 63, Ngô Quyền, Khu vực 2, Phường Lái Hiếu, Thành phố Ngã Bảy, Tỉnh Hậu Giang, Việt Nam",
    "lat": "9.81674759578225",
    "lng": "105.791473409249",
    "network": "MobiFone",
    "networktype": "WCDMA",
    "provinceid": "56"
  },
  {
    "id": 2857,
    "text": "Trạm 2857",
    "diachi": "Số 72, đường 30/4, ấp 2, Thị Trấn Nàng Mau, Huyện Vị Thủy, Tỉnh Hậu Giang, Việt Nam",
    "lat": "9.75289696332149",
    "lng": "105.531013872001",
    "network": "FPT",
    "networktype": "GSM",
    "provinceid": "56"
  },
  {
    "id": 2856,
    "text": "Trạm 2856",
    "diachi": "số 1542 đường Hùng Vương, quốc lộ 1A, Khu vực 4, Phường Hiệp Thành, Thành phố Ngã Bảy, Tỉnh Hậu Giang, Việt Nam",
    "lat": "9.79307290000001",
    "lng": "105.8346654",
    "network": "MobiFone",
    "networktype": "WCDMA",
    "provinceid": "56"
  },
  {
    "id": 2855,
    "text": "Trạm 2855",
    "diachi": "ấp 11, Xã Vị Thắng, Huyện Vị Thủy, Tỉnh Hậu Giang, Việt Nam",
    "lat": "9.74708471",
    "lng": "105.54557751",
    "network": "Viettel",
    "networktype": "WCDMA",
    "provinceid": "56"
  },
  {
    "id": 2854,
    "text": "Trạm 2854",
    "diachi": "Số 70, đường 30/4, ấp 2, Thị Trấn Nàng Mau, Huyện Vị Thủy, Tỉnh Hậu Giang, Việt Nam",
    "lat": "9.75289696332149",
    "lng": "105.531013872001",
    "network": "VNPT",
    "networktype": "GSM",
    "provinceid": "56"
  },
  {
    "id": 2853,
    "text": "Trạm 2853",
    "diachi": "Ấp 12, Xã Vị Trung, Huyện Vị Thủy, Tỉnh Hậu Giang, Việt Nam",
    "lat": "9.78075251741463",
    "lng": "105.532354389024",
    "network": "FPT",
    "networktype": "WCDMA",
    "provinceid": "56"
  },
  {
    "id": 2852,
    "text": "Trạm 2852",
    "diachi": "Số 179, đường Nguyễn Tri Phương, ấp 3, Thị Trấn Nàng Mau, Huyện Vị Thủy, Tỉnh Hậu Giang, Việt Nam",
    "lat": "9.75289696332149",
    "lng": "105.531013872001",
    "network": "MobiFone",
    "networktype": "GSM/WCDMA",
    "provinceid": "56"
  },
  {
    "id": 2851,
    "text": "Trạm 2851",
    "diachi": "ấp 11, Xã Vị Thắng, Huyện Vị Thủy, Tỉnh Hậu Giang, Việt Nam",
    "lat": "9.74708471",
    "lng": "105.54557751",
    "network": "Viettel",
    "networktype": "WCDMA",
    "provinceid": "56"
  },
  {
    "id": 2850,
    "text": "Trạm 2850",
    "diachi": "ấp 11, Xã Vị Thắng, Huyện Vị Thủy, Tỉnh Hậu Giang, Việt Nam",
    "lat": "9.74708471",
    "lng": "105.54557751",
    "network": "Viettel",
    "networktype": "WCDMA",
    "provinceid": "56"
  },
  {
    "id": 2849,
    "text": "Trạm 2849",
    "diachi": "Số 1/48B, khu vực 8, Phường Hiệp Thành, Thành phố Ngã Bảy, Tỉnh Hậu Giang, Việt Nam",
    "lat": "9.79307290000001",
    "lng": "105.8346654",
    "network": "Viettel",
    "networktype": "GSM/WCDMA",
    "provinceid": "56"
  },
  {
    "id": 2848,
    "text": "Trạm 2848",
    "diachi": "ấp 11, Xã Vị Thắng, Huyện Vị Thủy, Tỉnh Hậu Giang, Việt Nam",
    "lat": "9.74708471",
    "lng": "105.54557751",
    "network": "MobiFone",
    "networktype": "GSM",
    "provinceid": "56"
  },
  {
    "id": 2847,
    "text": "Trạm 2847",
    "diachi": "ấp 11, Xã Vị Thắng, Huyện Vị Thủy, Tỉnh Hậu Giang, Việt Nam",
    "lat": "9.74708471",
    "lng": "105.54557751",
    "network": "VNPT",
    "networktype": "WCDMA",
    "provinceid": "56"
  },
  {
    "id": 2846,
    "text": "Trạm 2846",
    "diachi": "Ấp 11, Xã Vị Thắng, Huyện Vị Thủy, Tỉnh Hậu Giang, Việt Nam",
    "lat": "9.74708471",
    "lng": "105.54557751",
    "network": "Viettel",
    "networktype": "GSM",
    "provinceid": "56"
  },
  {
    "id": 2845,
    "text": "Trạm 2845",
    "diachi": "ấp 11, Xã Vị Thắng, Huyện Vị Thủy, Tỉnh Hậu Giang, Việt Nam",
    "lat": "9.74708471",
    "lng": "105.54557751",
    "network": "MobiFone",
    "networktype": "GSM/WCDMA",
    "provinceid": "56"
  },
  {
    "id": 2844,
    "text": "Trạm 2844",
    "diachi": "Ấp 11, Xã Vị Thắng, Huyện Vị Thủy, Tỉnh Hậu Giang, Việt Nam",
    "lat": "9.74708471",
    "lng": "105.54557751",
    "network": "MobiFone",
    "networktype": "GSM",
    "provinceid": "56"
  },
  {
    "id": 2843,
    "text": "Trạm 2843",
    "diachi": "ấp 11, Xã Vị Thắng, Huyện Vị Thủy, Tỉnh Hậu Giang, Việt Nam",
    "lat": "9.74708471",
    "lng": "105.54557751",
    "network": "VNPT",
    "networktype": "GSM/WCDMA",
    "provinceid": "56"
  },
  {
    "id": 2842,
    "text": "Trạm 2842",
    "diachi": "Quốc lộ 61, ấp 7, Xã Vị Trung, Huyện Vị Thủy, Tỉnh Hậu Giang, Việt Nam",
    "lat": "9.78075251741463",
    "lng": "105.532354389024",
    "network": "MobiFone",
    "networktype": "GSM",
    "provinceid": "56"
  },
  {
    "id": 2841,
    "text": "Trạm 2841",
    "diachi": "Số 33-13/8, Phường Hiệp Thành, Thành phố Ngã Bảy, Tỉnh Hậu Giang, Việt Nam",
    "lat": "9.79307290000001",
    "lng": "105.8346654",
    "network": "MobiFone",
    "networktype": "GSM",
    "provinceid": "56"
  },
  {
    "id": 2840,
    "text": "Trạm 2840",
    "diachi": "Ấp 2, Xã Vị Đông, Huyện Vị Thủy, Tỉnh Hậu Giang, Việt Nam",
    "lat": "9.82660639034749",
    "lng": "105.503659601317",
    "network": "FPT",
    "networktype": "WCDMA",
    "provinceid": "56"
  },
  {
    "id": 2839,
    "text": "Trạm 2839",
    "diachi": "Tỉnh lộ 931B, ấp 01, Xã Vị Đông, Huyện Vị Thủy, Tỉnh Hậu Giang, Việt Nam",
    "lat": "9.82660639034749",
    "lng": "105.503659601317",
    "network": "Viettel",
    "networktype": "WCDMA",
    "provinceid": "56"
  },
  {
    "id": 2838,
    "text": "Trạm 2838",
    "diachi": "QL61, ấp 7, Xã Vị Trung, Huyện Vị Thủy, Tỉnh Hậu Giang, Việt Nam",
    "lat": "9.7512126",
    "lng": "105.5341741",
    "network": "VNPT",
    "networktype": "WCDMA",
    "provinceid": "56"
  },
  {
    "id": 2837,
    "text": "Trạm 2837",
    "diachi": "Số 101, đường Nguyễn Chí Thanh, ấp 3, Thị Trấn Nàng Mau, Huyện Vị Thủy, Tỉnh Hậu Giang, Việt Nam",
    "lat": "9.75289696332149",
    "lng": "105.531013872001",
    "network": "FPT",
    "networktype": "WCDMA",
    "provinceid": "56"
  },
  {
    "id": 2836,
    "text": "Trạm 2836",
    "diachi": "Đường 30/4, khu vực 2, Phường Lái Hiếu, Thành phố Ngã Bảy, Tỉnh Hậu Giang, Việt Nam",
    "lat": "9.81674759578225",
    "lng": "105.791473409249",
    "network": "FPT",
    "networktype": "WCDMA",
    "provinceid": "56"
  },
  {
    "id": 2835,
    "text": "Trạm 2835",
    "diachi": "Hùng Vương, khu vực Xẻo Vông A, Phường Hiệp Lợi, Thành phố Ngã Bảy, Tỉnh Hậu Giang, Việt Nam",
    "lat": "9.83834984425867",
    "lng": "105.789417007205",
    "network": "Viettel",
    "networktype": "GSM",
    "provinceid": "56"
  },
  {
    "id": 2834,
    "text": "Trạm 2834",
    "diachi": "P7 - 30, ấp 1A, Xã Vị Đông, Huyện Vị Thủy, Tỉnh Hậu Giang, Việt Nam",
    "lat": "9.82660639034749",
    "lng": "105.503659601317",
    "network": "VNPT",
    "networktype": "WCDMA",
    "provinceid": "56"
  },
  {
    "id": 2833,
    "text": "Trạm 2833",
    "diachi": "Số 416, đường Phan Đình Phùng, ấp 1, Thị Trấn Nàng Mau, Huyện Vị Thủy, Tỉnh Hậu Giang, Việt Nam",
    "lat": "9.75289696332149",
    "lng": "105.531013872001",
    "network": "MobiFone",
    "networktype": "GSM",
    "provinceid": "56"
  },
  {
    "id": 2832,
    "text": "Trạm 2832",
    "diachi": "Số 274, ấp 1A, Xã Vị Đông, Huyện Vị Thủy, Tỉnh Hậu Giang, Việt Nam",
    "lat": "9.82660639034749",
    "lng": "105.503659601317",
    "network": "FPT",
    "networktype": "WCDMA",
    "provinceid": "56"
  },
  {
    "id": 2831,
    "text": "Trạm 2831",
    "diachi": "Số 56, quốc lộ 61 ấp 2, Thị Trấn Nàng Mau, Huyện Vị Thủy, Tỉnh Hậu Giang, Việt Nam",
    "lat": "9.75289696332149",
    "lng": "105.531013872001",
    "network": "Viettel",
    "networktype": "GSM/WCDMA",
    "provinceid": "56"
  },
  {
    "id": 2830,
    "text": "Trạm 2830",
    "diachi": "Số 27 Lê Hồng Phong, KV6, Phường Ngã Bảy, Thành phố Ngã Bảy, Tỉnh Hậu Giang, Việt Nam",
    "lat": "9.81238",
    "lng": "105.821016",
    "network": "Viettel",
    "networktype": "GSM",
    "provinceid": "56"
  },
  {
    "id": 2829,
    "text": "Trạm 2829",
    "diachi": "Khu vực V, Phường Hiệp Thành, Thành phố Ngã Bảy, Tỉnh Hậu Giang, Việt Nam",
    "lat": "9.79307290000001",
    "lng": "105.8346654",
    "network": "Viettel",
    "networktype": "WCDMA",
    "provinceid": "56"
  },
  {
    "id": 2828,
    "text": "Trạm 2828",
    "diachi": "Khu dân cư HB, khu vực 5, Phường Thuận An, Thị Xã Long Mỹ, Tỉnh Hậu Giang, Việt Nam",
    "lat": "9.610686",
    "lng": "105.596053",
    "network": "Viettel",
    "networktype": "GSM",
    "provinceid": "56"
  },
  {
    "id": 2827,
    "text": "Trạm 2827",
    "diachi": "số 40, Nguyễn Huệ, Khu vực 5, Phường IV, Thành phố Vị Thanh, Tỉnh Hậu Giang, Việt Nam",
    "lat": "9.78459161",
    "lng": "105.46528634",
    "network": "MobiFone",
    "networktype": "GSM",
    "provinceid": "56"
  },
  {
    "id": 2826,
    "text": "Trạm 2826",
    "diachi": "Ấp Phước Tiến, Xã Đông Thạnh, Huyện Châu Thành, Tỉnh Hậu Giang, Việt Nam",
    "lat": "9.94649792351409",
    "lng": "105.75264067964",
    "network": "Viettel",
    "networktype": "WCDMA",
    "provinceid": "56"
  },
  {
    "id": 2825,
    "text": "Trạm 2825",
    "diachi": "Ấp 7B1, Xã Vị Thanh, Huyện Vị Thủy, Tỉnh Hậu Giang, Việt Nam",
    "lat": "9.84890066754876",
    "lng": "105.561494284281",
    "network": "VNPT",
    "networktype": "WCDMA",
    "provinceid": "56"
  },
  {
    "id": 2824,
    "text": "Trạm 2824",
    "diachi": "Số 68, ấp Nhơn Thuận 1A, Xã Nhơn Nghĩa A, Huyện Châu Thành A, Tỉnh Hậu Giang, Việt Nam",
    "lat": "9.939767",
    "lng": "105.666212",
    "network": "MobiFone",
    "networktype": "WCDMA",
    "provinceid": "56"
  },
  {
    "id": 2823,
    "text": "Trạm 2823",
    "diachi": "Số 258, quốc lộ 61, ấp Phú Khởi, Xã Thạnh Hoà, Huyện Phụng Hiệp, Tỉnh Hậu Giang, Việt Nam",
    "lat": "9.897208",
    "lng": "105.668311",
    "network": "MobiFone",
    "networktype": "WCDMA",
    "provinceid": "56"
  },
  {
    "id": 2822,
    "text": "Trạm 2822",
    "diachi": "Quốc lộ 61C, ấp 7, Xã Vị Trung, Huyện Vị Thủy, Tỉnh Hậu Giang, Việt Nam",
    "lat": "9.78075251741463",
    "lng": "105.532354389024",
    "network": "MobiFone",
    "networktype": "GSM/WCDMA",
    "provinceid": "56"
  },
  {
    "id": 2821,
    "text": "Trạm 2821",
    "diachi": "238 Ấp Mùa Xuân, Xã Tân Phước Hưng, Huyện Phụng Hiệp, Tỉnh Hậu Giang, Việt Nam",
    "lat": "9.75300341168374",
    "lng": "105.804128077245",
    "network": "Viettel",
    "networktype": "GSM/WCDMA",
    "provinceid": "56"
  },
  {
    "id": 2820,
    "text": "Trạm 2820",
    "diachi": "Ấp 4, Thị trấn Vĩnh Viễn, Huyện Long Mỹ, Tỉnh Hậu Giang, Việt Nam",
    "lat": "9.6731644977821",
    "lng": "105.459153658287",
    "network": "VNPT",
    "networktype": "GSM/WCDMA",
    "provinceid": "56"
  },
  {
    "id": 2819,
    "text": "Trạm 2819",
    "diachi": "Ấp 4, Thị trấn Vĩnh Viễn, Huyện Long Mỹ, Tỉnh Hậu Giang, Việt Nam",
    "lat": "9.6731644977821",
    "lng": "105.459153658287",
    "network": "FPT",
    "networktype": "WCDMA",
    "provinceid": "56"
  },
  {
    "id": 2818,
    "text": "Trạm 2818",
    "diachi": "Ấp Phú Lợi, Xã Tân Phú Thạnh, Huyện Châu Thành A, Tỉnh Hậu Giang, Việt Nam",
    "lat": "9.94877811469693",
    "lng": "105.720219678411",
    "network": "Viettel",
    "networktype": "GSM",
    "provinceid": "56"
  },
  {
    "id": 2817,
    "text": "Trạm 2817",
    "diachi": "Ấp Vĩnh Hoà, Xã Vĩnh Tường, Huyện Vị Thủy, Tỉnh Hậu Giang, Việt Nam",
    "lat": "9.80497187244493",
    "lng": "105.588919982221",
    "network": "Viettel",
    "networktype": "WCDMA",
    "provinceid": "56"
  },
  {
    "id": 2816,
    "text": "Trạm 2816",
    "diachi": "ấp Vĩnh Hoà, Xã Vĩnh Tường, Huyện Vị Thủy, Tỉnh Hậu Giang, Việt Nam",
    "lat": "9.80497187244493",
    "lng": "105.588919982221",
    "network": "FPT",
    "networktype": "GSM",
    "provinceid": "56"
  },
  {
    "id": 2815,
    "text": "Trạm 2815",
    "diachi": "PG 2-20 Vincom Shophouse, đường 3/2, Phường V, Thành phố Vị Thanh, Tỉnh Hậu Giang, Việt Nam",
    "lat": "9.78180487",
    "lng": "105.46677087",
    "network": "Viettel",
    "networktype": "WCDMA",
    "provinceid": "56"
  },
  {
    "id": 2814,
    "text": "Trạm 2814",
    "diachi": "Ấp Long Hòa 1, Xã Long Phú, Thị Xã Long Mỹ, Tỉnh Hậu Giang, Việt Nam",
    "lat": "9.6407096",
    "lng": "105.6060661",
    "network": "MobiFone",
    "networktype": "GSM/WCDMA",
    "provinceid": "56"
  },
  {
    "id": 2813,
    "text": "Trạm 2813",
    "diachi": "Ấp Long Hòa 1, Xã Long Phú, Thị Xã Long Mỹ, Tỉnh Hậu Giang, Việt Nam",
    "lat": "9.610686",
    "lng": "105.596053",
    "network": "MobiFone",
    "networktype": "WCDMA",
    "provinceid": "56"
  },
  {
    "id": 2812,
    "text": "Trạm 2812",
    "diachi": "Ấp Long Hòa 1, Xã Long Phú, Thị Xã Long Mỹ, Tỉnh Hậu Giang, Việt Nam",
    "lat": "9.610686",
    "lng": "105.596053",
    "network": "Viettel",
    "networktype": "WCDMA",
    "provinceid": "56"
  },
  {
    "id": 2811,
    "text": "Trạm 2811",
    "diachi": "Ấp Long Hòa 1, Xã Long Phú, Thị Xã Long Mỹ, Tỉnh Hậu Giang, Việt Nam",
    "lat": "9.610686",
    "lng": "105.596053",
    "network": "FPT",
    "networktype": "GSM/WCDMA",
    "provinceid": "56"
  },
  {
    "id": 2810,
    "text": "Trạm 2810",
    "diachi": "Hẻm 384 đường Nguyễn Trung Trực, Khu vực 2, Phường Lái Hiếu, Thành phố Ngã Bảy, Tỉnh Hậu Giang, Việt Nam",
    "lat": "9.81674759578225",
    "lng": "105.791473409249",
    "network": "FPT",
    "networktype": "WCDMA",
    "provinceid": "56"
  },
  {
    "id": 2809,
    "text": "Trạm 2809",
    "diachi": "Khu vưc II, Phường Lái Hiếu, Thành phố Ngã Bảy, Tỉnh Hậu Giang, Việt Nam",
    "lat": "9.81674759578225",
    "lng": "105.791473409249",
    "network": "VNPT",
    "networktype": "GSM",
    "provinceid": "56"
  },
  {
    "id": 2808,
    "text": "Trạm 2808",
    "diachi": "Số 484 Ấp 1, Thị Trấn Nàng Mau, Huyện Vị Thủy, Tỉnh Hậu Giang, Việt Nam",
    "lat": "9.75289696332149",
    "lng": "105.531013872001",
    "network": "VNPT",
    "networktype": "GSM/WCDMA",
    "provinceid": "56"
  },
  {
    "id": 2807,
    "text": "Trạm 2807",
    "diachi": "Lô A16- A17, cụm công nghiệp, tiểu thủ công nghiệp Vị Thanh, Phường VII, Thành phố Vị Thanh, Tỉnh Hậu Giang, Việt Nam",
    "lat": "9.75284643168588",
    "lng": "105.416652411533",
    "network": "VNPT",
    "networktype": "GSM",
    "provinceid": "56"
  },
  {
    "id": 2806,
    "text": "Trạm 2806",
    "diachi": "B33 đường số 2, khu dân cư Đông Phú, ấp Phú Nhơn, Xã Đông Phú, Huyện Châu Thành, Tỉnh Hậu Giang, Việt Nam",
    "lat": "9.96226719",
    "lng": "105.84770242",
    "network": "VNPT",
    "networktype": "GSM/WCDMA",
    "provinceid": "56"
  },
  {
    "id": 2805,
    "text": "Trạm 2805",
    "diachi": "Số 306 ấp 1B, đường Bốn Tổng, Thị Trấn Một Ngàn, Huyện Châu Thành A, Tỉnh Hậu Giang, Việt Nam",
    "lat": "9.92837676278537",
    "lng": "105.629179980098",
    "network": "FPT",
    "networktype": "GSM/WCDMA",
    "provinceid": "56"
  },
  {
    "id": 2804,
    "text": "Trạm 2804",
    "diachi": "Ấp Phú Nghĩa, Xã Phú Hữu, Huyện Châu Thành, Tỉnh Hậu Giang, Việt Nam",
    "lat": "9.92207022220285",
    "lng": "105.816683257183",
    "network": "Viettel",
    "networktype": "GSM",
    "provinceid": "56"
  },
  {
    "id": 2803,
    "text": "Trạm 2803",
    "diachi": "Ấp Xáng Mới B, Thị Trấn Rạch Gòi, Huyện Châu Thành A, Tỉnh Hậu Giang, Việt Nam",
    "lat": "9.91164106371062",
    "lng": "105.659352430553",
    "network": "MobiFone",
    "networktype": "GSM/WCDMA",
    "provinceid": "56"
  },
  {
    "id": 2802,
    "text": "Trạm 2802",
    "diachi": "Ấp Xáng Mới B, Thị Trấn Rạch Gòi, Huyện Châu Thành A, Tỉnh Hậu Giang, Việt Nam",
    "lat": "9.91164106371062",
    "lng": "105.659352430553",
    "network": "FPT",
    "networktype": "GSM",
    "provinceid": "56"
  },
  {
    "id": 2801,
    "text": "Trạm 2801",
    "diachi": "Ấp Xáng Mới B, Thị Trấn Rạch Gòi, Huyện Châu Thành A, Tỉnh Hậu Giang, Việt Nam",
    "lat": "9.890914",
    "lng": "105.661301",
    "network": "FPT",
    "networktype": "GSM/WCDMA",
    "provinceid": "56"
  },
  {
    "id": 2800,
    "text": "Trạm 2800",
    "diachi": "Ấp Xáng Mới B, Thị Trấn Rạch Gòi, Huyện Châu Thành A, Tỉnh Hậu Giang, Việt Nam",
    "lat": "9.91164106371062",
    "lng": "105.659352430553",
    "network": "Viettel",
    "networktype": "GSM",
    "provinceid": "56"
  }
]