﻿[
  {
    "id": 2599,
    "text": "Trạm 2599",
    "diachi": "Kênh hàng xoài, lộ 4 Ngàn, ấp 3B, Thị Trấn Bảy Ngàn, Huyện Châu Thành A, Tỉnh Hậu Giang, Việt Nam",
    "lat": "9.88711597",
    "lng": "105.58627175",
    "network": "FPT",
    "networktype": "GSM/WCDMA",
    "provinceid": "184"
  },
  {
    "id": 2598,
    "text": "Trạm 2598",
    "diachi": "Kinh hàng xài, Lộ 4 Tổng ấp 3B, Thị Trấn Một Ngàn, Huyện Châu Thành A, Tỉnh Hậu Giang, Việt Nam",
    "lat": "9.92837676278537",
    "lng": "105.629179980098",
    "network": "Viettel",
    "networktype": "WCDMA",
    "provinceid": "184"
  },
  {
    "id": 2597,
    "text": "Trạm 2597",
    "diachi": "Số 155/16, ấp 9, Xã Vị Trung, Huyện Vị Thủy, Tỉnh Hậu Giang, Việt Nam",
    "lat": "9.78075251741463",
    "lng": "105.532354389024",
    "network": "FPT",
    "networktype": "GSM/WCDMA",
    "provinceid": "184"
  },
  {
    "id": 2596,
    "text": "Trạm 2596",
    "diachi": "368 Ấp Phú Thọ, Xã Đông Phú, Huyện Châu Thành, Tỉnh Hậu Giang, Việt Nam",
    "lat": "9.96226719",
    "lng": "105.84770242",
    "network": "MobiFone",
    "networktype": "WCDMA",
    "provinceid": "184"
  },
  {
    "id": 2595,
    "text": "Trạm 2595",
    "diachi": "số 258/1 Khu vực Bình Tân, Phường Vĩnh Tường, Thị Xã Long Mỹ, Tỉnh Hậu Giang, Việt Nam",
    "lat": "9.610686",
    "lng": "105.596053",
    "network": "FPT",
    "networktype": "GSM",
    "provinceid": "184"
  },
  {
    "id": 2594,
    "text": "Trạm 2594",
    "diachi": "Tỉnh lộ 947, ấp Đông Lợi, Xã Đông Phước, Huyện Châu Thành, Tỉnh Hậu Giang, Việt Nam",
    "lat": "9.88721905666916",
    "lng": "105.796343188599",
    "network": "FPT",
    "networktype": "WCDMA",
    "provinceid": "184"
  },
  {
    "id": 2593,
    "text": "Trạm 2593",
    "diachi": "Số 212, ấp 3, Xã Vĩnh Thuận Đông, Huyện Long Mỹ, Tỉnh Hậu Giang, Việt Nam",
    "lat": "9.69781642587371",
    "lng": "105.521878100793",
    "network": "MobiFone",
    "networktype": "GSM/WCDMA",
    "provinceid": "184"
  },
  {
    "id": 2592,
    "text": "Trạm 2592",
    "diachi": "Ấp 7, Xã Vị Thuỷ, Huyện Vị Thủy, Tỉnh Hậu Giang, Việt Nam",
    "lat": "9.77532583",
    "lng": "105.49129267",
    "network": "MobiFone",
    "networktype": "WCDMA",
    "provinceid": "184"
  },
  {
    "id": 2591,
    "text": "Trạm 2591",
    "diachi": "Số 5, ấp 5, Xã Vị Đông, Huyện Vị Thủy, Tỉnh Hậu Giang, Việt Nam",
    "lat": "9.82660639034749",
    "lng": "105.503659601317",
    "network": "Viettel",
    "networktype": "GSM/WCDMA",
    "provinceid": "184"
  },
  {
    "id": 2590,
    "text": "Trạm 2590",
    "diachi": "Số 05, đường Ngô Quyền, Khu vực 2, Phường Lái Hiếu, Thành phố Ngã Bảy, Tỉnh Hậu Giang, Việt Nam",
    "lat": "9.81674759578225",
    "lng": "105.791473409249",
    "network": "FPT",
    "networktype": "GSM",
    "provinceid": "184"
  },
  {
    "id": 2589,
    "text": "Trạm 2589",
    "diachi": "Số nhà 70, ấp 7, Xã Hoà An, Huyện Phụng Hiệp, Tỉnh Hậu Giang, Việt Nam",
    "lat": "9.78426754820691",
    "lng": "105.624568110319",
    "network": "FPT",
    "networktype": "WCDMA",
    "provinceid": "184"
  },
  {
    "id": 2588,
    "text": "Trạm 2588",
    "diachi": "Số 224, Ấp Tân Phú B1, Xã Tân Phước Hưng, Huyện Phụng Hiệp, Tỉnh Hậu Giang, Việt Nam",
    "lat": "9.75300341168374",
    "lng": "105.804128077245",
    "network": "VNPT",
    "networktype": "GSM/WCDMA",
    "provinceid": "184"
  },
  {
    "id": 2587,
    "text": "Trạm 2587",
    "diachi": "ấp 2, Xã Lương Tâm, Huyện Long Mỹ, Tỉnh Hậu Giang, Việt Nam",
    "lat": "9.62205683503674",
    "lng": "105.449208342939",
    "network": "Viettel",
    "networktype": "WCDMA",
    "provinceid": "184"
  },
  {
    "id": 2586,
    "text": "Trạm 2586",
    "diachi": "Khu vực Bình Thạnh B, Phường Bình Thạnh, Thị Xã Long Mỹ, Tỉnh Hậu Giang, Việt Nam",
    "lat": "9.610686",
    "lng": "105.596053",
    "network": "Viettel",
    "networktype": "WCDMA",
    "provinceid": "184"
  },
  {
    "id": 2585,
    "text": "Trạm 2585",
    "diachi": "KDC Vượt lũ Cái Côn, ấp Cái Côn, Xã Đại Thành, Thành phố Ngã Bảy, Tỉnh Hậu Giang, Việt Nam",
    "lat": "9.83110347688112",
    "lng": "105.821335705071",
    "network": "VNPT",
    "networktype": "GSM/WCDMA",
    "provinceid": "184"
  },
  {
    "id": 2584,
    "text": "Trạm 2584",
    "diachi": "ấp Phú Nhơn, Xã Đông Phú, Huyện Châu Thành, Tỉnh Hậu Giang, Việt Nam",
    "lat": "9.96226719",
    "lng": "105.84770242",
    "network": "VNPT",
    "networktype": "GSM",
    "provinceid": "184"
  },
  {
    "id": 2583,
    "text": "Trạm 2583",
    "diachi": "ấp Phú Nhơn, Xã Đông Phú, Huyện Châu Thành, Tỉnh Hậu Giang, Việt Nam",
    "lat": "9.96226719",
    "lng": "105.84770242",
    "network": "Viettel",
    "networktype": "WCDMA",
    "provinceid": "184"
  },
  {
    "id": 2582,
    "text": "Trạm 2582",
    "diachi": "ấp Phú Nhơn, Xã Đông Phú, Huyện Châu Thành, Tỉnh Hậu Giang, Việt Nam",
    "lat": "9.96226719",
    "lng": "105.84770242",
    "network": "VNPT",
    "networktype": "WCDMA",
    "provinceid": "184"
  },
  {
    "id": 2581,
    "text": "Trạm 2581",
    "diachi": "Trần Hưng Đạo, Khu vực 2, Phường VII, Thành phố Vị Thanh, Tỉnh Hậu Giang, Việt Nam",
    "lat": "9.7520423",
    "lng": "105.4162484",
    "network": "VNPT",
    "networktype": "GSM/WCDMA",
    "provinceid": "184"
  },
  {
    "id": 2580,
    "text": "Trạm 2580",
    "diachi": "Thửa đất số 79, Tở bản đồ số 27, ấp Đông Thuận, Xã Đông Thạnh, Huyện Châu Thành, Tỉnh Hậu Giang, Việt Nam",
    "lat": "9.94649792351409",
    "lng": "105.75264067964",
    "network": "MobiFone",
    "networktype": "GSM",
    "provinceid": "184"
  },
  {
    "id": 2579,
    "text": "Trạm 2579",
    "diachi": "Lô A2, CCN - TTCN TP Vị Thanh, Phường VII, Thành phố Vị Thanh, Tỉnh Hậu Giang, Việt Nam",
    "lat": "9.75284643168588",
    "lng": "105.416652411533",
    "network": "Viettel",
    "networktype": "GSM",
    "provinceid": "184"
  },
  {
    "id": 2578,
    "text": "Trạm 2578",
    "diachi": "45 chiêm thành tấn, Phường I, Thành phố Vị Thanh, Tỉnh Hậu Giang, Việt Nam",
    "lat": "9.78459161",
    "lng": "105.46528634",
    "network": "Viettel",
    "networktype": "GSM/WCDMA",
    "provinceid": "184"
  },
  {
    "id": 2577,
    "text": "Trạm 2577",
    "diachi": "đường Võ Thị Sáu, ấp 5, Thị Trấn Nàng Mau, Huyện Vị Thủy, Tỉnh Hậu Giang, Việt Nam",
    "lat": "9.75289696332149",
    "lng": "105.531013872001",
    "network": "Viettel",
    "networktype": "WCDMA",
    "provinceid": "184"
  },
  {
    "id": 2576,
    "text": "Trạm 2576",
    "diachi": "Số 08, ấp 8, Xã Vị Trung, Huyện Vị Thủy, Tỉnh Hậu Giang, Việt Nam",
    "lat": "9.78075251741463",
    "lng": "105.532354389024",
    "network": "MobiFone",
    "networktype": "GSM",
    "provinceid": "184"
  },
  {
    "id": 2575,
    "text": "Trạm 2575",
    "diachi": "Số 78, ấp Long Hòa B, Xã Long Thạnh, Huyện Phụng Hiệp, Tỉnh Hậu Giang, Việt Nam",
    "lat": "9.88749553620353",
    "lng": "105.762974959185",
    "network": "Viettel",
    "networktype": "GSM",
    "provinceid": "184"
  },
  {
    "id": 2574,
    "text": "Trạm 2574",
    "diachi": "Số 33 đường 3/2, khu vực 2, Phường Thuận An, Thị Xã Long Mỹ, Tỉnh Hậu Giang, Việt Nam",
    "lat": "9.610686",
    "lng": "105.596053",
    "network": "VNPT",
    "networktype": "WCDMA",
    "provinceid": "184"
  },
  {
    "id": 2573,
    "text": "Trạm 2573",
    "diachi": "số A17 đường số 17, Khu dân cư 586, Phường VII, Thành phố Vị Thanh, Tỉnh Hậu Giang, Việt Nam",
    "lat": "9.75284643168588",
    "lng": "105.416652411533",
    "network": "VNPT",
    "networktype": "GSM/WCDMA",
    "provinceid": "184"
  },
  {
    "id": 2572,
    "text": "Trạm 2572",
    "diachi": "ấp Nhơn Thuận 1B, Xã Nhơn Nghĩa A, Huyện Châu Thành A, Tỉnh Hậu Giang, Việt Nam",
    "lat": "9.939767",
    "lng": "105.666212",
    "network": "FPT",
    "networktype": "GSM",
    "provinceid": "184"
  },
  {
    "id": 2571,
    "text": "Trạm 2571",
    "diachi": "Đường 3/2, khu vực 2, Phường V, Thành phố Vị Thanh, Tỉnh Hậu Giang, Việt Nam",
    "lat": "9.78180487",
    "lng": "105.46677087",
    "network": "Viettel",
    "networktype": "WCDMA",
    "provinceid": "184"
  },
  {
    "id": 2570,
    "text": "Trạm 2570",
    "diachi": "ấp 4, Xã Vị Tân, Thành phố Vị Thanh, Tỉnh Hậu Giang, Việt Nam",
    "lat": "9.79035605",
    "lng": "105.44555375",
    "network": "Viettel",
    "networktype": "GSM",
    "provinceid": "184"
  },
  {
    "id": 2569,
    "text": "Trạm 2569",
    "diachi": "136 Ấp 5, Xã Lương Tâm, Huyện Long Mỹ, Tỉnh Hậu Giang, Việt Nam",
    "lat": "9.62205683503674",
    "lng": "105.449208342939",
    "network": "Viettel",
    "networktype": "WCDMA",
    "provinceid": "184"
  },
  {
    "id": 2568,
    "text": "Trạm 2568",
    "diachi": "Quốc lộ 61C, ấp 7, Xã Vị Trung, Huyện Vị Thủy, Tỉnh Hậu Giang, Việt Nam",
    "lat": "9.78075251741463",
    "lng": "105.532354389024",
    "network": "Viettel",
    "networktype": "WCDMA",
    "provinceid": "184"
  },
  {
    "id": 2567,
    "text": "Trạm 2567",
    "diachi": "ấp 7, Xã Vị Trung, Huyện Vị Thủy, Tỉnh Hậu Giang, Việt Nam",
    "lat": "9.78075251741463",
    "lng": "105.532354389024",
    "network": "FPT",
    "networktype": "GSM/WCDMA",
    "provinceid": "184"
  },
  {
    "id": 2566,
    "text": "Trạm 2566",
    "diachi": "Số 336, Nguyễn Huệ, Xã Vị Tân, Thành phố Vị Thanh, Tỉnh Hậu Giang, Việt Nam",
    "lat": "9.79035605",
    "lng": "105.44555375",
    "network": "FPT",
    "networktype": "GSM/WCDMA",
    "provinceid": "184"
  },
  {
    "id": 2565,
    "text": "Trạm 2565",
    "diachi": "Ấp 4, Xã Vị Tân, Thành phố Vị Thanh, Tỉnh Hậu Giang, Việt Nam",
    "lat": "9.79035605",
    "lng": "105.44555375",
    "network": "Viettel",
    "networktype": "WCDMA",
    "provinceid": "184"
  },
  {
    "id": 2564,
    "text": "Trạm 2564",
    "diachi": "Số 155, khu vực 2 đường 3/2, Phường V, Thành phố Vị Thanh, Tỉnh Hậu Giang, Việt Nam",
    "lat": "9.78180487",
    "lng": "105.46677087",
    "network": "FPT",
    "networktype": "WCDMA",
    "provinceid": "184"
  },
  {
    "id": 2563,
    "text": "Trạm 2563",
    "diachi": "Số 76, ấp 1A, Xã Vị Đông, Huyện Vị Thủy, Tỉnh Hậu Giang, Việt Nam",
    "lat": "9.82660639034749",
    "lng": "105.503659601317",
    "network": "FPT",
    "networktype": "GSM/WCDMA",
    "provinceid": "184"
  },
  {
    "id": 2562,
    "text": "Trạm 2562",
    "diachi": "Số 343, Ấp Tân Thạnh Tây, Xã Tân Phú Thạnh, Huyện Châu Thành A, Tỉnh Hậu Giang, Việt Nam",
    "lat": "9.94877811469693",
    "lng": "105.720219678411",
    "network": "MobiFone",
    "networktype": "GSM",
    "provinceid": "184"
  },
  {
    "id": 2561,
    "text": "Trạm 2561",
    "diachi": "số 23 đường Trưng Nhị, Phường I, Thành phố Vị Thanh, Tỉnh Hậu Giang, Việt Nam",
    "lat": "9.78459161",
    "lng": "105.46528634",
    "network": "MobiFone",
    "networktype": "GSM",
    "provinceid": "184"
  },
  {
    "id": 2560,
    "text": "Trạm 2560",
    "diachi": "13/6 Lý Thường Kiệt, Khu Vực 5, Phường IV, Thành phố Vị Thanh, Tỉnh Hậu Giang, Việt Nam",
    "lat": "9.78459161",
    "lng": "105.46528634",
    "network": "VNPT",
    "networktype": "GSM",
    "provinceid": "184"
  },
  {
    "id": 2559,
    "text": "Trạm 2559",
    "diachi": "P8-20, Tỉnh lộ 931, ấp 1, Xã Vị Đông, Huyện Vị Thủy, Tỉnh Hậu Giang, Việt Nam",
    "lat": "9.82660639034749",
    "lng": "105.503659601317",
    "network": "FPT",
    "networktype": "GSM",
    "provinceid": "184"
  },
  {
    "id": 2558,
    "text": "Trạm 2558",
    "diachi": "Số 45 khu vực Khánh Hưng, Phường Trà Lồng, Thị Xã Long Mỹ, Tỉnh Hậu Giang, Việt Nam",
    "lat": "9.610686",
    "lng": "105.596053",
    "network": "FPT",
    "networktype": "GSM/WCDMA",
    "provinceid": "184"
  },
  {
    "id": 2557,
    "text": "Trạm 2557",
    "diachi": "số nhà G25, ấp Nhơn Thuận 1B, Xã Nhơn Nghĩa A, Huyện Châu Thành A, Tỉnh Hậu Giang, Việt Nam",
    "lat": "9.939767",
    "lng": "105.666212",
    "network": "Viettel",
    "networktype": "GSM",
    "provinceid": "184"
  },
  {
    "id": 2556,
    "text": "Trạm 2556",
    "diachi": "Nhà 3-1 khu dân cư Cát Tường, khu vực 1, Phường III, Thành phố Vị Thanh, Tỉnh Hậu Giang, Việt Nam",
    "lat": "9.7713306",
    "lng": "105.4758436",
    "network": "FPT",
    "networktype": "WCDMA",
    "provinceid": "184"
  },
  {
    "id": 2555,
    "text": "Trạm 2555",
    "diachi": "Đường 3 tháng 2, khu vực 6, Phường Thuận An, Thị Xã Long Mỹ, Tỉnh Hậu Giang, Việt Nam",
    "lat": "9.610686",
    "lng": "105.596053",
    "network": "FPT",
    "networktype": "GSM/WCDMA",
    "provinceid": "184"
  },
  {
    "id": 2554,
    "text": "Trạm 2554",
    "diachi": "Ấp Phước Thuận, Thị Trấn Ngã Sáu, Huyện Châu Thành, Tỉnh Hậu Giang, Việt Nam",
    "lat": "9.91964099687914",
    "lng": "105.805687746643",
    "network": "FPT",
    "networktype": "WCDMA",
    "provinceid": "184"
  },
  {
    "id": 2553,
    "text": "Trạm 2553",
    "diachi": "Ấp 2, Xã Vị Đông, Huyện Vị Thủy, Tỉnh Hậu Giang, Việt Nam",
    "lat": "9.82660639034749",
    "lng": "105.503659601317",
    "network": "MobiFone",
    "networktype": "WCDMA",
    "provinceid": "184"
  },
  {
    "id": 2552,
    "text": "Trạm 2552",
    "diachi": "Đường Nguyễn Viết Xuân, Khu vực 3, Phường III, Thành phố Vị Thanh, Tỉnh Hậu Giang, Việt Nam",
    "lat": "9.7713306",
    "lng": "105.4758436",
    "network": "MobiFone",
    "networktype": "WCDMA",
    "provinceid": "184"
  },
  {
    "id": 2551,
    "text": "Trạm 2551",
    "diachi": "Số 234, ấp Phước Long, Xã Đông Phước A, Huyện Châu Thành, Tỉnh Hậu Giang, Việt Nam",
    "lat": "9.931471",
    "lng": "105.774554",
    "network": "Viettel",
    "networktype": "GSM",
    "provinceid": "184"
  },
  {
    "id": 2550,
    "text": "Trạm 2550",
    "diachi": "K3-7 Khu Dân cư Cát Tường, Khu vực 1, Phường III, Thành phố Vị Thanh, Tỉnh Hậu Giang, Việt Nam",
    "lat": "9.7713306",
    "lng": "105.4758436",
    "network": "MobiFone",
    "networktype": "WCDMA",
    "provinceid": "184"
  },
  {
    "id": 2549,
    "text": "Trạm 2549",
    "diachi": "Lô A4, Cụm Công nghiệp - Tiểu thủ công nghiệp thành phố Vị Thanh, Phường VII, Thành phố Vị Thanh, Tỉnh Hậu Giang, Việt Nam",
    "lat": "9.75284643168588",
    "lng": "105.416652411533",
    "network": "VNPT",
    "networktype": "WCDMA",
    "provinceid": "184"
  },
  {
    "id": 2548,
    "text": "Trạm 2548",
    "diachi": "Số 72, đường Hoàng Văn Thụ, Phường V, Thành phố Vị Thanh, Tỉnh Hậu Giang, Việt Nam",
    "lat": "9.78180487",
    "lng": "105.46677087",
    "network": "MobiFone",
    "networktype": "WCDMA",
    "provinceid": "184"
  },
  {
    "id": 2547,
    "text": "Trạm 2547",
    "diachi": "Số 23, Nguyễn Văn Nết, Khu vực 3, Phường Ngã Bảy, Thành phố Ngã Bảy, Tỉnh Hậu Giang, Việt Nam",
    "lat": "9.81238",
    "lng": "105.821016",
    "network": "FPT",
    "networktype": "WCDMA",
    "provinceid": "184"
  },
  {
    "id": 2546,
    "text": "Trạm 2546",
    "diachi": "Số 52, khu vực 3, Phường Lái Hiếu, Thành phố Ngã Bảy, Tỉnh Hậu Giang, Việt Nam",
    "lat": "9.81674759578225",
    "lng": "105.791473409249",
    "network": "MobiFone",
    "networktype": "GSM",
    "provinceid": "184"
  },
  {
    "id": 2545,
    "text": "Trạm 2545",
    "diachi": "Đường 19/8, ấp 5, Xã Vị Tân, Thành phố Vị Thanh, Tỉnh Hậu Giang, Việt Nam",
    "lat": "9.79035605",
    "lng": "105.44555375",
    "network": "FPT",
    "networktype": "GSM",
    "provinceid": "184"
  },
  {
    "id": 2544,
    "text": "Trạm 2544",
    "diachi": "Số 235/19, ấp Đông An 2A, Xã Tân Thành, Thành phố Ngã Bảy, Tỉnh Hậu Giang, Việt Nam",
    "lat": "9.86323381349434",
    "lng": "105.837833695447",
    "network": "MobiFone",
    "networktype": "WCDMA",
    "provinceid": "184"
  },
  {
    "id": 2543,
    "text": "Trạm 2543",
    "diachi": "đường Lung Nia, ấp 6, Xã Vị Tân, Thành phố Vị Thanh, Tỉnh Hậu Giang, Việt Nam",
    "lat": "9.79035605",
    "lng": "105.44555375",
    "network": "MobiFone",
    "networktype": "WCDMA",
    "provinceid": "184"
  },
  {
    "id": 2542,
    "text": "Trạm 2542",
    "diachi": "ấp Phú Nhơn, Xã Đông Phú, Huyện Châu Thành, Tỉnh Hậu Giang, Việt Nam",
    "lat": "9.96226719",
    "lng": "105.84770242",
    "network": "Viettel",
    "networktype": "WCDMA",
    "provinceid": "184"
  },
  {
    "id": 2541,
    "text": "Trạm 2541",
    "diachi": "Số 20 đường tỉnh 932, ấp 1, Xã Vị Thanh, Huyện Vị Thủy, Tỉnh Hậu Giang, Việt Nam",
    "lat": "9.84890066754876",
    "lng": "105.561494284281",
    "network": "MobiFone",
    "networktype": "GSM",
    "provinceid": "184"
  },
  {
    "id": 2540,
    "text": "Trạm 2540",
    "diachi": "Số 28 ấp Thị tứ, Thị Trấn Rạch Gòi, Huyện Châu Thành A, Tỉnh Hậu Giang, Việt Nam",
    "lat": "9.91164106371062",
    "lng": "105.659352430553",
    "network": "MobiFone",
    "networktype": "WCDMA",
    "provinceid": "184"
  },
  {
    "id": 2539,
    "text": "Trạm 2539",
    "diachi": "Số 169, ấp 9, Xã Vị Thắng, Huyện Vị Thủy, Tỉnh Hậu Giang, Việt Nam",
    "lat": "9.74708471",
    "lng": "105.54557751",
    "network": "FPT",
    "networktype": "GSM/WCDMA",
    "provinceid": "184"
  },
  {
    "id": 2538,
    "text": "Trạm 2538",
    "diachi": "số 179 đường Nguyễn Tri Phương, Thị Trấn Nàng Mau, Huyện Vị Thủy, Tỉnh Hậu Giang, Việt Nam",
    "lat": "9.7495575",
    "lng": "105.5307949",
    "network": "Viettel",
    "networktype": "GSM",
    "provinceid": "184"
  },
  {
    "id": 2537,
    "text": "Trạm 2537",
    "diachi": "Ấp Phú Nhơn, Xã Đông Phú, Huyện Châu Thành, Tỉnh Hậu Giang, Việt Nam",
    "lat": "9.96226719",
    "lng": "105.84770242",
    "network": "FPT",
    "networktype": "GSM",
    "provinceid": "184"
  },
  {
    "id": 2536,
    "text": "Trạm 2536",
    "diachi": "Đường 3 tháng 2 ấp Tân Hưng, Thị Trấn Ngã Sáu, Huyện Châu Thành, Tỉnh Hậu Giang, Việt Nam",
    "lat": "9.91964099687914",
    "lng": "105.805687746643",
    "network": "MobiFone",
    "networktype": "WCDMA",
    "provinceid": "184"
  },
  {
    "id": 2535,
    "text": "Trạm 2535",
    "diachi": "Số 226 ấp 5, Xã Vị Thanh, Huyện Vị Thủy, Tỉnh Hậu Giang, Việt Nam",
    "lat": "9.84890066754876",
    "lng": "105.561494284281",
    "network": "Viettel",
    "networktype": "GSM/WCDMA",
    "provinceid": "184"
  },
  {
    "id": 2534,
    "text": "Trạm 2534",
    "diachi": "Số 76, Chợ Vĩnh Viễn, ấp 11, Thị trấn Vĩnh Viễn, Huyện Long Mỹ, Tỉnh Hậu Giang, Việt Nam",
    "lat": "9.6731644977821",
    "lng": "105.459153658287",
    "network": "VNPT",
    "networktype": "GSM/WCDMA",
    "provinceid": "184"
  },
  {
    "id": 2533,
    "text": "Trạm 2533",
    "diachi": "Số 166, âp 7, Xã Vị Trung, Huyện Vị Thủy, Tỉnh Hậu Giang, Việt Nam",
    "lat": "9.78075251741463",
    "lng": "105.532354389024",
    "network": "MobiFone",
    "networktype": "WCDMA",
    "provinceid": "184"
  },
  {
    "id": 2532,
    "text": "Trạm 2532",
    "diachi": "Số 82 ấp 3, Xã Vị Thuỷ, Huyện Vị Thủy, Tỉnh Hậu Giang, Việt Nam",
    "lat": "9.77532583",
    "lng": "105.49129267",
    "network": "FPT",
    "networktype": "GSM/WCDMA",
    "provinceid": "184"
  },
  {
    "id": 2531,
    "text": "Trạm 2531",
    "diachi": "Quốc lộ 61A, Xã Tân Bình, Huyện Phụng Hiệp, Tỉnh Hậu Giang, Việt Nam",
    "lat": "9.86501044",
    "lng": "105.6494699",
    "network": "FPT",
    "networktype": "GSM/WCDMA",
    "provinceid": "184"
  },
  {
    "id": 2530,
    "text": "Trạm 2530",
    "diachi": "Quốc lộ 931, ấp 3, Xã Vị Đông, Huyện Vị Thủy, Tỉnh Hậu Giang, Việt Nam",
    "lat": "9.82660639034749",
    "lng": "105.503659601317",
    "network": "Viettel",
    "networktype": "GSM/WCDMA",
    "provinceid": "184"
  },
  {
    "id": 2529,
    "text": "Trạm 2529",
    "diachi": "Số 101, đường Nguyễn Chí Thanh, Thị Trấn Nàng Mau, Huyện Vị Thủy, Tỉnh Hậu Giang, Việt Nam",
    "lat": "9.75289696332149",
    "lng": "105.531013872001",
    "network": "FPT",
    "networktype": "GSM/WCDMA",
    "provinceid": "184"
  },
  {
    "id": 2528,
    "text": "Trạm 2528",
    "diachi": "Số 41, ấp 2, Xã Vị Bình, Huyện Vị Thủy, Tỉnh Hậu Giang, Việt Nam",
    "lat": "9.87797831387107",
    "lng": "105.558145467347",
    "network": "Viettel",
    "networktype": "GSM/WCDMA",
    "provinceid": "184"
  },
  {
    "id": 2527,
    "text": "Trạm 2527",
    "diachi": "Số 148, ấp 6, Xã Vị Đông, Huyện Vị Thủy, Tỉnh Hậu Giang, Việt Nam",
    "lat": "9.82660639034749",
    "lng": "105.503659601317",
    "network": "VNPT",
    "networktype": "WCDMA",
    "provinceid": "184"
  },
  {
    "id": 2526,
    "text": "Trạm 2526",
    "diachi": "Số 04, Đường Ngô Quốc Trị, Phường V, Thành phố Vị Thanh, Tỉnh Hậu Giang, Việt Nam",
    "lat": "9.78180487",
    "lng": "105.46677087",
    "network": "FPT",
    "networktype": "GSM/WCDMA",
    "provinceid": "184"
  },
  {
    "id": 2525,
    "text": "Trạm 2525",
    "diachi": "Số 52 Quốc lộ 1A,ấp Phú Thạnh., Xã Tân Phú Thạnh, Huyện Châu Thành A, Tỉnh Hậu Giang, Việt Nam",
    "lat": "9.94877811469693",
    "lng": "105.720219678411",
    "network": "Viettel",
    "networktype": "WCDMA",
    "provinceid": "184"
  },
  {
    "id": 2524,
    "text": "Trạm 2524",
    "diachi": "ấp 7, Xã Long Trị A, Thị Xã Long Mỹ, Tỉnh Hậu Giang, Việt Nam",
    "lat": "9.610686",
    "lng": "105.596053",
    "network": "VNPT",
    "networktype": "GSM",
    "provinceid": "184"
  },
  {
    "id": 2523,
    "text": "Trạm 2523",
    "diachi": "Số 219, ấp 1, Xã Thuận Hòa, Huyện Long Mỹ, Tỉnh Hậu Giang, Việt Nam",
    "lat": "9.669067",
    "lng": "105.465144",
    "network": "Viettel",
    "networktype": "WCDMA",
    "provinceid": "184"
  },
  {
    "id": 2522,
    "text": "Trạm 2522",
    "diachi": "ấp 2, Xã Xà Phiên, Huyện Long Mỹ, Tỉnh Hậu Giang, Việt Nam",
    "lat": "9.623426",
    "lng": "105.5122694",
    "network": "VNPT",
    "networktype": "GSM/WCDMA",
    "provinceid": "184"
  },
  {
    "id": 2521,
    "text": "Trạm 2521",
    "diachi": "Ấp Phú Khởi, Xã Thạnh Hoà, Huyện Phụng Hiệp, Tỉnh Hậu Giang, Việt Nam",
    "lat": "9.897208",
    "lng": "105.668311",
    "network": "Viettel",
    "networktype": "WCDMA",
    "provinceid": "184"
  },
  {
    "id": 2520,
    "text": "Trạm 2520",
    "diachi": "Số 15, ấp 1, Xã Thạnh Hoà, Huyện Phụng Hiệp, Tỉnh Hậu Giang, Việt Nam",
    "lat": "9.897208",
    "lng": "105.668311",
    "network": "MobiFone",
    "networktype": "GSM/WCDMA",
    "provinceid": "184"
  },
  {
    "id": 2519,
    "text": "Trạm 2519",
    "diachi": "số 16 đường 30/4, Phường I, Thành phố Vị Thanh, Tỉnh Hậu Giang, Việt Nam",
    "lat": "9.78459161",
    "lng": "105.46528634",
    "network": "VNPT",
    "networktype": "GSM",
    "provinceid": "184"
  },
  {
    "id": 2518,
    "text": "Trạm 2518",
    "diachi": "Tỉnh lộ 925, ấp Đông Lợi, Xã Đông Phước, Huyện Châu Thành, Tỉnh Hậu Giang, Việt Nam",
    "lat": "9.88721905666916",
    "lng": "105.796343188599",
    "network": "Viettel",
    "networktype": "WCDMA",
    "provinceid": "184"
  },
  {
    "id": 2517,
    "text": "Trạm 2517",
    "diachi": "851 Hùng Vương, KV 5, Phường Ngã Bảy, Thành phố Ngã Bảy, Tỉnh Hậu Giang, Việt Nam",
    "lat": "9.81238",
    "lng": "105.821016",
    "network": "VNPT",
    "networktype": "WCDMA",
    "provinceid": "184"
  },
  {
    "id": 2516,
    "text": "Trạm 2516",
    "diachi": "Số 82-84, ấp 3, Xã Vị Thuỷ, Huyện Vị Thủy, Tỉnh Hậu Giang, Việt Nam",
    "lat": "9.77532583",
    "lng": "105.49129267",
    "network": "VNPT",
    "networktype": "GSM",
    "provinceid": "184"
  },
  {
    "id": 2515,
    "text": "Trạm 2515",
    "diachi": "ấp Đông Sơn, Xã Đông Phước, Huyện Châu Thành, Tỉnh Hậu Giang, Việt Nam",
    "lat": "9.88721905666916",
    "lng": "105.796343188599",
    "network": "FPT",
    "networktype": "GSM/WCDMA",
    "provinceid": "184"
  },
  {
    "id": 2514,
    "text": "Trạm 2514",
    "diachi": "đường Phạm Nhờ nối dài, Khu vực Bình Thạnh B, Phường Bình Thạnh, Thị Xã Long Mỹ, Tỉnh Hậu Giang, Việt Nam",
    "lat": "9.610686",
    "lng": "105.596053",
    "network": "FPT",
    "networktype": "GSM/WCDMA",
    "provinceid": "184"
  },
  {
    "id": 2513,
    "text": "Trạm 2513",
    "diachi": "Thửa đất số 3682, Tờ bản đồ số 2, Ấp 1A, Thị Trấn Một Ngàn, Huyện Châu Thành A, Tỉnh Hậu Giang, Việt Nam",
    "lat": "9.92837676278537",
    "lng": "105.629179980098",
    "network": "Viettel",
    "networktype": "WCDMA",
    "provinceid": "184"
  },
  {
    "id": 2512,
    "text": "Trạm 2512",
    "diachi": "Số 72, đường 30/4, ấp 2, Thị Trấn Nàng Mau, Huyện Vị Thủy, Tỉnh Hậu Giang, Việt Nam",
    "lat": "9.75289696332149",
    "lng": "105.531013872001",
    "network": "FPT",
    "networktype": "GSM/WCDMA",
    "provinceid": "184"
  },
  {
    "id": 2511,
    "text": "Trạm 2511",
    "diachi": "Số 322 ấp Nhơn Thuận 1B, Xã Nhơn Nghĩa A, Huyện Châu Thành A, Tỉnh Hậu Giang, Việt Nam",
    "lat": "9.939767",
    "lng": "105.666212",
    "network": "Viettel",
    "networktype": "WCDMA",
    "provinceid": "184"
  },
  {
    "id": 2510,
    "text": "Trạm 2510",
    "diachi": "Số 187 ấp 2, Xã Xà Phiên, Huyện Long Mỹ, Tỉnh Hậu Giang, Việt Nam",
    "lat": "9.61883623112294",
    "lng": "105.506068713636",
    "network": "FPT",
    "networktype": "GSM/WCDMA",
    "provinceid": "184"
  },
  {
    "id": 2509,
    "text": "Trạm 2509",
    "diachi": "Thửa đất số 18, Tờ bản đồ số 34, ấp Trường Hòa, Xã Trường Long A, Huyện Châu Thành A, Tỉnh Hậu Giang, Việt Nam",
    "lat": "9.947124",
    "lng": "105.615617",
    "network": "VNPT",
    "networktype": "WCDMA",
    "provinceid": "184"
  },
  {
    "id": 2508,
    "text": "Trạm 2508",
    "diachi": "ấp 4, Xã Thuận Hòa, Huyện Long Mỹ, Tỉnh Hậu Giang, Việt Nam",
    "lat": "9.6287456002956",
    "lng": "105.564397552057",
    "network": "MobiFone",
    "networktype": "GSM",
    "provinceid": "184"
  },
  {
    "id": 2507,
    "text": "Trạm 2507",
    "diachi": "số 141 ấp Đông An 2A, Xã Tân Thành, Thành phố Ngã Bảy, Tỉnh Hậu Giang, Việt Nam",
    "lat": "9.86323381349434",
    "lng": "105.837833695447",
    "network": "Viettel",
    "networktype": "GSM",
    "provinceid": "184"
  },
  {
    "id": 2506,
    "text": "Trạm 2506",
    "diachi": "Đường Ngô Quyền, khu vực 2, Phường Lái Hiếu, Thành phố Ngã Bảy, Tỉnh Hậu Giang, Việt Nam",
    "lat": "9.81674759578225",
    "lng": "105.791473409249",
    "network": "Viettel",
    "networktype": "WCDMA",
    "provinceid": "184"
  },
  {
    "id": 2505,
    "text": "Trạm 2505",
    "diachi": "Số 52 ấp 3, Xã Vị Thuỷ, Huyện Vị Thủy, Tỉnh Hậu Giang, Việt Nam",
    "lat": "9.77532583",
    "lng": "105.49129267",
    "network": "VNPT",
    "networktype": "WCDMA",
    "provinceid": "184"
  },
  {
    "id": 2504,
    "text": "Trạm 2504",
    "diachi": "ấp 7, Xã Vị Trung, Huyện Vị Thủy, Tỉnh Hậu Giang, Việt Nam",
    "lat": "9.78075251741463",
    "lng": "105.532354389024",
    "network": "VNPT",
    "networktype": "WCDMA",
    "provinceid": "184"
  },
  {
    "id": 2503,
    "text": "Trạm 2503",
    "diachi": "Số 116 Nguyễn Trãi, Khu vực 2, Phường Lái Hiếu, Thành phố Ngã Bảy, Tỉnh Hậu Giang, Việt Nam",
    "lat": "9.81674759578225",
    "lng": "105.791473409249",
    "network": "Viettel",
    "networktype": "GSM",
    "provinceid": "184"
  },
  {
    "id": 2502,
    "text": "Trạm 2502",
    "diachi": "C3 khu tái định cư, ấp Phú NHơn, Xã Đông Phú, Huyện Châu Thành, Tỉnh Hậu Giang, Việt Nam",
    "lat": "9.968864",
    "lng": "105.833702",
    "network": "Viettel",
    "networktype": "GSM/WCDMA",
    "provinceid": "184"
  },
  {
    "id": 2501,
    "text": "Trạm 2501",
    "diachi": "Số 805, ấp Long An B, Thị Trấn Cái Tắc, Huyện Châu Thành A, Tỉnh Hậu Giang, Việt Nam",
    "lat": "9.92543051661828",
    "lng": "105.739023034734",
    "network": "Viettel",
    "networktype": "WCDMA",
    "provinceid": "184"
  },
  {
    "id": 2500,
    "text": "Trạm 2500",
    "diachi": "Số 557/19 ấp 4A, Thị Trấn Bảy Ngàn, Huyện Châu Thành A, Tỉnh Hậu Giang, Việt Nam",
    "lat": "9.88711597",
    "lng": "105.58627175",
    "network": "Viettel",
    "networktype": "WCDMA",
    "provinceid": "184"
  },
  {
    "id": 2499,
    "text": "Trạm 2499",
    "diachi": "Số 190, khu vực Bình Thạnh C, Phường Bình Thạnh, Thị Xã Long Mỹ, Tỉnh Hậu Giang, Việt Nam",
    "lat": "9.610686",
    "lng": "105.596053",
    "network": "Viettel",
    "networktype": "GSM/WCDMA",
    "provinceid": "184"
  },
  {
    "id": 2498,
    "text": "Trạm 2498",
    "diachi": "Đường số 03, Khu Công nghiệp Tân Phú Thạnh, Xã Tân Phú Thạnh, Huyện Châu Thành A, Tỉnh Hậu Giang, Việt Nam",
    "lat": "9.94877811469693",
    "lng": "105.720219678411",
    "network": "MobiFone",
    "networktype": "GSM",
    "provinceid": "184"
  },
  {
    "id": 2497,
    "text": "Trạm 2497",
    "diachi": "Số 330, ấp 7, Xã Vị Trung, Huyện Vị Thủy, Tỉnh Hậu Giang, Việt Nam",
    "lat": "9.78075251741463",
    "lng": "105.532354389024",
    "network": "FPT",
    "networktype": "GSM/WCDMA",
    "provinceid": "184"
  },
  {
    "id": 2496,
    "text": "Trạm 2496",
    "diachi": "Quốc lộ 61A, ấp 7, Xã Vị Trung, Huyện Vị Thủy, Tỉnh Hậu Giang, Việt Nam",
    "lat": "9.78075251741463",
    "lng": "105.532354389024",
    "network": "VNPT",
    "networktype": "GSM/WCDMA",
    "provinceid": "184"
  },
  {
    "id": 2495,
    "text": "Trạm 2495",
    "diachi": "Số 338, ấp 2A, Xã Vị Tân, Thành phố Vị Thanh, Tỉnh Hậu Giang, Việt Nam",
    "lat": "9.79035605",
    "lng": "105.44555375",
    "network": "FPT",
    "networktype": "WCDMA",
    "provinceid": "184"
  },
  {
    "id": 2494,
    "text": "Trạm 2494",
    "diachi": "Số 122, ấp 9B, Xã Vị Bình, Huyện Vị Thủy, Tỉnh Hậu Giang, Việt Nam",
    "lat": "9.87797831387107",
    "lng": "105.558145467347",
    "network": "Viettel",
    "networktype": "GSM/WCDMA",
    "provinceid": "184"
  },
  {
    "id": 2493,
    "text": "Trạm 2493",
    "diachi": "Số 216 Quốc lộ 61, Xã Vị Trung, Huyện Vị Thủy, Tỉnh Hậu Giang, Việt Nam",
    "lat": "9.78075251741463",
    "lng": "105.532354389024",
    "network": "Viettel",
    "networktype": "GSM/WCDMA",
    "provinceid": "184"
  },
  {
    "id": 2492,
    "text": "Trạm 2492",
    "diachi": "Số 120 đường 1/5, Phường V, Thành phố Vị Thanh, Tỉnh Hậu Giang, Việt Nam",
    "lat": "9.78180487",
    "lng": "105.46677087",
    "network": "FPT",
    "networktype": "WCDMA",
    "provinceid": "184"
  },
  {
    "id": 2491,
    "text": "Trạm 2491",
    "diachi": "Số 261, khu vực 4, Phường Lái Hiếu, Thành phố Ngã Bảy, Tỉnh Hậu Giang, Việt Nam",
    "lat": "9.81674759578225",
    "lng": "105.791473409249",
    "network": "Viettel",
    "networktype": "GSM",
    "provinceid": "184"
  },
  {
    "id": 2490,
    "text": "Trạm 2490",
    "diachi": "Số 24 Lê Anh Xuân, Phường III, Thành phố Vị Thanh, Tỉnh Hậu Giang, Việt Nam",
    "lat": "9.7713306",
    "lng": "105.4758436",
    "network": "VNPT",
    "networktype": "WCDMA",
    "provinceid": "184"
  },
  {
    "id": 2489,
    "text": "Trạm 2489",
    "diachi": "Số 240 Ấp Tân Thạnh Tây, Xã Tân Phú Thạnh, Huyện Châu Thành A, Tỉnh Hậu Giang, Việt Nam",
    "lat": "9.94877811469693",
    "lng": "105.720219678411",
    "network": "VNPT",
    "networktype": "WCDMA",
    "provinceid": "184"
  },
  {
    "id": 2488,
    "text": "Trạm 2488",
    "diachi": "ấp 11, Thị trấn Vĩnh Viễn, Huyện Long Mỹ, Tỉnh Hậu Giang, Việt Nam",
    "lat": "9.6731644977821",
    "lng": "105.459153658287",
    "network": "MobiFone",
    "networktype": "GSM/WCDMA",
    "provinceid": "184"
  },
  {
    "id": 2487,
    "text": "Trạm 2487",
    "diachi": "ấp 7, Xã Lương Nghĩa, Huyện Long Mỹ, Tỉnh Hậu Giang, Việt Nam",
    "lat": "9.61833983432959",
    "lng": "105.406998015966",
    "network": "VNPT",
    "networktype": "WCDMA",
    "provinceid": "184"
  },
  {
    "id": 2486,
    "text": "Trạm 2486",
    "diachi": "Số 274, Ấp Xẻo Cao, Xã Thạnh Xuân, Huyện Châu Thành A, Tỉnh Hậu Giang, Việt Nam",
    "lat": "9.92954070560163",
    "lng": "105.68833614565",
    "network": "FPT",
    "networktype": "WCDMA",
    "provinceid": "184"
  },
  {
    "id": 2485,
    "text": "Trạm 2485",
    "diachi": "C1-26 Đường số 18 ấp Phú Thạnh, Xã Tân Phú Thạnh, Huyện Châu Thành A, Tỉnh Hậu Giang, Việt Nam",
    "lat": "9.94877811469693",
    "lng": "105.720219678411",
    "network": "FPT",
    "networktype": "GSM",
    "provinceid": "184"
  },
  {
    "id": 2484,
    "text": "Trạm 2484",
    "diachi": "Số 821/2, Trần Hưng Đạo, Khu vực 3, Phường VII, Thành phố Vị Thanh, Tỉnh Hậu Giang, Việt Nam",
    "lat": "9.75284643168588",
    "lng": "105.416652411533",
    "network": "Viettel",
    "networktype": "GSM",
    "provinceid": "184"
  },
  {
    "id": 2483,
    "text": "Trạm 2483",
    "diachi": "Số 127, ấp Xẻo Cao A, Xã Thạnh Xuân, Huyện Châu Thành A, Tỉnh Hậu Giang, Việt Nam",
    "lat": "9.92954070560163",
    "lng": "105.68833614565",
    "network": "VNPT",
    "networktype": "GSM/WCDMA",
    "provinceid": "184"
  },
  {
    "id": 2482,
    "text": "Trạm 2482",
    "diachi": "Số 289, Ấp Phước Long, Xã Đông Phước A, Huyện Châu Thành, Tỉnh Hậu Giang, Việt Nam",
    "lat": "9.931471",
    "lng": "105.774554",
    "network": "FPT",
    "networktype": "GSM/WCDMA",
    "provinceid": "184"
  },
  {
    "id": 2481,
    "text": "Trạm 2481",
    "diachi": "Số 41 Đường Phan Văn Trị, khu vực 5, Phường VII, Thành phố Vị Thanh, Tỉnh Hậu Giang, Việt Nam",
    "lat": "9.75284643168588",
    "lng": "105.416652411533",
    "network": "FPT",
    "networktype": "GSM",
    "provinceid": "184"
  },
  {
    "id": 2480,
    "text": "Trạm 2480",
    "diachi": "Đường Hùng Vương, ấp thị Trấn, Thị Trấn Ngã Sáu, Huyện Châu Thành, Tỉnh Hậu Giang, Việt Nam",
    "lat": "9.91964099687914",
    "lng": "105.805687746643",
    "network": "MobiFone",
    "networktype": "GSM/WCDMA",
    "provinceid": "184"
  },
  {
    "id": 2479,
    "text": "Trạm 2479",
    "diachi": "Số 418/14, ấp Hòa Phụng B, Thị Trấn Kinh Cùng, Huyện Phụng Hiệp, Tỉnh Hậu Giang, Việt Nam",
    "lat": "9.80925816024292",
    "lng": "105.632373665658",
    "network": "VNPT",
    "networktype": "GSM/WCDMA",
    "provinceid": "184"
  },
  {
    "id": 2478,
    "text": "Trạm 2478",
    "diachi": "Số 321, ấp Mỹ Thành, Xã Hoà Mỹ, Huyện Phụng Hiệp, Tỉnh Hậu Giang, Việt Nam",
    "lat": "9.79464682389481",
    "lng": "105.706536698554",
    "network": "Viettel",
    "networktype": "WCDMA",
    "provinceid": "184"
  },
  {
    "id": 2477,
    "text": "Trạm 2477",
    "diachi": "đường Trần Hưng Đạo, Khu vực 3 (Gần Cửa hàng Xăng dầu Thành Lợi), Phường III, Thành phố Vị Thanh, Tỉnh Hậu Giang, Việt Nam",
    "lat": "9.7713306",
    "lng": "105.4758436",
    "network": "VNPT",
    "networktype": "WCDMA",
    "provinceid": "184"
  },
  {
    "id": 2476,
    "text": "Trạm 2476",
    "diachi": "Đường 931B, ấp 4, Xã Vị Bình, Huyện Vị Thủy, Tỉnh Hậu Giang, Việt Nam",
    "lat": "9.87797831387107",
    "lng": "105.558145467347",
    "network": "MobiFone",
    "networktype": "GSM",
    "provinceid": "184"
  },
  {
    "id": 2475,
    "text": "Trạm 2475",
    "diachi": "305.1B đường Bốn Tổng, Thị Trấn Một Ngàn, Huyện Châu Thành A, Tỉnh Hậu Giang, Việt Nam",
    "lat": "9.92837676278537",
    "lng": "105.629179980098",
    "network": "VNPT",
    "networktype": "GSM",
    "provinceid": "184"
  },
  {
    "id": 2474,
    "text": "Trạm 2474",
    "diachi": "Đường 30/4, ấp 1A, Thị Trấn Nàng Mau, Huyện Vị Thủy, Tỉnh Hậu Giang, Việt Nam",
    "lat": "9.75289696332149",
    "lng": "105.531013872001",
    "network": "FPT",
    "networktype": "WCDMA",
    "provinceid": "184"
  },
  {
    "id": 2473,
    "text": "Trạm 2473",
    "diachi": "Ấp Tư Sáng, Xã Tân Tiến, Thành phố Vị Thanh, Tỉnh Hậu Giang, Việt Nam",
    "lat": "9.71492094628113",
    "lng": "105.426537389304",
    "network": "FPT",
    "networktype": "GSM/WCDMA",
    "provinceid": "184"
  },
  {
    "id": 2472,
    "text": "Trạm 2472",
    "diachi": "Số 70 Đường 30/4, ấp 2, Thị Trấn Nàng Mau, Huyện Vị Thủy, Tỉnh Hậu Giang, Việt Nam",
    "lat": "9.75289696332149",
    "lng": "105.531013872001",
    "network": "VNPT",
    "networktype": "WCDMA",
    "provinceid": "184"
  },
  {
    "id": 2471,
    "text": "Trạm 2471",
    "diachi": "số 18/6 Đường Nguyễn Huệ, Khu vực 5, Phường IV, Thành phố Vị Thanh, Tỉnh Hậu Giang, Việt Nam",
    "lat": "9.78459161",
    "lng": "105.46528634",
    "network": "MobiFone",
    "networktype": "WCDMA",
    "provinceid": "184"
  },
  {
    "id": 2470,
    "text": "Trạm 2470",
    "diachi": "Số 346 ấp 7, Xã Vị Trung, Huyện Vị Thủy, Tỉnh Hậu Giang, Việt Nam",
    "lat": "9.78075251741463",
    "lng": "105.532354389024",
    "network": "Viettel",
    "networktype": "WCDMA",
    "provinceid": "184"
  },
  {
    "id": 2469,
    "text": "Trạm 2469",
    "diachi": "Số 1/22, Trần Hưng Đạo, Phường V, Thành phố Vị Thanh, Tỉnh Hậu Giang, Việt Nam",
    "lat": "9.78180487",
    "lng": "105.46677087",
    "network": "Viettel",
    "networktype": "GSM/WCDMA",
    "provinceid": "184"
  },
  {
    "id": 2468,
    "text": "Trạm 2468",
    "diachi": "ấp Phú Nhơn, Xã Đông Phú, Huyện Châu Thành, Tỉnh Hậu Giang, Việt Nam",
    "lat": "9.96226719",
    "lng": "105.84770242",
    "network": "VNPT",
    "networktype": "WCDMA",
    "provinceid": "184"
  },
  {
    "id": 2467,
    "text": "Trạm 2467",
    "diachi": "Số 06 đường Lê Quý Đôn, Phường III, Thành phố Vị Thanh, Tỉnh Hậu Giang, Việt Nam",
    "lat": "9.7713306",
    "lng": "105.4758436",
    "network": "VNPT",
    "networktype": "GSM",
    "provinceid": "184"
  },
  {
    "id": 2466,
    "text": "Trạm 2466",
    "diachi": "Đường Phạm Văn Nhờ, Khu vực Bình Thạnh B, Phường Bình Thạnh, Thị Xã Long Mỹ, Tỉnh Hậu Giang, Việt Nam",
    "lat": "9.610686",
    "lng": "105.596053",
    "network": "MobiFone",
    "networktype": "GSM/WCDMA",
    "provinceid": "184"
  },
  {
    "id": 2465,
    "text": "Trạm 2465",
    "diachi": "Số 170A, ấp 2, Xã Thạnh Hoà, Huyện Phụng Hiệp, Tỉnh Hậu Giang, Việt Nam",
    "lat": "9.897208",
    "lng": "105.668311",
    "network": "VNPT",
    "networktype": "GSM",
    "provinceid": "184"
  },
  {
    "id": 2464,
    "text": "Trạm 2464",
    "diachi": "Lô A2, CCN - TTCN TP Vị Thanh, Phường VII, Thành phố Vị Thanh, Tỉnh Hậu Giang, Việt Nam",
    "lat": "9.75284643168588",
    "lng": "105.416652411533",
    "network": "FPT",
    "networktype": "WCDMA",
    "provinceid": "184"
  },
  {
    "id": 2463,
    "text": "Trạm 2463",
    "diachi": "Tỉnh lộ 932, ấp 3A, Xã Vị Đông, Huyện Vị Thủy, Tỉnh Hậu Giang, Việt Nam",
    "lat": "9.82660639034749",
    "lng": "105.503659601317",
    "network": "FPT",
    "networktype": "GSM/WCDMA",
    "provinceid": "184"
  },
  {
    "id": 2462,
    "text": "Trạm 2462",
    "diachi": "175 Ấp Thành Viên, Xã Tân Phước Hưng, Huyện Phụng Hiệp, Tỉnh Hậu Giang, Việt Nam",
    "lat": "9.75300341168374",
    "lng": "105.804128077245",
    "network": "VNPT",
    "networktype": "GSM",
    "provinceid": "184"
  },
  {
    "id": 2461,
    "text": "Trạm 2461",
    "diachi": "số 31, Ấp Phước Hưng, Xã Đông Phước A, Huyện Châu Thành, Tỉnh Hậu Giang, Việt Nam",
    "lat": "9.931471",
    "lng": "105.774554",
    "network": "VNPT",
    "networktype": "GSM/WCDMA",
    "provinceid": "184"
  },
  {
    "id": 2460,
    "text": "Trạm 2460",
    "diachi": "38, Ấp Khánh Hội B, Xã Phú An, Huyện Châu Thành, Tỉnh Hậu Giang, Việt Nam",
    "lat": "9.94742181617828",
    "lng": "105.794352825896",
    "network": "Viettel",
    "networktype": "WCDMA",
    "provinceid": "184"
  },
  {
    "id": 2459,
    "text": "Trạm 2459",
    "diachi": "Số 83, đường Lê Hồng Phong, Phường IV, Thành phố Vị Thanh, Tỉnh Hậu Giang, Việt Nam",
    "lat": "9.78459161",
    "lng": "105.46528634",
    "network": "Viettel",
    "networktype": "GSM/WCDMA",
    "provinceid": "184"
  },
  {
    "id": 2458,
    "text": "Trạm 2458",
    "diachi": "Ấp Vĩnh Phú, Xã Vĩnh Tường, Huyện Vị Thủy, Tỉnh Hậu Giang, Việt Nam",
    "lat": "9.80497187244493",
    "lng": "105.588919982221",
    "network": "Viettel",
    "networktype": "GSM/WCDMA",
    "provinceid": "184"
  },
  {
    "id": 2457,
    "text": "Trạm 2457",
    "diachi": "Đường 30/4, Ấp Nhơn Thuận 1A, Thị Trấn Một Ngàn, Huyện Châu Thành A, Tỉnh Hậu Giang, Việt Nam",
    "lat": "9.92837676278537",
    "lng": "105.629179980098",
    "network": "MobiFone",
    "networktype": "GSM",
    "provinceid": "184"
  },
  {
    "id": 2456,
    "text": "Trạm 2456",
    "diachi": "Số 65, ấp Phó Đường, Xã Tân Phước Hưng, Huyện Phụng Hiệp, Tỉnh Hậu Giang, Việt Nam",
    "lat": "9.75300341168374",
    "lng": "105.804128077245",
    "network": "MobiFone",
    "networktype": "WCDMA",
    "provinceid": "184"
  },
  {
    "id": 2455,
    "text": "Trạm 2455",
    "diachi": "Số H49 đường số 9, Thị Trấn Ngã Sáu, Huyện Châu Thành, Tỉnh Hậu Giang, Việt Nam",
    "lat": "9.91964099687914",
    "lng": "105.805687746643",
    "network": "MobiFone",
    "networktype": "GSM/WCDMA",
    "provinceid": "184"
  },
  {
    "id": 2454,
    "text": "Trạm 2454",
    "diachi": "Số nhà B2 Khu dân cư Trường Long A, Ấp Trường Hòa, Xã Trường Long A, Huyện Châu Thành A, Tỉnh Hậu Giang, Việt Nam",
    "lat": "9.947124",
    "lng": "105.615617",
    "network": "VNPT",
    "networktype": "WCDMA",
    "provinceid": "184"
  },
  {
    "id": 2453,
    "text": "Trạm 2453",
    "diachi": "Số 423, ấp Tầm Vu 2, Xã Thạnh Hoà, Huyện Phụng Hiệp, Tỉnh Hậu Giang, Việt Nam",
    "lat": "9.897208",
    "lng": "105.668311",
    "network": "FPT",
    "networktype": "WCDMA",
    "provinceid": "184"
  },
  {
    "id": 2452,
    "text": "Trạm 2452",
    "diachi": "Số 21, Lý Nam Đế, Khu Dân cư phường 5, Phường V, Thành phố Vị Thanh, Tỉnh Hậu Giang, Việt Nam",
    "lat": "9.78180487",
    "lng": "105.46677087",
    "network": "VNPT",
    "networktype": "GSM",
    "provinceid": "184"
  },
  {
    "id": 2451,
    "text": "Trạm 2451",
    "diachi": "số 327 Trần Hưng Đạo, Khu vực 1, Phường I, Thành phố Vị Thanh, Tỉnh Hậu Giang, Việt Nam",
    "lat": "9.78459161",
    "lng": "105.46528634",
    "network": "FPT",
    "networktype": "GSM",
    "provinceid": "184"
  },
  {
    "id": 2450,
    "text": "Trạm 2450",
    "diachi": "Quốc lộ 61, ấp Tầm Vu 1, Xã Thạnh Hoà, Huyện Phụng Hiệp, Tỉnh Hậu Giang, Việt Nam",
    "lat": "9.897208",
    "lng": "105.668311",
    "network": "FPT",
    "networktype": "GSM/WCDMA",
    "provinceid": "184"
  },
  {
    "id": 2449,
    "text": "Trạm 2449",
    "diachi": "Số 105, ấp 6, Xã Vị Thuỷ, Huyện Vị Thủy, Tỉnh Hậu Giang, Việt Nam",
    "lat": "9.77532583",
    "lng": "105.49129267",
    "network": "Viettel",
    "networktype": "GSM/WCDMA",
    "provinceid": "184"
  },
  {
    "id": 2448,
    "text": "Trạm 2448",
    "diachi": "số 233 ấp 7, Xã Vĩnh Viễn A, Huyện Long Mỹ, Tỉnh Hậu Giang, Việt Nam",
    "lat": "9.67794561450838",
    "lng": "105.392496491297",
    "network": "Viettel",
    "networktype": "GSM",
    "provinceid": "184"
  },
  {
    "id": 2447,
    "text": "Trạm 2447",
    "diachi": "số 251, ấp 6, Thị Trấn Kinh Cùng, Huyện Phụng Hiệp, Tỉnh Hậu Giang, Việt Nam",
    "lat": "9.80925816024292",
    "lng": "105.632373665658",
    "network": "Viettel",
    "networktype": "GSM/WCDMA",
    "provinceid": "184"
  },
  {
    "id": 2446,
    "text": "Trạm 2446",
    "diachi": "Số 53-55 Đường Triệu Ẩu, Khu vực 1, Phường Ngã Bảy, Thành phố Ngã Bảy, Tỉnh Hậu Giang, Việt Nam",
    "lat": "9.81238",
    "lng": "105.821016",
    "network": "MobiFone",
    "networktype": "GSM/WCDMA",
    "provinceid": "184"
  },
  {
    "id": 2445,
    "text": "Trạm 2445",
    "diachi": "Số 21 ấp Đông Bình, Xã Đông Phước, Huyện Châu Thành, Tỉnh Hậu Giang, Việt Nam",
    "lat": "9.88721905666916",
    "lng": "105.796343188599",
    "network": "FPT",
    "networktype": "WCDMA",
    "provinceid": "184"
  },
  {
    "id": 2444,
    "text": "Trạm 2444",
    "diachi": "Khu vực Bình Thạnh B, Phường Bình Thạnh, Thị Xã Long Mỹ, Tỉnh Hậu Giang, Việt Nam",
    "lat": "9.610686",
    "lng": "105.596053",
    "network": "FPT",
    "networktype": "WCDMA",
    "provinceid": "184"
  },
  {
    "id": 2443,
    "text": "Trạm 2443",
    "diachi": "ấp Thống Nhất, Thị Trấn Cây Dương, Huyện Phụng Hiệp, Tỉnh Hậu Giang, Việt Nam",
    "lat": "9.78443290298373",
    "lng": "105.733307749641",
    "network": "FPT",
    "networktype": "GSM",
    "provinceid": "184"
  },
  {
    "id": 2442,
    "text": "Trạm 2442",
    "diachi": "Số 601 Đường Hùng Vương ấp Xẻo Vông A, Xã Hiệp Lợi, Thành phố Ngã Bảy, Tỉnh Hậu Giang, Việt Nam",
    "lat": "9.833459",
    "lng": "105.800861",
    "network": "MobiFone",
    "networktype": "GSM/WCDMA",
    "provinceid": "184"
  },
  {
    "id": 2441,
    "text": "Trạm 2441",
    "diachi": "Lô C1 Khu dân cư Thiên Lộc, ấp Phú Thạnh, Xã Tân Phú Thạnh, Huyện Châu Thành A, Tỉnh Hậu Giang, Việt Nam",
    "lat": "9.94877811469693",
    "lng": "105.720219678411",
    "network": "FPT",
    "networktype": "GSM",
    "provinceid": "184"
  },
  {
    "id": 2440,
    "text": "Trạm 2440",
    "diachi": "Số 43 Tầm Vu 2, Xã Thạnh Hoà, Huyện Phụng Hiệp, Tỉnh Hậu Giang, Việt Nam",
    "lat": "9.897208",
    "lng": "105.668311",
    "network": "FPT",
    "networktype": "GSM",
    "provinceid": "184"
  },
  {
    "id": 2439,
    "text": "Trạm 2439",
    "diachi": "Số 121, QL 61, ấp Tầm Vu 1, Xã Thạnh Hoà, Huyện Phụng Hiệp, Tỉnh Hậu Giang, Việt Nam",
    "lat": "9.897208",
    "lng": "105.668311",
    "network": "MobiFone",
    "networktype": "GSM",
    "provinceid": "184"
  },
  {
    "id": 2438,
    "text": "Trạm 2438",
    "diachi": "234, Ấp Xẻo Cao, Xã Thạnh Xuân, Huyện Châu Thành A, Tỉnh Hậu Giang, Việt Nam",
    "lat": "9.92954070560163",
    "lng": "105.68833614565",
    "network": "VNPT",
    "networktype": "GSM",
    "provinceid": "184"
  },
  {
    "id": 2437,
    "text": "Trạm 2437",
    "diachi": "Số 11, đường Nguyễn Thị Minh Khai, khu vực 3, Phường Ngã Bảy, Thành phố Ngã Bảy, Tỉnh Hậu Giang, Việt Nam",
    "lat": "9.81238",
    "lng": "105.821016",
    "network": "VNPT",
    "networktype": "WCDMA",
    "provinceid": "184"
  },
  {
    "id": 2436,
    "text": "Trạm 2436",
    "diachi": "Ấp 4, Xã Vĩnh Thuận Tây, Huyện Vị Thủy, Tỉnh Hậu Giang, Việt Nam",
    "lat": "9.71880346",
    "lng": "105.4585849",
    "network": "FPT",
    "networktype": "WCDMA",
    "provinceid": "184"
  },
  {
    "id": 2435,
    "text": "Trạm 2435",
    "diachi": "ấp 3, Xã Thạnh Hoà, Huyện Phụng Hiệp, Tỉnh Hậu Giang, Việt Nam",
    "lat": "9.897208",
    "lng": "105.668311",
    "network": "Viettel",
    "networktype": "GSM",
    "provinceid": "184"
  },
  {
    "id": 2434,
    "text": "Trạm 2434",
    "diachi": "ấp Bình Thuận, Xã Long Bình, Thị Xã Long Mỹ, Tỉnh Hậu Giang, Việt Nam",
    "lat": "9.610686",
    "lng": "105.596053",
    "network": "MobiFone",
    "networktype": "WCDMA",
    "provinceid": "184"
  },
  {
    "id": 2433,
    "text": "Trạm 2433",
    "diachi": "Số 15, Lê Quý Đôn, KV 1, Phường III, Thành phố Vị Thanh, Tỉnh Hậu Giang, Việt Nam",
    "lat": "9.7713306",
    "lng": "105.4758436",
    "network": "FPT",
    "networktype": "GSM/WCDMA",
    "provinceid": "184"
  },
  {
    "id": 2432,
    "text": "Trạm 2432",
    "diachi": "Đường Hùng Vương, khu vực 4, Phường V, Thành phố Vị Thanh, Tỉnh Hậu Giang, Việt Nam",
    "lat": "9.78180487",
    "lng": "105.46677087",
    "network": "VNPT",
    "networktype": "WCDMA",
    "provinceid": "184"
  },
  {
    "id": 2431,
    "text": "Trạm 2431",
    "diachi": "Số 05 Hoàng Văn Thụ, Khu vực 4, Phường V, Thành phố Vị Thanh, Tỉnh Hậu Giang, Việt Nam",
    "lat": "9.78180487",
    "lng": "105.46677087",
    "network": "MobiFone",
    "networktype": "GSM",
    "provinceid": "184"
  },
  {
    "id": 2430,
    "text": "Trạm 2430",
    "diachi": "số 168 Quốc lộ 61, Xã Thạnh Hoà, Huyện Phụng Hiệp, Tỉnh Hậu Giang, Việt Nam",
    "lat": "9.897208",
    "lng": "105.668311",
    "network": "FPT",
    "networktype": "WCDMA",
    "provinceid": "184"
  },
  {
    "id": 2429,
    "text": "Trạm 2429",
    "diachi": "Số 105/2, Lê Hồng Phong, Khu vực 4, Phường IV, Thành phố Vị Thanh, Tỉnh Hậu Giang, Việt Nam",
    "lat": "9.78459161",
    "lng": "105.46528634",
    "network": "VNPT",
    "networktype": "GSM",
    "provinceid": "184"
  },
  {
    "id": 2428,
    "text": "Trạm 2428",
    "diachi": "Số 116 Nguyễn Trung Trực, Khu vực 5, Phường VII, Thành phố Vị Thanh, Tỉnh Hậu Giang, Việt Nam",
    "lat": "9.75284643168588",
    "lng": "105.416652411533",
    "network": "VNPT",
    "networktype": "GSM/WCDMA",
    "provinceid": "184"
  },
  {
    "id": 2427,
    "text": "Trạm 2427",
    "diachi": "ấp 1, Xã Vị Thanh, Huyện Vị Thủy, Tỉnh Hậu Giang, Việt Nam",
    "lat": "9.84890066754876",
    "lng": "105.561494284281",
    "network": "MobiFone",
    "networktype": "WCDMA",
    "provinceid": "184"
  },
  {
    "id": 2426,
    "text": "Trạm 2426",
    "diachi": "Số 232/2, ấp 2A, Thị Trấn Bảy Ngàn, Huyện Châu Thành A, Tỉnh Hậu Giang, Việt Nam",
    "lat": "9.88711597",
    "lng": "105.58627175",
    "network": "FPT",
    "networktype": "GSM",
    "provinceid": "184"
  },
  {
    "id": 2425,
    "text": "Trạm 2425",
    "diachi": "ấp 4A, Thị Trấn Bảy Ngàn, Huyện Châu Thành A, Tỉnh Hậu Giang, Việt Nam",
    "lat": "9.88711597",
    "lng": "105.58627175",
    "network": "VNPT",
    "networktype": "GSM/WCDMA",
    "provinceid": "184"
  },
  {
    "id": 2424,
    "text": "Trạm 2424",
    "diachi": "Kênh Chống Mỹ, ấp Thạnh Quới 2, Xã Tân Tiến, Thành phố Vị Thanh, Tỉnh Hậu Giang, Việt Nam",
    "lat": "9.7198345",
    "lng": "105.4126652",
    "network": "VNPT",
    "networktype": "GSM/WCDMA",
    "provinceid": "184"
  },
  {
    "id": 2423,
    "text": "Trạm 2423",
    "diachi": "Đường Phạm Hùng, Ấp Thạnh Hòa 2, Xã Hoả Tiến, Thành phố Vị Thanh, Tỉnh Hậu Giang, Việt Nam",
    "lat": "9.70569265941127",
    "lng": "105.367519593759",
    "network": "FPT",
    "networktype": "GSM",
    "provinceid": "184"
  },
  {
    "id": 2422,
    "text": "Trạm 2422",
    "diachi": "Khu dân cư thị trấn Cái Tắc, ấp Tân Phú A, Thị Trấn Cái Tắc, Huyện Châu Thành A, Tỉnh Hậu Giang, Việt Nam",
    "lat": "9.92543051661828",
    "lng": "105.739023034734",
    "network": "FPT",
    "networktype": "WCDMA",
    "provinceid": "184"
  },
  {
    "id": 2421,
    "text": "Trạm 2421",
    "diachi": "Số 36 đường Thi Sách, khu vực 1, Phường III, Thành phố Vị Thanh, Tỉnh Hậu Giang, Việt Nam",
    "lat": "9.7713306",
    "lng": "105.4758436",
    "network": "FPT",
    "networktype": "GSM/WCDMA",
    "provinceid": "184"
  },
  {
    "id": 2420,
    "text": "Trạm 2420",
    "diachi": "ấp Phú Nhơn, Xã Đông Phú, Huyện Châu Thành, Tỉnh Hậu Giang, Việt Nam",
    "lat": "9.96226719",
    "lng": "105.84770242",
    "network": "MobiFone",
    "networktype": "GSM",
    "provinceid": "184"
  },
  {
    "id": 2419,
    "text": "Trạm 2419",
    "diachi": "Số nhà 36, Quốc lộ 1A, Xã Tân Phú Thạnh, Huyện Châu Thành A, Tỉnh Hậu Giang, Việt Nam",
    "lat": "9.94877811469693",
    "lng": "105.720219678411",
    "network": "MobiFone",
    "networktype": "GSM",
    "provinceid": "184"
  },
  {
    "id": 2418,
    "text": "Trạm 2418",
    "diachi": "số 86 Nguyễn Trãi, Phường IV, Thành phố Vị Thanh, Tỉnh Hậu Giang, Việt Nam",
    "lat": "9.78459161",
    "lng": "105.46528634",
    "network": "MobiFone",
    "networktype": "WCDMA",
    "provinceid": "184"
  },
  {
    "id": 2417,
    "text": "Trạm 2417",
    "diachi": "Số 131, Ấp Mỹ Hiệp 1, Xã Tân Tiến, Thành phố Vị Thanh, Tỉnh Hậu Giang, Việt Nam",
    "lat": "9.71492094628113",
    "lng": "105.426537389304",
    "network": "FPT",
    "networktype": "GSM/WCDMA",
    "provinceid": "184"
  },
  {
    "id": 2416,
    "text": "Trạm 2416",
    "diachi": "Đường Hùng Vương - ấp Mỹ Quới, Thị Trấn Cây Dương, Huyện Phụng Hiệp, Tỉnh Hậu Giang, Việt Nam",
    "lat": "9.78443290298373",
    "lng": "105.733307749641",
    "network": "VNPT",
    "networktype": "GSM",
    "provinceid": "184"
  },
  {
    "id": 2415,
    "text": "Trạm 2415",
    "diachi": "Khu Công nghiệp Tân Phú Thạnh - Giai đoạn 1, Xã Tân Phú Thạnh, Huyện Châu Thành A, Tỉnh Hậu Giang, Việt Nam",
    "lat": "9.94877811469693",
    "lng": "105.720219678411",
    "network": "MobiFone",
    "networktype": "WCDMA",
    "provinceid": "184"
  },
  {
    "id": 2414,
    "text": "Trạm 2414",
    "diachi": "Số 193, khu vực 3, Phường Thuận An, Thị Xã Long Mỹ, Tỉnh Hậu Giang, Việt Nam",
    "lat": "9.610686",
    "lng": "105.596053",
    "network": "MobiFone",
    "networktype": "GSM",
    "provinceid": "184"
  },
  {
    "id": 2413,
    "text": "Trạm 2413",
    "diachi": "Ấp 02, Xã Vị Thuỷ, Huyện Vị Thủy, Tỉnh Hậu Giang, Việt Nam",
    "lat": "9.77532583",
    "lng": "105.49129267",
    "network": "MobiFone",
    "networktype": "GSM",
    "provinceid": "184"
  },
  {
    "id": 2412,
    "text": "Trạm 2412",
    "diachi": "Số 166, ấp 1, Xã Vĩnh Trung, Huyện Vị Thủy, Tỉnh Hậu Giang, Việt Nam",
    "lat": "9.7898174",
    "lng": "105.5612893",
    "network": "FPT",
    "networktype": "GSM/WCDMA",
    "provinceid": "184"
  },
  {
    "id": 2411,
    "text": "Trạm 2411",
    "diachi": "Ấp Mỹ Hưng, Xã Hiệp Hưng, Huyện Phụng Hiệp, Tỉnh Hậu Giang, Việt Nam",
    "lat": "9.76300102789922",
    "lng": "105.743579712892",
    "network": "Viettel",
    "networktype": "GSM/WCDMA",
    "provinceid": "184"
  },
  {
    "id": 2410,
    "text": "Trạm 2410",
    "diachi": "Số 68, Ngô Quyền, Khu vực 2, Phường Lái Hiếu, Thành phố Ngã Bảy, Tỉnh Hậu Giang, Việt Nam",
    "lat": "9.81674759578225",
    "lng": "105.791473409249",
    "network": "FPT",
    "networktype": "WCDMA",
    "provinceid": "184"
  },
  {
    "id": 2409,
    "text": "Trạm 2409",
    "diachi": "Số 209, ấp Tân Hiệp, Xã Tân Bình, Huyện Phụng Hiệp, Tỉnh Hậu Giang, Việt Nam",
    "lat": "9.86501044",
    "lng": "105.6494699",
    "network": "VNPT",
    "networktype": "GSM/WCDMA",
    "provinceid": "184"
  },
  {
    "id": 2408,
    "text": "Trạm 2408",
    "diachi": "Số 186, Xã Long Thạnh, Huyện Phụng Hiệp, Tỉnh Hậu Giang, Việt Nam",
    "lat": "9.88749553620353",
    "lng": "105.762974959185",
    "network": "VNPT",
    "networktype": "WCDMA",
    "provinceid": "184"
  },
  {
    "id": 2407,
    "text": "Trạm 2407",
    "diachi": "Số 7 ấp Phú Lộc, Xã Đông Phú, Huyện Châu Thành, Tỉnh Hậu Giang, Việt Nam",
    "lat": "9.96226719",
    "lng": "105.84770242",
    "network": "FPT",
    "networktype": "WCDMA",
    "provinceid": "184"
  },
  {
    "id": 2406,
    "text": "Trạm 2406",
    "diachi": "Lô 199-200 Chợ Đông Phú, ấp Phú Hưng, Xã Đông Phú, Huyện Châu Thành, Tỉnh Hậu Giang, Việt Nam",
    "lat": "9.96226719",
    "lng": "105.84770242",
    "network": "Viettel",
    "networktype": "WCDMA",
    "provinceid": "184"
  },
  {
    "id": 2405,
    "text": "Trạm 2405",
    "diachi": "Số 46 Nguyễn Huệ, Khu vực 2, Phường Thuận An, Thị Xã Long Mỹ, Tỉnh Hậu Giang, Việt Nam",
    "lat": "9.610686",
    "lng": "105.596053",
    "network": "FPT",
    "networktype": "WCDMA",
    "provinceid": "184"
  },
  {
    "id": 2404,
    "text": "Trạm 2404",
    "diachi": "Lô B15-9, đường số 10, KDC 586, khu vực 4, Phường VII, Thành phố Vị Thanh, Tỉnh Hậu Giang, Việt Nam",
    "lat": "9.75284643168588",
    "lng": "105.416652411533",
    "network": "FPT",
    "networktype": "GSM",
    "provinceid": "184"
  },
  {
    "id": 2403,
    "text": "Trạm 2403",
    "diachi": "Số 70 B Ấp Hòa Long B, Thị Trấn Kinh Cùng, Huyện Phụng Hiệp, Tỉnh Hậu Giang, Việt Nam",
    "lat": "9.80925816024292",
    "lng": "105.632373665658",
    "network": "Viettel",
    "networktype": "GSM",
    "provinceid": "184"
  },
  {
    "id": 2402,
    "text": "Trạm 2402",
    "diachi": "QL 61C, ấp Nhơn Thuận 1, Xã Nhơn Nghĩa A, Huyện Châu Thành A, Tỉnh Hậu Giang, Việt Nam",
    "lat": "9.939767",
    "lng": "105.666212",
    "network": "FPT",
    "networktype": "GSM",
    "provinceid": "184"
  },
  {
    "id": 2401,
    "text": "Trạm 2401",
    "diachi": "Khu vực 6, Phường Ngã Bảy, Thành phố Ngã Bảy, Tỉnh Hậu Giang, Việt Nam",
    "lat": "9.81238",
    "lng": "105.821016",
    "network": "MobiFone",
    "networktype": "WCDMA",
    "provinceid": "184"
  },
  {
    "id": 2400,
    "text": "Trạm 2400",
    "diachi": "ấp 4, Xã Vị Bình, Huyện Vị Thủy, Tỉnh Hậu Giang, Việt Nam",
    "lat": "9.87797831387107",
    "lng": "105.558145467347",
    "network": "FPT",
    "networktype": "GSM/WCDMA",
    "provinceid": "184"
  }
]