[
  {
    "id": 2199,
    "text": "Trạm 2199",
    "diachi": "Ấp Phú Nghĩa, Xã Phú Hữu, Huyện Châu Thành, Tỉnh Hậu Giang, Việt Nam",
    "lat": "9.92207022220285",
    "lng": "105.816683257183",
    "network": "Viettel",
    "networktype": "GSM",
    "provinceid": "330"
  },
  {
    "id": 2198,
    "text": "Trạm 2198",
    "diachi": "Số 70 đường 30/4, ấp 2, Thị Trấn Nàng Mau, Huyện Vị Thủy, Tỉnh Hậu Giang, Việt Nam",
    "lat": "9.75289696332149",
    "lng": "105.531013872001",
    "network": "Viettel",
    "networktype": "GSM/WCDMA",
    "provinceid": "330"
  },
  {
    "id": 2197,
    "text": "Trạm 2197",
    "diachi": "Số 525, ấp 2, Thị Trấn Nàng Mau, Huyện Vị Thủy, Tỉnh Hậu Giang, Việt Nam",
    "lat": "9.75289696332149",
    "lng": "105.531013872001",
    "network": "FPT",
    "networktype": "GSM",
    "provinceid": "330"
  },
  {
    "id": 2196,
    "text": "Trạm 2196",
    "diachi": "Số 779A, đường Hùng Vương, Khu vực 5, Phường Ngã Bảy, Thành phố Ngã Bảy, Tỉnh Hậu Giang, Việt Nam",
    "lat": "9.81238",
    "lng": "105.821016",
    "network": "MobiFone",
    "networktype": "GSM/WCDMA",
    "provinceid": "330"
  },
  {
    "id": 2195,
    "text": "Trạm 2195",
    "diachi": "789, Quốc lộ 1, Thị Trấn Cái Tắc, Huyện Châu Thành A, Tỉnh Hậu Giang, Việt Nam",
    "lat": "9.92543051661828",
    "lng": "105.739023034734",
    "network": "Viettel",
    "networktype": "GSM",
    "provinceid": "330"
  },
  {
    "id": 2194,
    "text": "Trạm 2194",
    "diachi": "Ấp 3, Xã Vị Thanh, Huyện Vị Thủy, Tỉnh Hậu Giang, Việt Nam",
    "lat": "9.84890066754876",
    "lng": "105.561494284281",
    "network": "FPT",
    "networktype": "GSM/WCDMA",
    "provinceid": "330"
  },
  {
    "id": 2193,
    "text": "Trạm 2193",
    "diachi": "13KV1,đường Trần Nam Phú, Phường Hiệp Thành, Thành phố Ngã Bảy, Tỉnh Hậu Giang, Việt Nam",
    "lat": "9.79307290000001",
    "lng": "105.8346654",
    "network": "Viettel",
    "networktype": "WCDMA",
    "provinceid": "330"
  },
  {
    "id": 2192,
    "text": "Trạm 2192",
    "diachi": "Số 63, đường Nguyễn Minh Quang, Phường Ngã Bảy, Thành phố Ngã Bảy, Tỉnh Hậu Giang, Việt Nam",
    "lat": "9.81238",
    "lng": "105.821016",
    "network": "VNPT",
    "networktype": "GSM/WCDMA",
    "provinceid": "330"
  },
  {
    "id": 2191,
    "text": "Trạm 2191",
    "diachi": "Khu vực 4, Phường Hiệp Thành, Thành phố Ngã Bảy, Tỉnh Hậu Giang, Việt Nam",
    "lat": "9.79307290000001",
    "lng": "105.8346654",
    "network": "VNPT",
    "networktype": "GSM/WCDMA",
    "provinceid": "330"
  },
  {
    "id": 2190,
    "text": "Trạm 2190",
    "diachi": "Quốc lộ 1, Phường Hiệp Thành, Thành phố Ngã Bảy, Tỉnh Hậu Giang, Việt Nam",
    "lat": "9.79307290000001",
    "lng": "105.8346654",
    "network": "FPT",
    "networktype": "GSM",
    "provinceid": "330"
  },
  {
    "id": 2189,
    "text": "Trạm 2189",
    "diachi": "Số 257, ấp 1, Thị Trấn Nàng Mau, Huyện Vị Thủy, Tỉnh Hậu Giang, Việt Nam",
    "lat": "9.75289696332149",
    "lng": "105.531013872001",
    "network": "MobiFone",
    "networktype": "GSM/WCDMA",
    "provinceid": "330"
  },
  {
    "id": 2188,
    "text": "Trạm 2188",
    "diachi": "Số 532, ấp 2, Thị Trấn Nàng Mau, Huyện Vị Thủy, Tỉnh Hậu Giang, Việt Nam",
    "lat": "9.75289696332149",
    "lng": "105.531013872001",
    "network": "FPT",
    "networktype": "WCDMA",
    "provinceid": "330"
  },
  {
    "id": 2187,
    "text": "Trạm 2187",
    "diachi": "Số 528 ấp 2, Thị Trấn Nàng Mau, Huyện Vị Thủy, Tỉnh Hậu Giang, Việt Nam",
    "lat": "9.75289696332149",
    "lng": "105.531013872001",
    "network": "VNPT",
    "networktype": "WCDMA",
    "provinceid": "330"
  },
  {
    "id": 2186,
    "text": "Trạm 2186",
    "diachi": "Số 329, ấp 9, Xã Vị Thắng, Huyện Vị Thủy, Tỉnh Hậu Giang, Việt Nam",
    "lat": "9.74708471",
    "lng": "105.54557751",
    "network": "VNPT",
    "networktype": "GSM",
    "provinceid": "330"
  },
  {
    "id": 2185,
    "text": "Trạm 2185",
    "diachi": "ấp 10, Xã Thuận Hưng, Huyện Long Mỹ, Tỉnh Hậu Giang, Việt Nam",
    "lat": "9.66303796212833",
    "lng": "105.522236133056",
    "network": "VNPT",
    "networktype": "WCDMA",
    "provinceid": "330"
  },
  {
    "id": 2184,
    "text": "Trạm 2184",
    "diachi": "Số 105/24, ấp Mỹ 1, Xã Hoả Lựu, Thành phố Vị Thanh, Tỉnh Hậu Giang, Việt Nam",
    "lat": "9.70990836832172",
    "lng": "105.428554135351",
    "network": "Viettel",
    "networktype": "GSM/WCDMA",
    "provinceid": "330"
  },
  {
    "id": 2183,
    "text": "Trạm 2183",
    "diachi": "B15-12, đường số 10, khu dân cư Thương mại 586, kv4, Phường VII, Thành phố Vị Thanh, Tỉnh Hậu Giang, Việt Nam",
    "lat": "9.75284643168588",
    "lng": "105.416652411533",
    "network": "FPT",
    "networktype": "GSM",
    "provinceid": "330"
  },
  {
    "id": 2182,
    "text": "Trạm 2182",
    "diachi": "Cụm Công nghiệp Tập trung Phú Hữu A – Giai đoạn 1, Thị Trấn Mái Dầm, Huyện Châu Thành, Tỉnh Hậu Giang, Việt Nam",
    "lat": "9.94237316146885",
    "lng": "105.866743050384",
    "network": "Viettel",
    "networktype": "GSM/WCDMA",
    "provinceid": "330"
  },
  {
    "id": 2181,
    "text": "Trạm 2181",
    "diachi": "(Gần Cầu Sáu Đèo) ấp 11, Xã Vị Thắng, Huyện Vị Thủy, Tỉnh Hậu Giang, Việt Nam",
    "lat": "9.74708471",
    "lng": "105.54557751",
    "network": "MobiFone",
    "networktype": "GSM/WCDMA",
    "provinceid": "330"
  },
  {
    "id": 2180,
    "text": "Trạm 2180",
    "diachi": "Ấp 01, Xã Hoà An, Huyện Phụng Hiệp, Tỉnh Hậu Giang, Việt Nam",
    "lat": "9.7692567",
    "lng": "105.629523",
    "network": "Viettel",
    "networktype": "GSM/WCDMA",
    "provinceid": "330"
  },
  {
    "id": 2179,
    "text": "Trạm 2179",
    "diachi": "Số 819B Trần Hưng Đạo, khu vực 4, Phường VII, Thành phố Vị Thanh, Tỉnh Hậu Giang, Việt Nam",
    "lat": "9.75284643168588",
    "lng": "105.416652411533",
    "network": "FPT",
    "networktype": "GSM/WCDMA",
    "provinceid": "330"
  },
  {
    "id": 2178,
    "text": "Trạm 2178",
    "diachi": "Đường Bùi Thị Xuân, khu vực 1, Phường III, Thành phố Vị Thanh, Tỉnh Hậu Giang, Việt Nam",
    "lat": "9.7713306",
    "lng": "105.4758436",
    "network": "VNPT",
    "networktype": "WCDMA",
    "provinceid": "330"
  },
  {
    "id": 2177,
    "text": "Trạm 2177",
    "diachi": "Số 104, ấp Tân Thành, Thị Trấn Búng Tàu, Huyện Phụng Hiệp, Tỉnh Hậu Giang, Việt Nam",
    "lat": "9.71772973258043",
    "lng": "105.757155118153",
    "network": "MobiFone",
    "networktype": "WCDMA",
    "provinceid": "330"
  },
  {
    "id": 2176,
    "text": "Trạm 2176",
    "diachi": "Ấp Phú Xuân, Thị Trấn Mái Dầm, Huyện Châu Thành, Tỉnh Hậu Giang, Việt Nam",
    "lat": "9.94237316146885",
    "lng": "105.866743050384",
    "network": "MobiFone",
    "networktype": "GSM/WCDMA",
    "provinceid": "330"
  },
  {
    "id": 2175,
    "text": "Trạm 2175",
    "diachi": "Ấp 6, Xã Thuận Hưng, Huyện Long Mỹ, Tỉnh Hậu Giang, Việt Nam",
    "lat": "9.66303796212833",
    "lng": "105.522236133056",
    "network": "Viettel",
    "networktype": "WCDMA",
    "provinceid": "330"
  },
  {
    "id": 2174,
    "text": "Trạm 2174",
    "diachi": "Ấp 2, Xã Vị Đông, Huyện Vị Thủy, Tỉnh Hậu Giang, Việt Nam",
    "lat": "9.82660639034749",
    "lng": "105.503659601317",
    "network": "VNPT",
    "networktype": "WCDMA",
    "provinceid": "330"
  },
  {
    "id": 2173,
    "text": "Trạm 2173",
    "diachi": "Số 790, Hùng Vương, khu vực 3, Phường Ngã Bảy, Thành phố Ngã Bảy, Tỉnh Hậu Giang, Việt Nam",
    "lat": "9.81238",
    "lng": "105.821016",
    "network": "MobiFone",
    "networktype": "WCDMA",
    "provinceid": "330"
  },
  {
    "id": 2172,
    "text": "Trạm 2172",
    "diachi": "Số 80, Nguyễn Thái Học, Phường I, Thành phố Vị Thanh, Tỉnh Hậu Giang, Việt Nam",
    "lat": "9.78459161",
    "lng": "105.46528634",
    "network": "FPT",
    "networktype": "GSM/WCDMA",
    "provinceid": "330"
  },
  {
    "id": 2171,
    "text": "Trạm 2171",
    "diachi": "ấp Mỹ Quới, Thị Trấn Cây Dương, Huyện Phụng Hiệp, Tỉnh Hậu Giang, Việt Nam",
    "lat": "9.78443290298373",
    "lng": "105.733307749641",
    "network": "Viettel",
    "networktype": "GSM",
    "provinceid": "330"
  },
  {
    "id": 2170,
    "text": "Trạm 2170",
    "diachi": "Số 10, đường 1/5, Phường Hiệp Thành, Thành phố Ngã Bảy, Tỉnh Hậu Giang, Việt Nam",
    "lat": "9.79307290000001",
    "lng": "105.8346654",
    "network": "MobiFone",
    "networktype": "GSM",
    "provinceid": "330"
  },
  {
    "id": 2169,
    "text": "Trạm 2169",
    "diachi": "Đường 3/2, ấp Xẻo Vông, Phường Hiệp Lợi, Thành phố Ngã Bảy, Tỉnh Hậu Giang, Việt Nam",
    "lat": "9.83834984425867",
    "lng": "105.789417007205",
    "network": "FPT",
    "networktype": "WCDMA",
    "provinceid": "330"
  },
  {
    "id": 2168,
    "text": "Trạm 2168",
    "diachi": "Số 47 ấp Phú Hưng, Xã Phú An, Huyện Châu Thành, Tỉnh Hậu Giang, Việt Nam",
    "lat": "9.94742181617828",
    "lng": "105.794352825896",
    "network": "VNPT",
    "networktype": "GSM",
    "provinceid": "330"
  },
  {
    "id": 2167,
    "text": "Trạm 2167",
    "diachi": "Ấp Phú Nghĩa, Xã Phú Hữu, Huyện Châu Thành, Tỉnh Hậu Giang, Việt Nam",
    "lat": "9.92207022220285",
    "lng": "105.816683257183",
    "network": "FPT",
    "networktype": "GSM/WCDMA",
    "provinceid": "330"
  },
  {
    "id": 2166,
    "text": "Trạm 2166",
    "diachi": "PG3-11, khu Vincom, đường 3/2 khu vực 3, Phường V, Thành phố Vị Thanh, Tỉnh Hậu Giang, Việt Nam",
    "lat": "9.78180487",
    "lng": "105.46677087",
    "network": "VNPT",
    "networktype": "WCDMA",
    "provinceid": "330"
  },
  {
    "id": 2165,
    "text": "Trạm 2165",
    "diachi": "Số nhà 456, ấp Đông An A, Xã Đại Thành, Thành phố Ngã Bảy, Tỉnh Hậu Giang, Việt Nam",
    "lat": "9.83110347688112",
    "lng": "105.821335705071",
    "network": "FPT",
    "networktype": "GSM/WCDMA",
    "provinceid": "330"
  },
  {
    "id": 2164,
    "text": "Trạm 2164",
    "diachi": "Quốc lộ 1A, ấp Phú Lợi, Xã Tân Phú Thạnh, Huyện Châu Thành A, Tỉnh Hậu Giang, Việt Nam",
    "lat": "9.94877811469693",
    "lng": "105.720219678411",
    "network": "MobiFone",
    "networktype": "WCDMA",
    "provinceid": "330"
  },
  {
    "id": 2163,
    "text": "Trạm 2163",
    "diachi": "Ấp Phước Long, Xã Đông Phước A, Huyện Châu Thành, Tỉnh Hậu Giang, Việt Nam",
    "lat": "9.931471",
    "lng": "105.774554",
    "network": "Viettel",
    "networktype": "GSM/WCDMA",
    "provinceid": "330"
  },
  {
    "id": 2162,
    "text": "Trạm 2162",
    "diachi": "KDC Hồng Trung, ấp 1, Thị Trấn Nàng Mau, Huyện Vị Thủy, Tỉnh Hậu Giang, Việt Nam",
    "lat": "9.75289696332149",
    "lng": "105.531013872001",
    "network": "MobiFone",
    "networktype": "GSM",
    "provinceid": "330"
  },
  {
    "id": 2161,
    "text": "Trạm 2161",
    "diachi": "Số 02, Hải Thượng Lãn Ông, khu vực 1, Phường I, Thành phố Vị Thanh, Tỉnh Hậu Giang, Việt Nam",
    "lat": "9.78459161",
    "lng": "105.46528634",
    "network": "VNPT",
    "networktype": "GSM",
    "provinceid": "330"
  },
  {
    "id": 2160,
    "text": "Trạm 2160",
    "diachi": "ấp Bình Thuận, Xã Long Bình, Thị Xã Long Mỹ, Tỉnh Hậu Giang, Việt Nam",
    "lat": "9.610686",
    "lng": "105.596053",
    "network": "MobiFone",
    "networktype": "GSM",
    "provinceid": "330"
  },
  {
    "id": 2159,
    "text": "Trạm 2159",
    "diachi": "Ấp Sơn Phú 2A, Xã Tân Thành, Thành phố Ngã Bảy, Tỉnh Hậu Giang, Việt Nam",
    "lat": "9.86323381349434",
    "lng": "105.837833695447",
    "network": "FPT",
    "networktype": "WCDMA",
    "provinceid": "330"
  },
  {
    "id": 2158,
    "text": "Trạm 2158",
    "diachi": "Số 77, ấp Phú Trí A, Xã Phú Tân, Huyện Châu Thành, Tỉnh Hậu Giang, Việt Nam",
    "lat": "9.89686209714572",
    "lng": "105.858571199961",
    "network": "VNPT",
    "networktype": "GSM/WCDMA",
    "provinceid": "330"
  },
  {
    "id": 2157,
    "text": "Trạm 2157",
    "diachi": "Ấp 4, Thị Trấn Nàng Mau, Huyện Vị Thủy, Tỉnh Hậu Giang, Việt Nam",
    "lat": "9.75289696332149",
    "lng": "105.531013872001",
    "network": "FPT",
    "networktype": "GSM",
    "provinceid": "330"
  },
  {
    "id": 2156,
    "text": "Trạm 2156",
    "diachi": "Số 50, ấp 4, Xã Vị Thuỷ, Huyện Vị Thủy, Tỉnh Hậu Giang, Việt Nam",
    "lat": "9.77532583",
    "lng": "105.49129267",
    "network": "Viettel",
    "networktype": "GSM",
    "provinceid": "330"
  },
  {
    "id": 2155,
    "text": "Trạm 2155",
    "diachi": "Số 22, ấp 3, Xã Vĩnh Thuận Tây, Huyện Vị Thủy, Tỉnh Hậu Giang, Việt Nam",
    "lat": "9.71880346",
    "lng": "105.4585849",
    "network": "FPT",
    "networktype": "GSM",
    "provinceid": "330"
  },
  {
    "id": 2154,
    "text": "Trạm 2154",
    "diachi": "ấp Tân Hiệp, Xã Tân Bình, Huyện Phụng Hiệp, Tỉnh Hậu Giang, Việt Nam",
    "lat": "9.86501044",
    "lng": "105.6494699",
    "network": "VNPT",
    "networktype": "GSM/WCDMA",
    "provinceid": "330"
  },
  {
    "id": 2153,
    "text": "Trạm 2153",
    "diachi": "Ấp 4, Xã Vĩnh Thuận Đông, Huyện Long Mỹ, Tỉnh Hậu Giang, Việt Nam",
    "lat": "9.69781642587371",
    "lng": "105.521878100793",
    "network": "VNPT",
    "networktype": "GSM/WCDMA",
    "provinceid": "330"
  },
  {
    "id": 2152,
    "text": "Trạm 2152",
    "diachi": "Số 121, ấp Phó Đường, Xã Tân Phước Hưng, Huyện Phụng Hiệp, Tỉnh Hậu Giang, Việt Nam",
    "lat": "9.75300341168374",
    "lng": "105.804128077245",
    "network": "Viettel",
    "networktype": "WCDMA",
    "provinceid": "330"
  },
  {
    "id": 2151,
    "text": "Trạm 2151",
    "diachi": "Tỉnh lộ 931, ấp 2A, Thị Trấn Bảy Ngàn, Huyện Châu Thành A, Tỉnh Hậu Giang, Việt Nam",
    "lat": "9.88711597",
    "lng": "105.58627175",
    "network": "FPT",
    "networktype": "WCDMA",
    "provinceid": "330"
  },
  {
    "id": 2150,
    "text": "Trạm 2150",
    "diachi": "Đại lộ Võ Nguyên Giáp, ấp 7, Xã Vị Trung, Huyện Vị Thủy, Tỉnh Hậu Giang, Việt Nam",
    "lat": "9.78075251741463",
    "lng": "105.532354389024",
    "network": "FPT",
    "networktype": "WCDMA",
    "provinceid": "330"
  },
  {
    "id": 2149,
    "text": "Trạm 2149",
    "diachi": "khu vực 1, Phường III, Thành phố Vị Thanh, Tỉnh Hậu Giang, Việt Nam",
    "lat": "9.7713306",
    "lng": "105.4758436",
    "network": "VNPT",
    "networktype": "WCDMA",
    "provinceid": "330"
  },
  {
    "id": 2148,
    "text": "Trạm 2148",
    "diachi": "ấp Phú Lợi, Xã Tân Phú Thạnh, Huyện Châu Thành A, Tỉnh Hậu Giang, Việt Nam",
    "lat": "9.94877811469693",
    "lng": "105.720219678411",
    "network": "FPT",
    "networktype": "GSM",
    "provinceid": "330"
  },
  {
    "id": 2147,
    "text": "Trạm 2147",
    "diachi": "Số 09, đường Lê Lợi, khu vực 1, Phường Ngã Bảy, Thành phố Ngã Bảy, Tỉnh Hậu Giang, Việt Nam",
    "lat": "9.81238",
    "lng": "105.821016",
    "network": "MobiFone",
    "networktype": "GSM",
    "provinceid": "330"
  },
  {
    "id": 2146,
    "text": "Trạm 2146",
    "diachi": "ấp Nhì, Xã Thạnh Hoà, Huyện Phụng Hiệp, Tỉnh Hậu Giang, Việt Nam",
    "lat": "9.897208",
    "lng": "105.668311",
    "network": "Viettel",
    "networktype": "WCDMA",
    "provinceid": "330"
  },
  {
    "id": 2145,
    "text": "Trạm 2145",
    "diachi": "KCN Tân Phú Thạnh - giai đoạn 1, ấp Phú Lợi, Xã Tân Phú Thạnh, Huyện Châu Thành A, Tỉnh Hậu Giang, Việt Nam",
    "lat": "9.94877811469693",
    "lng": "105.720219678411",
    "network": "FPT",
    "networktype": "GSM",
    "provinceid": "330"
  },
  {
    "id": 2144,
    "text": "Trạm 2144",
    "diachi": "Ấp Phú Xuân, Thị Trấn Mái Dầm, Huyện Châu Thành, Tỉnh Hậu Giang, Việt Nam",
    "lat": "9.94237316146885",
    "lng": "105.866743050384",
    "network": "FPT",
    "networktype": "GSM",
    "provinceid": "330"
  },
  {
    "id": 2143,
    "text": "Trạm 2143",
    "diachi": "Cụm công nghiệp tập trung Phú Hữu A - giai đoạn 3, Thị Trấn Mái Dầm, Huyện Châu Thành, Tỉnh Hậu Giang, Việt Nam",
    "lat": "9.94237316146885",
    "lng": "105.866743050384",
    "network": "VNPT",
    "networktype": "WCDMA",
    "provinceid": "330"
  },
  {
    "id": 2142,
    "text": "Trạm 2142",
    "diachi": "Số nhà 347, ấp Ba Ngàn, Xã Đại Thành, Thành phố Ngã Bảy, Tỉnh Hậu Giang, Việt Nam",
    "lat": "9.83110347688112",
    "lng": "105.821335705071",
    "network": "VNPT",
    "networktype": "WCDMA",
    "provinceid": "330"
  },
  {
    "id": 2141,
    "text": "Trạm 2141",
    "diachi": "Số 665 đường Trần Hưng Đạo, Phường III, Thành phố Vị Thanh, Tỉnh Hậu Giang, Việt Nam",
    "lat": "9.7713306",
    "lng": "105.4758436",
    "network": "FPT",
    "networktype": "GSM/WCDMA",
    "provinceid": "330"
  },
  {
    "id": 2140,
    "text": "Trạm 2140",
    "diachi": "Số 388, Khu vực Thạnh Hiếu, Phường Bình Thạnh, Thị Xã Long Mỹ, Tỉnh Hậu Giang, Việt Nam",
    "lat": "9.610686",
    "lng": "105.596053",
    "network": "MobiFone",
    "networktype": "WCDMA",
    "provinceid": "330"
  },
  {
    "id": 2139,
    "text": "Trạm 2139",
    "diachi": "Số 130, 132 ấp 01, Thị Trấn Nàng Mau, Huyện Vị Thủy, Tỉnh Hậu Giang, Việt Nam",
    "lat": "9.75289696332149",
    "lng": "105.531013872001",
    "network": "VNPT",
    "networktype": "GSM/WCDMA",
    "provinceid": "330"
  },
  {
    "id": 2138,
    "text": "Trạm 2138",
    "diachi": "Số 88 Nguyễn Minh Khai, khu vực III, Phường Ngã Bảy, Thành phố Ngã Bảy, Tỉnh Hậu Giang, Việt Nam",
    "lat": "9.81238",
    "lng": "105.821016",
    "network": "VNPT",
    "networktype": "WCDMA",
    "provinceid": "330"
  },
  {
    "id": 2137,
    "text": "Trạm 2137",
    "diachi": "Khu vực 4, Phường Hiệp Thành, Thành phố Ngã Bảy, Tỉnh Hậu Giang, Việt Nam",
    "lat": "9.79307290000001",
    "lng": "105.8346654",
    "network": "MobiFone",
    "networktype": "WCDMA",
    "provinceid": "330"
  },
  {
    "id": 2136,
    "text": "Trạm 2136",
    "diachi": "Ấp Phú Lợi, đường số 02, khu TĐC - DC Cụm Công nghiệp Tân Phú Thạnh, Xã Tân Phú Thạnh, Huyện Châu Thành A, Tỉnh Hậu Giang, Việt Nam",
    "lat": "9.94877811469693",
    "lng": "105.720219678411",
    "network": "VNPT",
    "networktype": "GSM/WCDMA",
    "provinceid": "330"
  },
  {
    "id": 2135,
    "text": "Trạm 2135",
    "diachi": "84, ấp 3, Xã Xà Phiên, Huyện Long Mỹ, Tỉnh Hậu Giang, Việt Nam",
    "lat": "9.61883623112294",
    "lng": "105.506068713636",
    "network": "VNPT",
    "networktype": "GSM/WCDMA",
    "provinceid": "330"
  },
  {
    "id": 2134,
    "text": "Trạm 2134",
    "diachi": "Ấp Phú Hòa, Xã Đông Phú, Huyện Châu Thành, Tỉnh Hậu Giang, Việt Nam",
    "lat": "9.96226719",
    "lng": "105.84770242",
    "network": "FPT",
    "networktype": "GSM/WCDMA",
    "provinceid": "330"
  },
  {
    "id": 2133,
    "text": "Trạm 2133",
    "diachi": "ấp Đông Thuận, Xã Đông Thạnh, Huyện Châu Thành, Tỉnh Hậu Giang, Việt Nam",
    "lat": "9.94649792351409",
    "lng": "105.75264067964",
    "network": "Viettel",
    "networktype": "WCDMA",
    "provinceid": "330"
  },
  {
    "id": 2132,
    "text": "Trạm 2132",
    "diachi": "41G Khu dân cư Vượt lũ, ấp Thị Trấn, Thị Trấn Ngã Sáu, Huyện Châu Thành, Tỉnh Hậu Giang, Việt Nam",
    "lat": "9.91964099687914",
    "lng": "105.805687746643",
    "network": "FPT",
    "networktype": "GSM",
    "provinceid": "330"
  },
  {
    "id": 2131,
    "text": "Trạm 2131",
    "diachi": "ấp Thạnh Thuận, Xã Đông Thạnh, Huyện Châu Thành, Tỉnh Hậu Giang, Việt Nam",
    "lat": "9.94649792351409",
    "lng": "105.75264067964",
    "network": "FPT",
    "networktype": "GSM/WCDMA",
    "provinceid": "330"
  },
  {
    "id": 2130,
    "text": "Trạm 2130",
    "diachi": "Ấp Phú Xuân A, Thị Trấn Mái Dầm, Huyện Châu Thành, Tỉnh Hậu Giang, Việt Nam",
    "lat": "9.94237316146885",
    "lng": "105.866743050384",
    "network": "VNPT",
    "networktype": "GSM/WCDMA",
    "provinceid": "330"
  },
  {
    "id": 2129,
    "text": "Trạm 2129",
    "diachi": "Tỉnh lộ 927, ấp 1, Xã Hoà An, Huyện Phụng Hiệp, Tỉnh Hậu Giang, Việt Nam",
    "lat": "9.78426754820691",
    "lng": "105.624568110319",
    "network": "Viettel",
    "networktype": "GSM/WCDMA",
    "provinceid": "330"
  },
  {
    "id": 2128,
    "text": "Trạm 2128",
    "diachi": "Khu vực 2, Phường VII, Thành phố Vị Thanh, Tỉnh Hậu Giang, Việt Nam",
    "lat": "9.75284643168588",
    "lng": "105.416652411533",
    "network": "VNPT",
    "networktype": "WCDMA",
    "provinceid": "330"
  },
  {
    "id": 2127,
    "text": "Trạm 2127",
    "diachi": "Số 003, ấp Thới Long, Xã Đông Thạnh, Huyện Châu Thành, Tỉnh Hậu Giang, Việt Nam",
    "lat": "9.94649792351409",
    "lng": "105.75264067964",
    "network": "VNPT",
    "networktype": "GSM",
    "provinceid": "330"
  },
  {
    "id": 2126,
    "text": "Trạm 2126",
    "diachi": "Quốc lộ 1, ấp Thạnh Lợi A2, Xã Tân Long, Huyện Phụng Hiệp, Tỉnh Hậu Giang, Việt Nam",
    "lat": "9.876654",
    "lng": "105.769342",
    "network": "VNPT",
    "networktype": "GSM",
    "provinceid": "330"
  },
  {
    "id": 2125,
    "text": "Trạm 2125",
    "diachi": "Số 43 Lê Thị Hồng Gấm, khu vực 3, Phường IV, Thành phố Vị Thanh, Tỉnh Hậu Giang, Việt Nam",
    "lat": "9.78459161",
    "lng": "105.46528634",
    "network": "VNPT",
    "networktype": "WCDMA",
    "provinceid": "330"
  },
  {
    "id": 2124,
    "text": "Trạm 2124",
    "diachi": "Số 135, ấp Thạnh Phú, Xã Hoả Lựu, Thành phố Vị Thanh, Tỉnh Hậu Giang, Việt Nam",
    "lat": "9.70990836832172",
    "lng": "105.428554135351",
    "network": "Viettel",
    "networktype": "GSM",
    "provinceid": "330"
  },
  {
    "id": 2123,
    "text": "Trạm 2123",
    "diachi": "Số 07, Võ Nguyên Giáp, Khu vực 2, Phường V, Thành phố Vị Thanh, Tỉnh Hậu Giang, Việt Nam",
    "lat": "9.78180487",
    "lng": "105.46677087",
    "network": "MobiFone",
    "networktype": "WCDMA",
    "provinceid": "330"
  },
  {
    "id": 2122,
    "text": "Trạm 2122",
    "diachi": "Đường số 4 (K3-14), khu vực 1, Phường III, Thành phố Vị Thanh, Tỉnh Hậu Giang, Việt Nam",
    "lat": "9.7713306",
    "lng": "105.4758436",
    "network": "VNPT",
    "networktype": "GSM/WCDMA",
    "provinceid": "330"
  },
  {
    "id": 2121,
    "text": "Trạm 2121",
    "diachi": "88 QL1, Xã Tân Phú Thạnh, Huyện Châu Thành A, Tỉnh Hậu Giang, Việt Nam",
    "lat": "9.94877811469693",
    "lng": "105.720219678411",
    "network": "VNPT",
    "networktype": "GSM",
    "provinceid": "330"
  },
  {
    "id": 2120,
    "text": "Trạm 2120",
    "diachi": "ấp Phú Nghĩa, Xã Phú Hữu, Huyện Châu Thành, Tỉnh Hậu Giang, Việt Nam",
    "lat": "9.92207022220285",
    "lng": "105.816683257183",
    "network": "FPT",
    "networktype": "WCDMA",
    "provinceid": "330"
  },
  {
    "id": 2119,
    "text": "Trạm 2119",
    "diachi": "ấp Khánh Hội B, Xã Đông Thạnh, Huyện Châu Thành, Tỉnh Hậu Giang, Việt Nam",
    "lat": "9.94649792351409",
    "lng": "105.75264067964",
    "network": "MobiFone",
    "networktype": "GSM/WCDMA",
    "provinceid": "330"
  },
  {
    "id": 2118,
    "text": "Trạm 2118",
    "diachi": "Tỉnh lộ 91/30B, ấp 10, Xã Lương Nghĩa, Huyện Long Mỹ, Tỉnh Hậu Giang, Việt Nam",
    "lat": "9.61833983432959",
    "lng": "105.406998015966",
    "network": "FPT",
    "networktype": "GSM/WCDMA",
    "provinceid": "330"
  },
  {
    "id": 2117,
    "text": "Trạm 2117",
    "diachi": "Số 117, Ấp Trường Bình, Xã Trường Long A, Huyện Châu Thành A, Tỉnh Hậu Giang, Việt Nam",
    "lat": "9.947124",
    "lng": "105.615617",
    "network": "FPT",
    "networktype": "GSM",
    "provinceid": "330"
  },
  {
    "id": 2116,
    "text": "Trạm 2116",
    "diachi": "Số 879 Hùng Vương, Phường Ngã Bảy, Thành phố Ngã Bảy, Tỉnh Hậu Giang, Việt Nam",
    "lat": "9.81238",
    "lng": "105.821016",
    "network": "VNPT",
    "networktype": "GSM",
    "provinceid": "330"
  },
  {
    "id": 2115,
    "text": "Trạm 2115",
    "diachi": "Số 01, Ngô Quyền, KV2, Phường Lái Hiếu, Thành phố Ngã Bảy, Tỉnh Hậu Giang, Việt Nam",
    "lat": "9.81674759578225",
    "lng": "105.791473409249",
    "network": "MobiFone",
    "networktype": "GSM/WCDMA",
    "provinceid": "330"
  },
  {
    "id": 2114,
    "text": "Trạm 2114",
    "diachi": "Tỉnh lộ 925, ấp Thạnh Thuận, Xã Đông Thạnh, Huyện Châu Thành, Tỉnh Hậu Giang, Việt Nam",
    "lat": "9.94649792351409",
    "lng": "105.75264067964",
    "network": "MobiFone",
    "networktype": "GSM/WCDMA",
    "provinceid": "330"
  },
  {
    "id": 2113,
    "text": "Trạm 2113",
    "diachi": "Khánh Hội B, Thị Trấn Ngã Sáu, Huyện Châu Thành, Tỉnh Hậu Giang, Việt Nam",
    "lat": "9.91964099687914",
    "lng": "105.805687746643",
    "network": "VNPT",
    "networktype": "WCDMA",
    "provinceid": "330"
  },
  {
    "id": 2112,
    "text": "Trạm 2112",
    "diachi": "Ấp Tân Phú A, Thị Trấn Cái Tắc, Huyện Châu Thành A, Tỉnh Hậu Giang, Việt Nam",
    "lat": "9.92543051661828",
    "lng": "105.739023034734",
    "network": "Viettel",
    "networktype": "GSM/WCDMA",
    "provinceid": "330"
  },
  {
    "id": 2111,
    "text": "Trạm 2111",
    "diachi": "Số 110, Xã Trường Long A, Huyện Châu Thành A, Tỉnh Hậu Giang, Việt Nam",
    "lat": "9.947124",
    "lng": "105.615617",
    "network": "Viettel",
    "networktype": "GSM",
    "provinceid": "330"
  },
  {
    "id": 2110,
    "text": "Trạm 2110",
    "diachi": "Số 13, Lý Tự Trọng, khu vực 1, Phường III, Thành phố Vị Thanh, Tỉnh Hậu Giang, Việt Nam",
    "lat": "9.7713306",
    "lng": "105.4758436",
    "network": "Viettel",
    "networktype": "GSM/WCDMA",
    "provinceid": "330"
  },
  {
    "id": 2109,
    "text": "Trạm 2109",
    "diachi": "Số 729, đường Trần Hưng Đạo, khu vực 4, Phường VII, Thành phố Vị Thanh, Tỉnh Hậu Giang, Việt Nam",
    "lat": "9.75284643168588",
    "lng": "105.416652411533",
    "network": "Viettel",
    "networktype": "WCDMA",
    "provinceid": "330"
  },
  {
    "id": 2108,
    "text": "Trạm 2108",
    "diachi": "Đường tỉnh 930, ấp 8, Xã Thuận Hưng, Huyện Long Mỹ, Tỉnh Hậu Giang, Việt Nam",
    "lat": "9.66303796212833",
    "lng": "105.522236133056",
    "network": "Viettel",
    "networktype": "GSM/WCDMA",
    "provinceid": "330"
  },
  {
    "id": 2107,
    "text": "Trạm 2107",
    "diachi": "Số 107, ấp Mỹ Thành, Xã Hoà Mỹ, Huyện Phụng Hiệp, Tỉnh Hậu Giang, Việt Nam",
    "lat": "9.79464682389481",
    "lng": "105.706536698554",
    "network": "Viettel",
    "networktype": "WCDMA",
    "provinceid": "330"
  },
  {
    "id": 2106,
    "text": "Trạm 2106",
    "diachi": "Số 209, ấp Tân Hiệp, Xã Tân Bình, Huyện Phụng Hiệp, Tỉnh Hậu Giang, Việt Nam",
    "lat": "9.86501044",
    "lng": "105.6494699",
    "network": "VNPT",
    "networktype": "GSM",
    "provinceid": "330"
  },
  {
    "id": 2105,
    "text": "Trạm 2105",
    "diachi": "Số 162, ấp Phú Mỹ, Xã Tân Phước Hưng, Huyện Phụng Hiệp, Tỉnh Hậu Giang, Việt Nam",
    "lat": "9.75300341168374",
    "lng": "105.804128077245",
    "network": "MobiFone",
    "networktype": "GSM/WCDMA",
    "provinceid": "330"
  },
  {
    "id": 2104,
    "text": "Trạm 2104",
    "diachi": "Ấp 2A, Xã Tân Hòa, Huyện Châu Thành A, Tỉnh Hậu Giang, Việt Nam",
    "lat": "9.9227375",
    "lng": "105.6411604",
    "network": "FPT",
    "networktype": "WCDMA",
    "provinceid": "330"
  },
  {
    "id": 2103,
    "text": "Trạm 2103",
    "diachi": "Đường Hùng Vương, Khu vực 4, Phường V, Thành phố Vị Thanh, Tỉnh Hậu Giang, Việt Nam",
    "lat": "9.78180487",
    "lng": "105.46677087",
    "network": "VNPT",
    "networktype": "GSM",
    "provinceid": "330"
  },
  {
    "id": 2102,
    "text": "Trạm 2102",
    "diachi": "Tỉnh lộ 932 ấp 3, Xã Vị Đông, Huyện Vị Thủy, Tỉnh Hậu Giang, Việt Nam",
    "lat": "9.82660639034749",
    "lng": "105.503659601317",
    "network": "VNPT",
    "networktype": "GSM/WCDMA",
    "provinceid": "330"
  },
  {
    "id": 2101,
    "text": "Trạm 2101",
    "diachi": "Số 68 ấp 10, Xã Vị Trung, Huyện Vị Thủy, Tỉnh Hậu Giang, Việt Nam",
    "lat": "9.78075251741463",
    "lng": "105.532354389024",
    "network": "MobiFone",
    "networktype": "WCDMA",
    "provinceid": "330"
  },
  {
    "id": 2100,
    "text": "Trạm 2100",
    "diachi": "ấp Tân Phú A, Thị Trấn Cái Tắc, Huyện Châu Thành A, Tỉnh Hậu Giang, Việt Nam",
    "lat": "9.92543051661828",
    "lng": "105.739023034734",
    "network": "Viettel",
    "networktype": "WCDMA",
    "provinceid": "330"
  },
  {
    "id": 2099,
    "text": "Trạm 2099",
    "diachi": "Số 693A, đường Hùng Vương, khu vực 5, Phường Ngã Bảy, Thành phố Ngã Bảy, Tỉnh Hậu Giang, Việt Nam",
    "lat": "9.81238",
    "lng": "105.821016",
    "network": "MobiFone",
    "networktype": "GSM",
    "provinceid": "330"
  },
  {
    "id": 2098,
    "text": "Trạm 2098",
    "diachi": "160, Ấp Phú Lợi A, Xã Phú Hữu, Huyện Châu Thành, Tỉnh Hậu Giang, Việt Nam",
    "lat": "9.92207022220285",
    "lng": "105.816683257183",
    "network": "VNPT",
    "networktype": "GSM",
    "provinceid": "330"
  },
  {
    "id": 2097,
    "text": "Trạm 2097",
    "diachi": "Số 39A,Nguyễn Thị Minh Khai, khu vực 3, Phường IV, Thành phố Vị Thanh, Tỉnh Hậu Giang, Việt Nam",
    "lat": "9.78459161",
    "lng": "105.46528634",
    "network": "Viettel",
    "networktype": "WCDMA",
    "provinceid": "330"
  },
  {
    "id": 2096,
    "text": "Trạm 2096",
    "diachi": "Số 249, Trần Hưng Đạo, Khu vực 1, Phường VII, Thành phố Vị Thanh, Tỉnh Hậu Giang, Việt Nam",
    "lat": "9.75284643168588",
    "lng": "105.416652411533",
    "network": "Viettel",
    "networktype": "GSM/WCDMA",
    "provinceid": "330"
  },
  {
    "id": 2095,
    "text": "Trạm 2095",
    "diachi": "Số 119, Tỉnh lộ 928, Xã Hiệp Hưng, Huyện Phụng Hiệp, Tỉnh Hậu Giang, Việt Nam",
    "lat": "9.76300102789922",
    "lng": "105.743579712892",
    "network": "FPT",
    "networktype": "GSM/WCDMA",
    "provinceid": "330"
  },
  {
    "id": 2094,
    "text": "Trạm 2094",
    "diachi": "Số 27 Đường Ngô Quốc Trị, Khu vực 3 , Phường V, Thành phố Vị Thanh, Tỉnh Hậu Giang, Việt Nam",
    "lat": "9.78180487",
    "lng": "105.46677087",
    "network": "FPT",
    "networktype": "GSM",
    "provinceid": "330"
  },
  {
    "id": 2093,
    "text": "Trạm 2093",
    "diachi": "Số 15, ấp Nhất, Xã Thạnh Hoà, Huyện Phụng Hiệp, Tỉnh Hậu Giang, Việt Nam",
    "lat": "9.897208",
    "lng": "105.668311",
    "network": "VNPT",
    "networktype": "GSM",
    "provinceid": "330"
  },
  {
    "id": 2092,
    "text": "Trạm 2092",
    "diachi": "Số 286/8 đường Nguyễn Trung Trực, Khu vực 2, Phường Lái Hiếu, Thành phố Ngã Bảy, Tỉnh Hậu Giang, Việt Nam",
    "lat": "9.81674759578225",
    "lng": "105.791473409249",
    "network": "MobiFone",
    "networktype": "GSM",
    "provinceid": "330"
  },
  {
    "id": 2091,
    "text": "Trạm 2091",
    "diachi": "số 173 ấp 01, Thị Trấn Nàng Mau, Huyện Vị Thủy, Tỉnh Hậu Giang, Việt Nam",
    "lat": "9.75289696332149",
    "lng": "105.531013872001",
    "network": "MobiFone",
    "networktype": "WCDMA",
    "provinceid": "330"
  },
  {
    "id": 2090,
    "text": "Trạm 2090",
    "diachi": "Ấp Trường Bình A, Xã Trường Long A, Huyện Châu Thành A, Tỉnh Hậu Giang, Việt Nam",
    "lat": "9.947124",
    "lng": "105.615617",
    "network": "Viettel",
    "networktype": "GSM",
    "provinceid": "330"
  },
  {
    "id": 2089,
    "text": "Trạm 2089",
    "diachi": "số 09 Quốc lộ 61, ấp Tầm Vu, Xã Thạnh Hoà, Huyện Phụng Hiệp, Tỉnh Hậu Giang, Việt Nam",
    "lat": "9.897208",
    "lng": "105.668311",
    "network": "MobiFone",
    "networktype": "GSM/WCDMA",
    "provinceid": "330"
  },
  {
    "id": 2088,
    "text": "Trạm 2088",
    "diachi": "Số 08 Phương Qưới C, Xã Phương Bình, Huyện Phụng Hiệp, Tỉnh Hậu Giang, Việt Nam",
    "lat": "9.741598",
    "lng": "105.647489",
    "network": "VNPT",
    "networktype": "WCDMA",
    "provinceid": "330"
  },
  {
    "id": 2087,
    "text": "Trạm 2087",
    "diachi": "Số 742, đường Hùng Vương, khu vực 3, Phường Ngã Bảy, Thành phố Ngã Bảy, Tỉnh Hậu Giang, Việt Nam",
    "lat": "9.81238",
    "lng": "105.821016",
    "network": "Viettel",
    "networktype": "GSM/WCDMA",
    "provinceid": "330"
  },
  {
    "id": 2086,
    "text": "Trạm 2086",
    "diachi": "68/57 Ấp Tân Phú , Thị Trấn Cái Tắc, Huyện Châu Thành A, Tỉnh Hậu Giang, Việt Nam",
    "lat": "9.92543051661828",
    "lng": "105.739023034734",
    "network": "Viettel",
    "networktype": "GSM/WCDMA",
    "provinceid": "330"
  },
  {
    "id": 2085,
    "text": "Trạm 2085",
    "diachi": "Số 19 ấp 3, Thị Trấn Nàng Mau, Huyện Vị Thủy, Tỉnh Hậu Giang, Việt Nam",
    "lat": "9.75289696332149",
    "lng": "105.531013872001",
    "network": "MobiFone",
    "networktype": "GSM",
    "provinceid": "330"
  },
  {
    "id": 2084,
    "text": "Trạm 2084",
    "diachi": "Đường Trần Hưng Đạo, khu vực 5, Phường VII, Thành phố Vị Thanh, Tỉnh Hậu Giang, Việt Nam",
    "lat": "9.75284643168588",
    "lng": "105.416652411533",
    "network": "MobiFone",
    "networktype": "WCDMA",
    "provinceid": "330"
  },
  {
    "id": 2083,
    "text": "Trạm 2083",
    "diachi": "Số 170, Nguyễn Minh Quang, khu vực VI, Phường Ngã Bảy, Thành phố Ngã Bảy, Tỉnh Hậu Giang, Việt Nam",
    "lat": "9.81238",
    "lng": "105.821016",
    "network": "Viettel",
    "networktype": "GSM",
    "provinceid": "330"
  },
  {
    "id": 2082,
    "text": "Trạm 2082",
    "diachi": "Số 47 ấp Phú Hưng, Xã Phú An, Huyện Châu Thành, Tỉnh Hậu Giang, Việt Nam",
    "lat": "9.94742181617828",
    "lng": "105.794352825896",
    "network": "Viettel",
    "networktype": "GSM/WCDMA",
    "provinceid": "330"
  },
  {
    "id": 2081,
    "text": "Trạm 2081",
    "diachi": "Số 969 đường Trần Hưng Đạo, Khu vực 1, Phường VII, Thành phố Vị Thanh, Tỉnh Hậu Giang, Việt Nam",
    "lat": "9.75284643168588",
    "lng": "105.416652411533",
    "network": "FPT",
    "networktype": "GSM/WCDMA",
    "provinceid": "330"
  },
  {
    "id": 2080,
    "text": "Trạm 2080",
    "diachi": "Kênh 13, ấp 6, Xã Vĩnh Trung, Huyện Vị Thủy, Tỉnh Hậu Giang, Việt Nam",
    "lat": "9.7898174",
    "lng": "105.5612893",
    "network": "Viettel",
    "networktype": "GSM/WCDMA",
    "provinceid": "330"
  },
  {
    "id": 2079,
    "text": "Trạm 2079",
    "diachi": "Hẻm 76, đường Nguyễn Trãi, Phường IV, Thành phố Vị Thanh, Tỉnh Hậu Giang, Việt Nam",
    "lat": "9.78459161",
    "lng": "105.46528634",
    "network": "MobiFone",
    "networktype": "GSM/WCDMA",
    "provinceid": "330"
  },
  {
    "id": 2078,
    "text": "Trạm 2078",
    "diachi": "Số 39, ấp Trường Khánh, Xã Long Thạnh, Huyện Phụng Hiệp, Tỉnh Hậu Giang, Việt Nam",
    "lat": "9.88749553620353",
    "lng": "105.762974959185",
    "network": "Viettel",
    "networktype": "GSM",
    "provinceid": "330"
  },
  {
    "id": 2077,
    "text": "Trạm 2077",
    "diachi": "ấp Đông Mỹ, Thị Trấn Ngã Sáu, Huyện Châu Thành, Tỉnh Hậu Giang, Việt Nam",
    "lat": "9.91964099687914",
    "lng": "105.805687746643",
    "network": "FPT",
    "networktype": "WCDMA",
    "provinceid": "330"
  },
  {
    "id": 2076,
    "text": "Trạm 2076",
    "diachi": "Số 773/87 ấp 4A, Thị Trấn Bảy Ngàn, Huyện Châu Thành A, Tỉnh Hậu Giang, Việt Nam",
    "lat": "9.88711597",
    "lng": "105.58627175",
    "network": "VNPT",
    "networktype": "WCDMA",
    "provinceid": "330"
  },
  {
    "id": 2075,
    "text": "Trạm 2075",
    "diachi": "Số 68, ấp 2, Xã Vĩnh Thuận Tây, Huyện Vị Thủy, Tỉnh Hậu Giang, Việt Nam",
    "lat": "9.71880346",
    "lng": "105.4585849",
    "network": "MobiFone",
    "networktype": "GSM/WCDMA",
    "provinceid": "330"
  },
  {
    "id": 2074,
    "text": "Trạm 2074",
    "diachi": "Số 740 đường Hùng Vương, khu vực 3, Phường Ngã Bảy, Thành phố Ngã Bảy, Tỉnh Hậu Giang, Việt Nam",
    "lat": "9.81238",
    "lng": "105.821016",
    "network": "MobiFone",
    "networktype": "GSM/WCDMA",
    "provinceid": "330"
  },
  {
    "id": 2073,
    "text": "Trạm 2073",
    "diachi": "Số 01, đường 1/5, Phường Hiệp Thành, Thành phố Ngã Bảy, Tỉnh Hậu Giang, Việt Nam",
    "lat": "9.79307290000001",
    "lng": "105.8346654",
    "network": "MobiFone",
    "networktype": "GSM",
    "provinceid": "330"
  },
  {
    "id": 2072,
    "text": "Trạm 2072",
    "diachi": "Số 286, quốc lộ 61, ấp Xẻo Cao, Xã Thạnh Xuân, Huyện Châu Thành A, Tỉnh Hậu Giang, Việt Nam",
    "lat": "9.92954070560163",
    "lng": "105.68833614565",
    "network": "MobiFone",
    "networktype": "WCDMA",
    "provinceid": "330"
  },
  {
    "id": 2071,
    "text": "Trạm 2071",
    "diachi": "Số 5/1, đường Trần Hưng Đạo, khu vực Bình Thạnh B, Phường Bình Thạnh, Thị Xã Long Mỹ, Tỉnh Hậu Giang, Việt Nam",
    "lat": "9.610686",
    "lng": "105.596053",
    "network": "FPT",
    "networktype": "WCDMA",
    "provinceid": "330"
  },
  {
    "id": 2070,
    "text": "Trạm 2070",
    "diachi": "Số 01, đường 1/5 , Phường Hiệp Thành, Thành phố Ngã Bảy, Tỉnh Hậu Giang, Việt Nam",
    "lat": "9.79307290000001",
    "lng": "105.8346654",
    "network": "VNPT",
    "networktype": "WCDMA",
    "provinceid": "330"
  },
  {
    "id": 2069,
    "text": "Trạm 2069",
    "diachi": "Số 537, ấp Tân Phú, Thị Trấn Cái Tắc, Huyện Châu Thành A, Tỉnh Hậu Giang, Việt Nam",
    "lat": "9.92543051661828",
    "lng": "105.739023034734",
    "network": "VNPT",
    "networktype": "GSM/WCDMA",
    "provinceid": "330"
  },
  {
    "id": 2068,
    "text": "Trạm 2068",
    "diachi": "Số 109, đường Trần Ngọc Quế, khu vực 4, Phường I, Thành phố Vị Thanh, Tỉnh Hậu Giang, Việt Nam",
    "lat": "9.78459161",
    "lng": "105.46528634",
    "network": "Viettel",
    "networktype": "GSM/WCDMA",
    "provinceid": "330"
  },
  {
    "id": 2067,
    "text": "Trạm 2067",
    "diachi": "Số 116, ấp Xẻo Môn, Xã Phụng Hiệp, Huyện Phụng Hiệp, Tỉnh Hậu Giang, Việt Nam",
    "lat": "9.81875980732676",
    "lng": "105.764531098004",
    "network": "FPT",
    "networktype": "GSM",
    "provinceid": "330"
  },
  {
    "id": 2066,
    "text": "Trạm 2066",
    "diachi": "ấp 2, Xã Vị Tân, Thành phố Vị Thanh, Tỉnh Hậu Giang, Việt Nam",
    "lat": "9.79035605",
    "lng": "105.44555375",
    "network": "Viettel",
    "networktype": "GSM/WCDMA",
    "provinceid": "330"
  },
  {
    "id": 2065,
    "text": "Trạm 2065",
    "diachi": "ấp 6, Xã Vị Tân, Thành phố Vị Thanh, Tỉnh Hậu Giang, Việt Nam",
    "lat": "9.79035605",
    "lng": "105.44555375",
    "network": "Viettel",
    "networktype": "GSM/WCDMA",
    "provinceid": "330"
  },
  {
    "id": 2064,
    "text": "Trạm 2064",
    "diachi": "Số 262, ấp Phú Nhơn, Xã Đông Phú, Huyện Châu Thành, Tỉnh Hậu Giang, Việt Nam",
    "lat": "9.96226719",
    "lng": "105.84770242",
    "network": "Viettel",
    "networktype": "WCDMA",
    "provinceid": "330"
  },
  {
    "id": 2063,
    "text": "Trạm 2063",
    "diachi": "Số 126, ấp Phú Thành, Thị Trấn Mái Dầm, Huyện Châu Thành, Tỉnh Hậu Giang, Việt Nam",
    "lat": "9.94237316146885",
    "lng": "105.866743050384",
    "network": "FPT",
    "networktype": "GSM/WCDMA",
    "provinceid": "330"
  },
  {
    "id": 2062,
    "text": "Trạm 2062",
    "diachi": "Số 276, quốc lộ 1A, Phường Hiệp Thành, Thành phố Ngã Bảy, Tỉnh Hậu Giang, Việt Nam",
    "lat": "9.79307290000001",
    "lng": "105.8346654",
    "network": "Viettel",
    "networktype": "GSM/WCDMA",
    "provinceid": "330"
  },
  {
    "id": 2061,
    "text": "Trạm 2061",
    "diachi": "Số 68 Hùng Vương, Thị Trấn Ngã Sáu, Huyện Châu Thành, Tỉnh Hậu Giang, Việt Nam",
    "lat": "9.91964099687914",
    "lng": "105.805687746643",
    "network": "VNPT",
    "networktype": "WCDMA",
    "provinceid": "330"
  },
  {
    "id": 2060,
    "text": "Trạm 2060",
    "diachi": "Ấp 9, Xã Vị Trung, Huyện Vị Thủy, Tỉnh Hậu Giang, Việt Nam",
    "lat": "9.78075251741463",
    "lng": "105.532354389024",
    "network": "FPT",
    "networktype": "GSM",
    "provinceid": "330"
  },
  {
    "id": 2059,
    "text": "Trạm 2059",
    "diachi": "Đường 3/2 ấp Mỹ Quới, Thị Trấn Cây Dương, Huyện Phụng Hiệp, Tỉnh Hậu Giang, Việt Nam",
    "lat": "9.78443290298373",
    "lng": "105.733307749641",
    "network": "FPT",
    "networktype": "WCDMA",
    "provinceid": "330"
  },
  {
    "id": 2058,
    "text": "Trạm 2058",
    "diachi": "ấp Mái Dầm, Xã Đại Thành, Thành phố Ngã Bảy, Tỉnh Hậu Giang, Việt Nam",
    "lat": "9.83110347688112",
    "lng": "105.821335705071",
    "network": "VNPT",
    "networktype": "GSM",
    "provinceid": "330"
  },
  {
    "id": 2057,
    "text": "Trạm 2057",
    "diachi": "Phú Xuân, Thị Trấn Mái Dầm, Huyện Châu Thành, Tỉnh Hậu Giang, Việt Nam",
    "lat": "9.94237316146885",
    "lng": "105.866743050384",
    "network": "Viettel",
    "networktype": "GSM",
    "provinceid": "330"
  },
  {
    "id": 2056,
    "text": "Trạm 2056",
    "diachi": "Số 141 Nguyễn Trung Trực, Phường Thuận An, Thị Xã Long Mỹ, Tỉnh Hậu Giang, Việt Nam",
    "lat": "9.610686",
    "lng": "105.596053",
    "network": "FPT",
    "networktype": "GSM/WCDMA",
    "provinceid": "330"
  },
  {
    "id": 2055,
    "text": "Trạm 2055",
    "diachi": "Ấp Thuận Hưng, Thị Trấn Ngã Sáu, Huyện Châu Thành, Tỉnh Hậu Giang, Việt Nam",
    "lat": "9.91964099687914",
    "lng": "105.805687746643",
    "network": "FPT",
    "networktype": "GSM",
    "provinceid": "330"
  },
  {
    "id": 2054,
    "text": "Trạm 2054",
    "diachi": "ấp Xẻo Vông B, Xã Hiệp Lợi, Thành phố Ngã Bảy, Tỉnh Hậu Giang, Việt Nam",
    "lat": "9.833459",
    "lng": "105.800861",
    "network": "VNPT",
    "networktype": "GSM/WCDMA",
    "provinceid": "330"
  },
  {
    "id": 2053,
    "text": "Trạm 2053",
    "diachi": "Số 25, ấp Đông Bình, Xã Tân Thành, Thành phố Ngã Bảy, Tỉnh Hậu Giang, Việt Nam",
    "lat": "9.86323381349434",
    "lng": "105.837833695447",
    "network": "Viettel",
    "networktype": "WCDMA",
    "provinceid": "330"
  },
  {
    "id": 2052,
    "text": "Trạm 2052",
    "diachi": "Số 764, đường Hùng Vương, Phường Ngã Bảy, Thành phố Ngã Bảy, Tỉnh Hậu Giang, Việt Nam",
    "lat": "9.81238",
    "lng": "105.821016",
    "network": "FPT",
    "networktype": "GSM",
    "provinceid": "330"
  },
  {
    "id": 2051,
    "text": "Trạm 2051",
    "diachi": "Ấp 6, Xã Vị Tân, Thành phố Vị Thanh, Tỉnh Hậu Giang, Việt Nam",
    "lat": "9.79035605",
    "lng": "105.44555375",
    "network": "FPT",
    "networktype": "WCDMA",
    "provinceid": "330"
  },
  {
    "id": 2050,
    "text": "Trạm 2050",
    "diachi": "Quốc Lộ Nam Sông Hậu, Ấp Phú Xuân, Thị Trấn Mái Dầm, Huyện Châu Thành, Tỉnh Hậu Giang, Việt Nam",
    "lat": "9.94237316146885",
    "lng": "105.866743050384",
    "network": "FPT",
    "networktype": "GSM/WCDMA",
    "provinceid": "330"
  },
  {
    "id": 2049,
    "text": "Trạm 2049",
    "diachi": "Số 19 ấp Phương Lạc, Xã Phương Bình, Huyện Phụng Hiệp, Tỉnh Hậu Giang, Việt Nam",
    "lat": "9.741598",
    "lng": "105.647489",
    "network": "MobiFone",
    "networktype": "GSM",
    "provinceid": "330"
  },
  {
    "id": 2048,
    "text": "Trạm 2048",
    "diachi": "Ấp 2, Xã Vị Bình, Huyện Vị Thủy, Tỉnh Hậu Giang, Việt Nam",
    "lat": "9.87797831387107",
    "lng": "105.558145467347",
    "network": "FPT",
    "networktype": "GSM",
    "provinceid": "330"
  },
  {
    "id": 2047,
    "text": "Trạm 2047",
    "diachi": "Khu Công nghiệp Sông Hậu - giai đoạn 1, Xã Đông Phú, Huyện Châu Thành, Tỉnh Hậu Giang, Việt Nam",
    "lat": "9.96226719",
    "lng": "105.84770242",
    "network": "VNPT",
    "networktype": "GSM",
    "provinceid": "330"
  },
  {
    "id": 2046,
    "text": "Trạm 2046",
    "diachi": "Số 18, Hải Thượng Lãn Ông, Phường I, Thành phố Vị Thanh, Tỉnh Hậu Giang, Việt Nam",
    "lat": "9.78459161",
    "lng": "105.46528634",
    "network": "MobiFone",
    "networktype": "GSM",
    "provinceid": "330"
  },
  {
    "id": 2045,
    "text": "Trạm 2045",
    "diachi": "số 09, đường Triệu Quang Phục, Phường V, Thành phố Vị Thanh, Tỉnh Hậu Giang, Việt Nam",
    "lat": "9.78180487",
    "lng": "105.46677087",
    "network": "FPT",
    "networktype": "WCDMA",
    "provinceid": "330"
  },
  {
    "id": 2044,
    "text": "Trạm 2044",
    "diachi": "G10 - KDC Vượt lũ Phú Tân, ấp Phú Tân A, Xã Phú Tân, Huyện Châu Thành, Tỉnh Hậu Giang, Việt Nam",
    "lat": "9.89686209714572",
    "lng": "105.858571199961",
    "network": "VNPT",
    "networktype": "GSM/WCDMA",
    "provinceid": "330"
  },
  {
    "id": 2043,
    "text": "Trạm 2043",
    "diachi": "Số 297, ấp Mỹ Lợi, Thị Trấn Cây Dương, Huyện Phụng Hiệp, Tỉnh Hậu Giang, Việt Nam",
    "lat": "9.78443290298373",
    "lng": "105.733307749641",
    "network": "VNPT",
    "networktype": "GSM",
    "provinceid": "330"
  },
  {
    "id": 2042,
    "text": "Trạm 2042",
    "diachi": "Cạnh nhà 385, ấp Phú Lợi, Xã Tân Phú Thạnh, Huyện Châu Thành A, Tỉnh Hậu Giang, Việt Nam",
    "lat": "9.94877811469693",
    "lng": "105.720219678411",
    "network": "MobiFone",
    "networktype": "GSM",
    "provinceid": "330"
  },
  {
    "id": 2041,
    "text": "Trạm 2041",
    "diachi": "số 34 ấp 9, Xã Lương Tâm, Huyện Long Mỹ, Tỉnh Hậu Giang, Việt Nam",
    "lat": "9.62205683503674",
    "lng": "105.449208342939",
    "network": "VNPT",
    "networktype": "WCDMA",
    "provinceid": "330"
  },
  {
    "id": 2040,
    "text": "Trạm 2040",
    "diachi": "số 167 khu vực Xẻo Vong C, Phường Hiệp Lợi, Thành phố Ngã Bảy, Tỉnh Hậu Giang, Việt Nam",
    "lat": "9.83834984425867",
    "lng": "105.789417007205",
    "network": "VNPT",
    "networktype": "GSM",
    "provinceid": "330"
  },
  {
    "id": 2039,
    "text": "Trạm 2039",
    "diachi": "Số 31.13/8, khu vực 1, Phường Hiệp Thành, Thành phố Ngã Bảy, Tỉnh Hậu Giang, Việt Nam",
    "lat": "9.79307290000001",
    "lng": "105.8346654",
    "network": "VNPT",
    "networktype": "WCDMA",
    "provinceid": "330"
  },
  {
    "id": 2038,
    "text": "Trạm 2038",
    "diachi": "Số 30 đường Lê Quý Đôn, Phường III, Thành phố Vị Thanh, Tỉnh Hậu Giang, Việt Nam",
    "lat": "9.7713306",
    "lng": "105.4758436",
    "network": "VNPT",
    "networktype": "GSM",
    "provinceid": "330"
  },
  {
    "id": 2037,
    "text": "Trạm 2037",
    "diachi": "A7-33 đường số 6, khu dân cư 586, khu vực 4, Phường VII, Thành phố Vị Thanh, Tỉnh Hậu Giang, Việt Nam",
    "lat": "9.75284643168588",
    "lng": "105.416652411533",
    "network": "Viettel",
    "networktype": "GSM",
    "provinceid": "330"
  },
  {
    "id": 2036,
    "text": "Trạm 2036",
    "diachi": "Số 86, Khu vực Thạnh Hiếu, Phường Bình Thạnh, Thị Xã Long Mỹ, Tỉnh Hậu Giang, Việt Nam",
    "lat": "9.610686",
    "lng": "105.596053",
    "network": "MobiFone",
    "networktype": "GSM/WCDMA",
    "provinceid": "330"
  },
  {
    "id": 2035,
    "text": "Trạm 2035",
    "diachi": "Số C4-8, KDC Thiên Lộc HG, ấp Phú Thạnh, Xã Tân Phú Thạnh, Huyện Châu Thành A, Tỉnh Hậu Giang, Việt Nam",
    "lat": "9.94877811469693",
    "lng": "105.720219678411",
    "network": "Viettel",
    "networktype": "GSM/WCDMA",
    "provinceid": "330"
  },
  {
    "id": 2034,
    "text": "Trạm 2034",
    "diachi": "Ấp 9A2, Xã Vị Bình, Huyện Vị Thủy, Tỉnh Hậu Giang, Việt Nam",
    "lat": "9.87797831387107",
    "lng": "105.558145467347",
    "network": "VNPT",
    "networktype": "WCDMA",
    "provinceid": "330"
  },
  {
    "id": 2033,
    "text": "Trạm 2033",
    "diachi": "Số 232, Ấp Phú Mỹ, Xã Tân Phước Hưng, Huyện Phụng Hiệp, Tỉnh Hậu Giang, Việt Nam",
    "lat": "9.75300341168374",
    "lng": "105.804128077245",
    "network": "Viettel",
    "networktype": "GSM/WCDMA",
    "provinceid": "330"
  },
  {
    "id": 2032,
    "text": "Trạm 2032",
    "diachi": "Số 9B, Lô A8 Cụm Công Nghiệp - Tiểu Thủ Công Nghiệp, Phường VII, Thành phố Vị Thanh, Tỉnh Hậu Giang, Việt Nam",
    "lat": "9.75284643168588",
    "lng": "105.416652411533",
    "network": "FPT",
    "networktype": "WCDMA",
    "provinceid": "330"
  },
  {
    "id": 2031,
    "text": "Trạm 2031",
    "diachi": "140,ấp Thạnh Long, Xã Đông Thạnh, Huyện Châu Thành, Tỉnh Hậu Giang, Việt Nam",
    "lat": "9.94649792351409",
    "lng": "105.75264067964",
    "network": "FPT",
    "networktype": "WCDMA",
    "provinceid": "330"
  },
  {
    "id": 2030,
    "text": "Trạm 2030",
    "diachi": "Số A18-8, đường số 17 KDC 586, KV4, Phường VII, Thành phố Vị Thanh, Tỉnh Hậu Giang, Việt Nam",
    "lat": "9.75284643168588",
    "lng": "105.416652411533",
    "network": "VNPT",
    "networktype": "GSM/WCDMA",
    "provinceid": "330"
  },
  {
    "id": 2029,
    "text": "Trạm 2029",
    "diachi": "Khu Công nghiệp Sông Hậu, Xã Đông Phú, Huyện Châu Thành, Tỉnh Hậu Giang, Việt Nam",
    "lat": "9.96226719",
    "lng": "105.84770242",
    "network": "MobiFone",
    "networktype": "WCDMA",
    "provinceid": "330"
  },
  {
    "id": 2028,
    "text": "Trạm 2028",
    "diachi": "Số 55, đường Nguyễn Trãi, khu vực 2, Phường Lái Hiếu, Thành phố Ngã Bảy, Tỉnh Hậu Giang, Việt Nam",
    "lat": "9.81674759578225",
    "lng": "105.791473409249",
    "network": "VNPT",
    "networktype": "GSM",
    "provinceid": "330"
  },
  {
    "id": 2027,
    "text": "Trạm 2027",
    "diachi": "Số nhà PG01 - 15 Vincom Vị Thanh, khu vực 3, Phường V, Thành phố Vị Thanh, Tỉnh Hậu Giang, Việt Nam",
    "lat": "9.78180487",
    "lng": "105.46677087",
    "network": "Viettel",
    "networktype": "GSM",
    "provinceid": "330"
  },
  {
    "id": 2026,
    "text": "Trạm 2026",
    "diachi": "ấp Xẻo Vông, đường Hùng Vương, Phường Hiệp Lợi, Thành phố Ngã Bảy, Tỉnh Hậu Giang, Việt Nam",
    "lat": "9.83834984425867",
    "lng": "105.789417007205",
    "network": "VNPT",
    "networktype": "WCDMA",
    "provinceid": "330"
  },
  {
    "id": 2025,
    "text": "Trạm 2025",
    "diachi": "Lô A1, đường số 06, Cụm Công nghiệp - Tiểu thủ công nhiệp, Phường VII, Thành phố Vị Thanh, Tỉnh Hậu Giang, Việt Nam",
    "lat": "9.75284643168588",
    "lng": "105.416652411533",
    "network": "VNPT",
    "networktype": "WCDMA",
    "provinceid": "330"
  },
  {
    "id": 2024,
    "text": "Trạm 2024",
    "diachi": "Lô A2, đường số 6, Cụm Công nghiệp - Tiểu thủ công nghiệp, Khu vực 4, Phường VII, Thành phố Vị Thanh, Tỉnh Hậu Giang, Việt Nam",
    "lat": "9.75284643168588",
    "lng": "105.416652411533",
    "network": "MobiFone",
    "networktype": "GSM/WCDMA",
    "provinceid": "330"
  },
  {
    "id": 2023,
    "text": "Trạm 2023",
    "diachi": "Số 44, ấp 8, Xã Hoà An, Huyện Phụng Hiệp, Tỉnh Hậu Giang, Việt Nam",
    "lat": "9.78426754820691",
    "lng": "105.624568110319",
    "network": "MobiFone",
    "networktype": "GSM/WCDMA",
    "provinceid": "330"
  },
  {
    "id": 2022,
    "text": "Trạm 2022",
    "diachi": "Ấp Mùa Xuân, Xã Tân Phước Hưng, Huyện Phụng Hiệp, Tỉnh Hậu Giang, Việt Nam",
    "lat": "9.75300341168374",
    "lng": "105.804128077245",
    "network": "VNPT",
    "networktype": "WCDMA",
    "provinceid": "330"
  },
  {
    "id": 2021,
    "text": "Trạm 2021",
    "diachi": "Cụm công nghiệp tập trung Đông Phú - GĐ1, Xã Đông Phú, Huyện Châu Thành, Tỉnh Hậu Giang, Việt Nam",
    "lat": "9.96226719",
    "lng": "105.84770242",
    "network": "VNPT",
    "networktype": "GSM/WCDMA",
    "provinceid": "330"
  },
  {
    "id": 2020,
    "text": "Trạm 2020",
    "diachi": "PG2-16, Shophouse Vincom Plaza Hậu Giang, khu vực 3, Phường V, Thành phố Vị Thanh, Tỉnh Hậu Giang, Việt Nam",
    "lat": "9.78180487",
    "lng": "105.46677087",
    "network": "Viettel",
    "networktype": "GSM",
    "provinceid": "330"
  },
  {
    "id": 2019,
    "text": "Trạm 2019",
    "diachi": "ấp Đông Thuận, Xã Đông Thạnh, Huyện Châu Thành, Tỉnh Hậu Giang, Việt Nam",
    "lat": "9.94649792351409",
    "lng": "105.75264067964",
    "network": "VNPT",
    "networktype": "WCDMA",
    "provinceid": "330"
  },
  {
    "id": 2018,
    "text": "Trạm 2018",
    "diachi": "Số 145, đường Cách Mạng Tháng Tám, khu vực 5, Phường Thuận An, Thị Xã Long Mỹ, Tỉnh Hậu Giang, Việt Nam",
    "lat": "9.610686",
    "lng": "105.596053",
    "network": "MobiFone",
    "networktype": "WCDMA",
    "provinceid": "330"
  },
  {
    "id": 2017,
    "text": "Trạm 2017",
    "diachi": "A18-12, đường số 17 KDC 586, KV4, Phường VII, Thành phố Vị Thanh, Tỉnh Hậu Giang, Việt Nam",
    "lat": "9.75284643168588",
    "lng": "105.416652411533",
    "network": "MobiFone",
    "networktype": "GSM/WCDMA",
    "provinceid": "330"
  },
  {
    "id": 2016,
    "text": "Trạm 2016",
    "diachi": "ấp Mỹ Thành A, Xã Hoà Mỹ, Huyện Phụng Hiệp, Tỉnh Hậu Giang, Việt Nam",
    "lat": "9.79464682389481",
    "lng": "105.706536698554",
    "network": "FPT",
    "networktype": "GSM/WCDMA",
    "provinceid": "330"
  },
  {
    "id": 2015,
    "text": "Trạm 2015",
    "diachi": "458/7 đường Nguyễn Trung Trực, khu vực 2, Phường Lái Hiếu, Thành phố Ngã Bảy, Tỉnh Hậu Giang, Việt Nam",
    "lat": "9.81674759578225",
    "lng": "105.791473409249",
    "network": "VNPT",
    "networktype": "GSM/WCDMA",
    "provinceid": "330"
  },
  {
    "id": 2014,
    "text": "Trạm 2014",
    "diachi": "Ấp 9A2, Xã Vị Bình, Huyện Vị Thủy, Tỉnh Hậu Giang, Việt Nam",
    "lat": "9.87797831387107",
    "lng": "105.558145467347",
    "network": "VNPT",
    "networktype": "GSM",
    "provinceid": "330"
  },
  {
    "id": 2013,
    "text": "Trạm 2013",
    "diachi": "Số 345, ấp Tân Thạnh Tây, Xã Tân Phú Thạnh, Huyện Châu Thành A, Tỉnh Hậu Giang, Việt Nam",
    "lat": "9.94877811469693",
    "lng": "105.720219678411",
    "network": "VNPT",
    "networktype": "GSM",
    "provinceid": "330"
  },
  {
    "id": 2012,
    "text": "Trạm 2012",
    "diachi": "Số 85 Nguyễn Công Trứ, khu vực 4, Phường I, Thành phố Vị Thanh, Tỉnh Hậu Giang, Việt Nam",
    "lat": "9.78459161",
    "lng": "105.46528634",
    "network": "VNPT",
    "networktype": "GSM/WCDMA",
    "provinceid": "330"
  },
  {
    "id": 2011,
    "text": "Trạm 2011",
    "diachi": "Số 140, tỉnh lộ 928, ấp Mỹ Hòa, Thị Trấn Cây Dương, Huyện Phụng Hiệp, Tỉnh Hậu Giang, Việt Nam",
    "lat": "9.78443290298373",
    "lng": "105.733307749641",
    "network": "Viettel",
    "networktype": "GSM",
    "provinceid": "330"
  },
  {
    "id": 2010,
    "text": "Trạm 2010",
    "diachi": "Số 53, Nguyễn Văn Trỗi, khu vực 1, Phường III, Thành phố Vị Thanh, Tỉnh Hậu Giang, Việt Nam",
    "lat": "9.7713306",
    "lng": "105.4758436",
    "network": "MobiFone",
    "networktype": "GSM/WCDMA",
    "provinceid": "330"
  },
  {
    "id": 2009,
    "text": "Trạm 2009",
    "diachi": "Số 131 ấp Thạnh Lợi A1, Xã Tân Long, Huyện Phụng Hiệp, Tỉnh Hậu Giang, Việt Nam",
    "lat": "9.876654",
    "lng": "105.769342",
    "network": "Viettel",
    "networktype": "GSM",
    "provinceid": "330"
  },
  {
    "id": 2008,
    "text": "Trạm 2008",
    "diachi": "Số 528 ấp Đông Thuận, Xã Đông Thạnh, Huyện Châu Thành, Tỉnh Hậu Giang, Việt Nam",
    "lat": "9.94649792351409",
    "lng": "105.75264067964",
    "network": "FPT",
    "networktype": "GSM",
    "provinceid": "330"
  },
  {
    "id": 2007,
    "text": "Trạm 2007",
    "diachi": "Số 21B, ấp Trường Thọ A, Xã Trường Long Tây, Huyện Châu Thành A, Tỉnh Hậu Giang, Việt Nam",
    "lat": "9.924084",
    "lng": "105.5591615",
    "network": "VNPT",
    "networktype": "GSM/WCDMA",
    "provinceid": "330"
  },
  {
    "id": 2006,
    "text": "Trạm 2006",
    "diachi": "Số 38, ấp Long Lợi A, Xã Đông Phước A, Huyện Châu Thành, Tỉnh Hậu Giang, Việt Nam",
    "lat": "9.931471",
    "lng": "105.774554",
    "network": "Viettel",
    "networktype": "WCDMA",
    "provinceid": "330"
  },
  {
    "id": 2005,
    "text": "Trạm 2005",
    "diachi": "Số A7, lô 56, đường số 6, khu dân cư 586, kv4, Phường VII, Thành phố Vị Thanh, Tỉnh Hậu Giang, Việt Nam",
    "lat": "9.75284643168588",
    "lng": "105.416652411533",
    "network": "FPT",
    "networktype": "GSM",
    "provinceid": "330"
  },
  {
    "id": 2004,
    "text": "Trạm 2004",
    "diachi": "Số 58 Nguyễn An Ninh, khu vực 2, Phường IV, Thành phố Vị Thanh, Tỉnh Hậu Giang, Việt Nam",
    "lat": "9.78459161",
    "lng": "105.46528634",
    "network": "FPT",
    "networktype": "WCDMA",
    "provinceid": "330"
  },
  {
    "id": 2003,
    "text": "Trạm 2003",
    "diachi": "Số 790, tỉnh lộ 927 ấp 8, Xã Hoà An, Huyện Phụng Hiệp, Tỉnh Hậu Giang, Việt Nam",
    "lat": "9.78426754820691",
    "lng": "105.624568110319",
    "network": "Viettel",
    "networktype": "GSM/WCDMA",
    "provinceid": "330"
  },
  {
    "id": 2002,
    "text": "Trạm 2002",
    "diachi": "Số 24 Mạc Đĩnh Chi, khu vực 1, Phường Ngã Bảy, Thành phố Ngã Bảy, Tỉnh Hậu Giang, Việt Nam",
    "lat": "9.81238",
    "lng": "105.821016",
    "network": "MobiFone",
    "networktype": "GSM",
    "provinceid": "330"
  },
  {
    "id": 2001,
    "text": "Trạm 2001",
    "diachi": "Số 15, ấp Hòa Phụng A, Thị Trấn Kinh Cùng, Huyện Phụng Hiệp, Tỉnh Hậu Giang, Việt Nam",
    "lat": "9.80925816024292",
    "lng": "105.632373665658",
    "network": "VNPT",
    "networktype": "GSM/WCDMA",
    "provinceid": "330"
  },
  {
    "id": 2000,
    "text": "Trạm 2000",
    "diachi": "Ấp Thạnh Lợi A2, Xã Tân Long, Huyện Phụng Hiệp, Tỉnh Hậu Giang, Việt Nam",
    "lat": "9.876654",
    "lng": "105.769342",
    "network": "FPT",
    "networktype": "GSM/WCDMA",
    "provinceid": "330"
  }
]